Name,Equipment,Sex,Event,Division,BodyweightKg,WeightClassKg,Squat1Kg,Squat2Kg,Squat3Kg,Best3SquatKg,Bench1Kg,Bench2Kg,Bench3Kg,Best3BenchKg,Deadlift1Kg,Deadlift2Kg,Deadlift3Kg,Best3DeadliftKg,TotalKg,Place
Daniel McGauley,Raw,M,SBD,Special Olympics,55.8,59,90,95,-100,95,72.5,75,77.5,77.5,92.5,-105,105,105,277.5,1
David Martin #3,Raw,M,BD,Special Olympics,104.5,105,,,,,55,-57.5,57.5,57.5,90,100,110,110,167.5,1
Charles-Lee Fourie,Raw,M,SBD,Special Olympics (Juniors),73.3,74,132.5,137.5,-140,137.5,77.5,82.5,85,85,185,195,200,200,422.5,1
Keaton Anthony,Raw,M,SBD,Special Olympics (Juniors),82.2,83,50,60,-70,60,50,55,57.5,57.5,110,120,127.5,127.5,245,1
Minu Gogoi,Single-ply,F,SBD,Open,46.4,47,107.5,120,-125,120,45,50,-55,50,115,125,130,130,300,1
Elisabeth Barry,Single-ply,F,SBD,Open,46.55,47,105,110,115,115,45,-47.5,47.5,47.5,125,130,-135,130,292.5,2
Dehingia Minoti,Single-ply,F,SBD,Open,51.7,52,115,,125,125,-57.5,57.5,62.5,62.5,115,125,132.5,132.5,320,1
Arannanee Gogoi,Single-ply,F,SBD,Open,62.8,63,140,-145,-145,140,-80,80,82.5,82.5,140,142.5,150,150,372.5,1
Toit Du,Single-ply,F,SBD,Open,71.85,72,150,160,172.5,172.5,105,110,-115,110,150,160,-165,160,442.5,2
Mamta Rana,Single-ply,F,SBD,Open,72,72,160,-175,-175,160,75,85,90,90,160,-172.5,172.5,172.5,422.5,1
Iti Sehgal,Single-ply,F,SBD,Open,68.5,72,95,107.5,115,115,47.5,-52.5,52.5,52.5,102.5,117.5,120,120,287.5,3
Shweta Sahni,Single-ply,F,SBD,Open,69.15,72,90,105,-110,105,50,55,-60,55,110,120,-122.5,120,280,4
B Chandrika,Single-ply,F,SBD,Open,81.7,84,140,-150,155,155,55,65,-72.5,65,140,150,157.5,157.5,377.5,1
Jacqui Rees,Single-ply,F,SBD,Open,95.15,84+,170,-182.5,182.5,182.5,-95,95,-100,95,155,170,-180,170,447.5,1
Sampa Guha,Single-ply,F,SBD,Open,86.35,84+,105,120,-150,120,70,82.5,,82.5,-105,105,,105,307.5,2
V Nivetha,Single-ply,F,SBD,Sub-Juniors,41.95,43,50,60,70,70,30,37.5,42.5,42.5,60,80,95,95,207.5,1
Rouxchelle Roux,Single-ply,F,SBD,Juniors,51.5,52,135,-142.5,142.5,142.5,62.5,-67.5,67.5,67.5,117.5,122.5,127.5,127.5,337.5,1
Genevieve Vrettas,Single-ply,F,SBD,Juniors,50.75,52,105,115,-120,115,47.5,50,-52.5,50,110,120,125,125,290,2
Jaspreet Kaur,Single-ply,F,SBD,Juniors,50.8,52,80,-90,90,90,30,35,-40,35,85,95,105,105,230,3
Minati Dihingia,Single-ply,F,SBD,Juniors,51.7,52,115,117.5,125,125,-57.5,-57.5,-57.5,,,,,,,DQ
Megan Leighton,Single-ply,F,SBD,Juniors,56.95,57,125,137.5,-142.5,137.5,-95,95,-103,95,132.5,142.5,155,155,387.5,1
Mousumi Bora,Single-ply,F,SBD,Juniors,96.9,84+,-160,-160,160,160,80,-85,-85,80,-150,150,160,160,400,1
Jain Archana,Single-ply,F,SBD,Masters 1,50.75,52,70,85,-90,85,45,50,55,55,90,100,,100,240,1
Vinutha Raghunath,Single-ply,F,SBD,Masters 1,55.85,57,-112.5,112.5,,112.5,40,42.5,45,45,115,,,115,272.5,1
Gogia Chug Kapila,Single-ply,F,SBD,Masters 1,62.35,63,60,65,,65,40,45,,45,60,75,,75,185,1
Inderjeet Inderjeet,Single-ply,F,SBD,Masters 2,48.95,52,-40,-40,40,40,25,30,,30,50,60,72.5,72.5,142.5,1
Melissa Wall,Single-ply,F,SBD,Masters 2,69.85,72,87.5,92.5,100,100,57.5,62.5,65,65,125,130,-140,130,295,1
Kumar Vignesh,Single-ply,M,SBD,Open,57.9,59,125,165,185,185,97.5,117.5,125,125,130,180,190,190,500,1
Pratik Namdev,Single-ply,M,SBD,Open,56.76,59,160,-170,170,170,107.5,-125,125,125,130,170,180,180,475,2
Akin Yavuz,Single-ply,M,SBD,Open,66,66,180,192.5,200,200,-112.5,112.5,-120,112.5,210,-225,225,225,537.5,1
M Ilango,Single-ply,M,SBD,Open,59.7,66,130,190,-200,190,70,-110,110,110,130,190,210,210,510,2
B Vishwanatha,Single-ply,M,SBD,Open,83,83,270,-285,-285,270,145,-155,155,155,280,302.5,-307.5,302.5,727.5,1
K Acharya Singh,Single-ply,M,SBD,Open,81.7,83,260,-270,-270,260,180,187.5,195,195,240,255,-275,255,710,2
Jaspreet Singh,Single-ply,M,SBD,Open,81.65,83,-270,-270,-270,,-170,,,,-245,,,,,DQ
Raj Bakkiya,Single-ply,M,SBD,Open,91.45,93,220,240,252.5,252.5,-130,130,142.5,142.5,230,245,257.5,257.5,652.5,1
A.M.D. Kodikara,Single-ply,M,SBD,Open,91.4,93,235,245,-255,245,140,155,162.5,162.5,225,235,242.5,242.5,650,2
Indika Paranagama,Single-ply,M,SBD,Open,102.85,105,240,260,280,280,150,165,175,175,250,265,-280,265,720,2
Melvin Vincent,Single-ply,M,SBD,Open,102.9,105,270,-290,-290,270,150,160,165,165,260,272.5,-302.5,272.5,707.5,1
Francois Maritz,Single-ply,M,SBD,Open,114.8,120,340,360,380,380,210,220,-230,220,290,300,-310,300,900,2
D.K.R. Jayathilaka,Single-ply,M,SBD,Open,118.4,120,285,300,305,305,145,160,167.5,167.5,310,320,-327.5,320,792.5,1
Mathys Herbst,Single-ply,M,SBD,Open,149.7,120+,345,355,,355,-240,-240,240,240,300,310,,310,905,1
Darin Weerasinghe,Single-ply,M,SBD,Open,121.9,120+,200,210,225,225,-200,200,-205,200,210,225,240,240,665,2
Malik Pardeep,Single-ply,M,SBD,Open,130.3,120+,-175,-185,185,185,-165,165,180,180,175,200,,200,565,3
Mihir Soni,Single-ply,M,SBD,Sub-Juniors,57.8,59,160,-170,170,170,70,80,-85,80,170,-187.5,-187.5,170,420,1
P Matheshwaran,Single-ply,M,SBD,Sub-Juniors,63.8,66,90,100,107.5,107.5,-40,60,-70,60,100,125,140,140,307.5,1
Gurpreet Singh,Single-ply,M,SBD,Sub-Juniors,64,66,80,-115,-115,80,-55,75,-80,75,80,135,-150,135,290,2
Manjit Singh,Single-ply,M,SBD,Sub-Juniors,80.85,83,-140,140,-150,140,90,-100,100,100,160,180,200,200,440,1
Sukhpal Singh,Single-ply,M,SBD,Sub-Juniors,81.45,83,-110,110,-130,110,-50,50,60,60,80,120,-150,120,290,2
Israr Pasa,Single-ply,M,SBD,Sub-Juniors,111.4,120,185,-190,-190,185,-115,115,120,120,150,180,192.5,192.5,497.5,1
Pranav Khule,Single-ply,M,SBD,Sub-Juniors,122.7,120+,180,190,,190,85,100,110,110,170,190,200,200,500,1
Marcel Vorster,Single-ply,M,SBD,Juniors,65.75,66,220,232.5,242.5,242.5,165,173,-177.5,173,190,-205,-205,190,605.5,1
Barath Palansamy,Single-ply,M,SBD,Juniors,66.82,74,110,130,150,150,70,85,95,95,130,180,-200,180,425,1
K.K.H. Dilhara,Single-ply,M,SBD,Juniors,83,83,220,-235,235,235,120,125,130,130,200,210,225,225,590,1
Mandeep Singh,Single-ply,M,SBD,Juniors,77.9,83,150,170,200,200,100,110,120,120,170,190,220,220,540,2
T Manikanandan,Single-ply,M,SBD,Juniors,82.25,83,120,145,175,175,60,100,-105,100,130,190,232.5,232.5,507.5,3
Venkatesa Prabu,Single-ply,M,SBD,Juniors,89.2,93,150,200,220,220,90,115,120,120,180,220,245,245,585,1
Ghosh Koustabh,Single-ply,M,SBD,Juniors,89.95,93,160,185,-195,185,100,110,-115,110,180,205,215,215,510,2
Adrian Smith,Single-ply,M,SBD,Juniors,97.55,105,-270,270,-285,270,180,190,200,200,200,220,242.5,242.5,712.5,1
Ravi Shankar,Single-ply,M,SBD,Juniors,99.4,105,160,200,-240,200,80,120,140,140,210,240,250,250,590,2
Ankit Khatri,Single-ply,M,SBD,Juniors,131.9,120+,200,,,200,120,130,140,140,200,-230,-230,200,540,1
Sharna Rajn,Single-ply,M,SBD,Masters 1,62.2,66,125,132.5,,132.5,80,100,110,110,135,140,,140,382.5,1
R Ramakrishnan,Single-ply,M,SBD,Masters 1,72.6,74,100,120,140,140,60,100,-110,100,130,170,190,190,430,1
Anand Mandia,Single-ply,M,SBD,Masters 1,82.45,83,170,185,195,195,135,145,-157.5,145,180,200,,200,540,1
R Nallaka Seshagiri,Single-ply,M,SBD,Masters 1,81.75,83,-140,140,150,150,60,70,80,80,160,170,180,180,410,2
Suri Mohit,Single-ply,M,SBD,Masters 1,85.65,93,75,85,95,95,90,95,105,105,90,105,115,115,315,1
Sujay Janardan,Single-ply,M,SBD,Masters 1,97.25,105,-275,275,-295,275,125,130,132.5,132.5,270,290,300,300,707.5,1
Neeraj Chawla,Single-ply,M,SBD,Masters 1,112.2,120,190,210,-240,210,140,175,190,190,160,200,250,250,650,1
Dylan Davies,Single-ply,M,SBD,Masters 1,119.5,120,-240,-240,-240,,160,-170,-177.5,160,240,250,252.5,252.5,,DQ
Vinu Abraham,Single-ply,M,SBD,Masters 2,65.85,66,100,110,115,115,75,80,85,85,110,,,110,310,1
S.P.S Thakur,Single-ply,M,SBD,Masters 2,72.9,74,145,-155,155,155,85,95,97.5,97.5,155,165,170,170,422.5,1
Kr Gupta Praveen,Single-ply,M,SBD,Masters 2,86.3,93,145,160,-170,160,80,95,102.5,102.5,135,160,165,165,427.5,1
Surinder Singh,Single-ply,M,SBD,Masters 2,97.1,105,150,160,170,170,105,-115,117.5,117.5,160,175,190,190,477.5,1
D.U.M Jayathilake,Single-ply,M,SBD,Masters 2,92.8,93,110,130,,130,80,90,-100,90,150,170,,170,390,2
Datt Sharma Mohan,Single-ply,M,SBD,Masters 4,56.65,59,60,70,-85,70,40,45,47.5,47.5,80,95,100,100,217.5,1
Giulia Muto,Raw,F,SBD,Open,45.85,47,107.5,115,-117.5,115,62.5,67.5,-70.5,67.5,110,-125,-125,110,292.5,1
Emma Rafferty,Raw,F,SBD,Open,45.7,47,97.5,-105,-105,97.5,60,-67.5,-67.5,60,115,125,-130,125,282.5,2
Emily Przeslak,Raw,F,SBD,Open,46.35,47,85,90,95,95,47.5,52.5,55,55,110,120,130,130,280,3
Amanda Foulkes,Raw,F,SBD,Open,51.1,52,127.5,-135,135,135,65,67.5,-70,67.5,155,165,167.5,167.5,370,1
Nicole Warburg,Raw,F,SBD,Open,51.7,52,125,-130,-130,125,75,80,-82.5,80,140,145,-147.5,145,350,2
Janine Martin,Raw,F,SBD,Open,49.6,52,95,102.5,-105,102.5,70,75,77.5,77.5,135,145,-150,145,325,3
Louise Sinniah-Burr,Raw,F,SBD,Open,50.9,52,95,100,-105,100,62.5,67.5,-70,67.5,130,140,-147.5,140,307.5,4
Joy Nnamani,Raw,F,SBD,Open,55.45,57,142.5,150,155,155,77.5,82.5,85,85,182.5,195,200,200,440,1
Amy Dickson,Raw,F,SBD,Open,56.15,57,117.5,125,-130,125,60,67.5,70,70,140,150,160,160,355,2
Catherine Graham,Raw,F,SBD,Open,55.45,57,105,112.5,-120,112.5,75,-80,80,80,145,150,-162.5,150,342.5,3
Jeanri Bezuidenhout,Raw,F,SBD,Open,56,57,130,135,-137.5,135,60,65,67.5,67.5,120,130,-142.5,130,332.5,4
Toni Coetzee,Raw,F,SBD,Open,56.75,57,110,-117.5,-117.5,110,52.5,57.5,-60,57.5,127.5,132.5,135,135,302.5,5
Lauren Katz,Raw,F,SBD,Open,55.95,57,90,100,-107.5,100,62.5,67.5,-70,67.5,115,125,-137.5,125,292.5,6
Roisin Meeham,Raw,F,SBD,Open,56.85,57,95,100,-107.5,100,47.5,-50,-50,47.5,-110,110,-115,110,257.5,7
R Ghattamaneni Sai,Raw,F,SBD,Open,61.95,63,125,135,-140,135,45,50,-55,50,160,170,-175,170,355,1
Lisa Basson,Raw,F,SBD,Open,60.2,63,-110,-110,110,110,70,75,-80,75,140,150,-160,150,335,2
Leigh-Ann McQuillan,Raw,F,SBD,Open,58,63,102.5,107.5,110,110,50,52.5,55,55,132.5,142.5,150,150,315,3
Lauren Elder,Raw,F,SBD,Open,60.85,63,102.5,110,-115,110,52.5,55,-57.5,55,135,147.5,-155,147.5,312.5,4
Chloe Graham,Raw,F,SBD,Open,62.5,63,107.5,112.5,-115,112.5,57.5,60,62.5,62.5,127.5,132.5,-140,132.5,307.5,5
Usha Usha,Raw,F,SBD,Open,62.35,63,-130,-130,-130,,80,90,-95,90,130,140,150,150,,DQ
Rowa Hendry-Horne,Raw,F,SBD,Open,69.4,72,130,135,137.5,137.5,-80,80,85,85,140,145,150,150,372.5,1
Candice Coetzer,Raw,F,SBD,Open,71.2,72,120,127.5,-135,127.5,70,75,77.5,77.5,140,152.5,-170,152.5,357.5,2
Alexandra Kapka,Raw,F,SBD,Open,70.5,72,112.5,117.5,122.5,122.5,65,67.5,-70,67.5,140,-152.5,152.5,152.5,342.5,3
Deidre Fenlon,Raw,F,SBD,Open,82.65,84,160,170,175,175,75,82.5,-85,82.5,180,190,192.5,192.5,450,1
Caileigh Dade,Raw,F,SBD,Open,83.1,84,155,165,170,170,75,77.5,80,80,180,192.5,-197.5,192.5,442.5,2
Sandri van Staden,Raw,F,SBD,Open,81.8,84,157.5,162.5,-167.5,162.5,82.5,87.5,90,90,175,185,-190,185,437.5,3
Hannah Topp,Raw,F,SBD,Open,81.55,84,147.5,155,162.5,162.5,65,70,72.5,72.5,145,160,170,170,405,4
Claire Tocher,Raw,F,SBD,Open,79.8,84,137.5,145,147.5,147.5,80,-85,85,85,162.5,170,-185,170,402.5,5
Wendy Macfairlane,Raw,F,SBD,Open,83.1,84,-165,-165,-165,,80,82.5,85,85,160,170,180,180,,DQ
Lauren Norton,Raw,F,SBD,Open,108.55,84+,155,165,175,175,95,100,105,105,170,192.5,205,205,485,1
Brydie Anderson,Raw,F,SBD,Open,116.9,84+,140,150,152.5,152.5,75,82.5,85,85,170,180,190,190,427.5,2
Sarah Hammerton,Raw,F,SBD,Open,89.95,84+,130,140,150,150,75,80,82.5,82.5,130,140,150,150,382.5,3
Nafi Khan Hudaibia,Raw,F,SBD,Open,105.25,84+,135,-145,147.5,147.5,62.5,67.5,72.5,72.5,140,150,157.5,157.5,377.5,4
V Nivetha,Raw,F,SBD,Sub-Juniors,41.65,43,65,70,,70,35,40,45,45,90,95,-100,95,210,1
Patricia Harding,Raw,F,SBD,Sub-Juniors,46.5,47,52.5,57.5,-60,57.5,32.5,35,-37.5,35,92.5,97.5,-100,97.5,190,1
Cayla Colling,Raw,F,SBD,Sub-Juniors,56.15,57,75,82.5,87.5,87.5,45,-50,50,50,100,107.5,112.5,112.5,250,1
Rochelle de Beer,Raw,F,SBD,Sub-Juniors,55.2,57,80,-85,-85,80,42.5,45,-50,45,105,110,115,115,240,2
Caitlin Poxon,Raw,F,SBD,Sub-Juniors,61.75,63,112.5,115,120,120,57.5,-62.5,-62.5,57.5,115,120,-130,120,297.5,1
Emily Killick,Raw,F,SBD,Sub-Juniors,70.4,72,110,117.5,-122.5,117.5,50,55,60,60,120,-132.5,132.5,132.5,310,1
Ciara Morley,Raw,F,SBD,Sub-Juniors,70.05,72,105,115,-125,115,50,-55,-55,50,115,125,130,130,295,2
Jelhand Rautenbach,Raw,F,SBD,Sub-Juniors,75.55,84,135,142.5,-150,142.5,70,75,77.5,77.5,150,155,160,160,380,1
Megan Rogers,Raw,F,SBD,Sub-Juniors,108.6,84+,117.5,122.5,127.5,127.5,60,62.5,-65,62.5,122.5,132.5,-142.5,132.5,322.5,1
Tiarna-Ann Pearce,Raw,F,SBD,Juniors,51.85,52,100,112.5,120,120,47.5,52.5,55,55,110,122.5,-135,122.5,297.5,1
Jaspreet Kaur,Raw,F,SBD,Juniors,50.6,52,-50,50,65,65,25,30,-35,30,70,77.5,-90,77.5,172.5,2
Nicola Paviglianiti,Raw,F,SBD,Juniors,53.75,57,127.5,135,140,140,65,70,-72.5,70,145,155,-160,155,365,1
Elizabeth Pipe,Raw,F,SBD,Juniors,56.4,57,100,105,-107.5,105,60,-62.5,-62.5,60,140,145,150,150,315,2
Emily Lloyd Whittington,Raw,F,SBD,Juniors,61.85,63,140,145,-150,145,72.5,77.5,80,80,155,167.5,-175,167.5,392.5,1
Megan Leighton,Raw,F,SBD,Juniors,59.5,63,110,115,-117.5,115,62.5,67.5,-70,67.5,130,140,145,145,327.5,2
Sasha Payne,Raw,F,SBD,Juniors,59.65,63,105,110,-115,110,60,62.5,65,65,132.5,140,-147.5,140,315,3
Kara Swankie,Raw,F,SBD,Juniors,71.45,72,130,135,140,140,67.5,72.5,75,75,162.5,170,-180,170,385,1
Dina Power,Raw,F,SBD,Juniors,70.4,72,110,117.5,122.5,122.5,55,60,-65,60,-135,150,160,160,342.5,2
Jade Isbister,Raw,F,SBD,Juniors,68.8,72,110,-117.5,117.5,117.5,62.5,67.5,-70,67.5,127.5,135,-140,135,320,3
Lezaan Jordaan,Raw,F,SBD,Juniors,82.7,84,140,150,157.5,157.5,75,-80,-80,75,165,180,192.5,192.5,425,1
Kay-Lee Steyn,Raw,F,SBD,Juniors,110.35,84+,147.5,152.5,155,155,65,67.5,-70,67.5,140,152.5,155,155,377.5,1
Elisabeth Barry,Raw,F,SBD,Masters 1,46.5,47,82.5,-87.5,-87.5,82.5,37.5,-40,40,40,120,125,127.5,127.5,250,1
Catriona Duncan,Raw,F,SBD,Masters 1,50,52,95,-100,-100,95,55,60,62.5,62.5,110,115,120,120,277.5,1
Rachel Smith,Raw,F,SBD,Masters 1,51.65,52,70,75,77.5,77.5,35,37.5,-40,37.5,100,107.5,-112.5,107.5,222.5,2
Archana Jain,Raw,F,SBD,Masters 1,51.35,52,55,-65,-70,55,37.5,40,42.5,42.5,85,92.5,100,100,197.5,3
Antoinette Kriel,Raw,F,SBD,Masters 1,56.8,57,115,122.5,-130.5,122.5,85,91,-96,91,155,170,-178,170,383.5,1
Ilona Wilson,Raw,F,SBD,Masters 1,56.55,57,115,117.5,-120,117.5,52.5,-55,-55,52.5,125,135,-142.5,135,305,2
Anneli Ritari-Stewart,Raw,F,SBD,Masters 1,55.95,57,95,100,105,105,47.5,50,52.5,52.5,120,130,132.5,132.5,290,3
Vinutha Raghunath,Raw,F,SBD,Masters 1,55.65,57,110,-115,115,115,40,45,-47.5,45,115,-120,-120,115,275,4
Karen Burns,Raw,F,SBD,Masters 1,55.6,57,82.5,87.5,90,90,45,50,-52.5,50,120,125,130,130,270,5
Marieke van Linge,Raw,F,SBD,Masters 1,56.2,57,80,85,-87.5,85,37.5,40,-42.5,40,100,115,120,120,245,6
Vicki Botha,Raw,F,SBD,Masters 1,60.8,63,120,127.5,-132.5,127.5,65,70,-72.5,70,140,150,152.5,152.5,350,1
Beverley Rodgers,Raw,F,SBD,Masters 1,62.95,63,112.5,120,125,125,77.5,82.5,-86,82.5,130,140,-147.5,140,347.5,2
Ronel Reyneke,Raw,F,SBD,Masters 1,61.85,63,100,110,-115,110,60,-67.5,-67.5,60,110,122.5,-132.5,122.5,292.5,3
Suzanne Walker,Raw,F,SBD,Masters 1,62.5,63,82.5,85,87.5,87.5,42.5,-45,45,45,115,125,-130,125,257.5,4
Laura de Wet,Raw,F,SBD,Masters 1,71.7,72,135,145,147.5,147.5,70,72.5,75,75,172.5,182.5,187.5,187.5,410,1
Meredith Evans,Raw,F,SBD,Masters 1,71.45,72,137.5,142.5,-145,142.5,67.5,72.5,75,75,170,180,187.5,187.5,405,2
Debbie McAlpine,Raw,F,SBD,Masters 1,70.15,72,120,127.5,132.5,132.5,55,-60,-60,55,120,-130,130,130,317.5,3
Judith Davison,Raw,F,SBD,Masters 1,69.2,72,95,102.5,107.5,107.5,45,50,-55,50,120,130,135,135,292.5,4
Tracey McDaniel,Raw,F,SBD,Masters 1,70.65,72,82.5,87.5,95,95,42.5,45,50,50,115,125,135,135,280,5
Michelle Hamman,Raw,F,SBD,Masters 1,67.7,72,95,-100,100,100,50,52.5,-55,52.5,120,125,-130,125,277.5,6
Kyla Mulholland,Raw,F,SBD,Masters 1,82.6,84,120,127.5,132.5,132.5,75,80,82.5,82.5,145,152.5,157.5,157.5,372.5,1
Suzy Taljard,Raw,F,SBD,Masters 1,81.95,84,107.5,117.5,-122.5,117.5,57.5,62.5,65,65,137.5,147.5,155,155,337.5,2
Jaqui Pope,Raw,F,SBD,Masters 1,82.85,84,100,-110,110,110,70,75,-80,75,135,145,150,150,335,3
Debbie Fenton,Raw,F,SBD,Masters 1,82.35,84,110,117.5,-120,117.5,57.5,-62.5,-62.5,57.5,145,152.5,-157.5,152.5,327.5,4
Nicola Harcus,Raw,F,SBD,Masters 1,73.95,84,90,97.5,102.5,102.5,55,57.5,60,60,125,132.5,-137.5,132.5,295,5
Sarah Marsden,Raw,F,SBD,Masters 1,108.8,84+,155,165,175,175,70,77.5,85,85,155,165,-172.5,165,425,1
Joanna Jack,Raw,F,SBD,Masters 1,92.25,84+,120,130,-135,130,-60,62.5,67.5,67.5,150,-157.5,-157.5,150,347.5,2
Carol Anthony,Raw,F,SBD,Masters 2,51.85,52,70,75,-80,75,40,42.5,45,45,110,122.5,-130,122.5,242.5,1
Samantha Devlin,Raw,F,SBD,Masters 2,55.9,57,-80,80,-85,80,45,-50,-50,45,100,107.5,-115,107.5,232.5,1
Jennifer Ramsay,Raw,F,SBD,Masters 2,55.05,57,67.5,72.5,75,75,32.5,-37.5,-37.5,32.5,90,95,100,100,207.5,2
Candice Firmani,Raw,F,SBD,Masters 2,60.55,63,87.5,-95,-95,87.5,50,57.5,-60,57.5,97.5,107.5,-115,107.5,252.5,1
Lynda Banks,Raw,F,SBD,Masters 2,67.5,72,95,100,105,105,57.5,60,-65,60,120,130,135,135,300,1
Janita Kruger,Raw,F,SBD,Masters 2,71.55,72,90,-95,95,95,-52.5,52.5,-57.5,52.5,110,120,-132.5,120,267.5,2
Lucile Rowan,Raw,F,SBD,Masters 2,67.9,72,90,92.5,95,95,35,37.5,-42.5,37.5,115,120,130,130,262.5,3
Linda Rubin,Raw,F,SBD,Masters 2,70.95,72,60,70,75,75,40,45,47.5,47.5,80,90,100,100,222.5,4
Libby Blair,Raw,F,SBD,Masters 2,111.7,84+,127.5,137.5,142.5,142.5,62.5,67.5,-75,67.5,165,177.5,182.5,182.5,392.5,1
Shelley Colter,Raw,F,SBD,Masters 2,113.75,84+,117.5,127.5,-135,127.5,70,75,77.5,77.5,137.5,147.5,157.5,157.5,362.5,2
Marina Cornwall,Raw,F,SBD,Masters 3,43.7,47,67.5,72.5,78,78,37.5,42.5,-47.5,42.5,117.5,-122.5,-128,117.5,238,1
Susan Farrell,Raw,F,SBD,Masters 3,62.1,63,77.5,85,-90,85,42.5,-47.5,47.5,47.5,110,120,127.5,127.5,260,1
Cathy Macaslan,Raw,F,SBD,Masters 3,71.1,72,50,55,-60,55,32.5,35,37.5,37.5,90,97.5,102.5,102.5,195,1
Serge Gauthier,Raw,M,SBD,Open,54.7,59,160,167.5,-172.5,167.5,105,110,112.5,112.5,170,180,187.5,187.5,467.5,1
M Ilango,Raw,M,SBD,Open,58.45,59,125,140,152.5,152.5,75,90,97.5,97.5,135,185,200,200,450,2
Pratik Namdev,Raw,M,SBD,Open,56.95,59,110,130,-137.5,130,70,90,92.5,92.5,110,150,-165,150,372.5,3
Michael Morris #1,Raw,M,SBD,Open,64,66,170,-185,-185,170,112.5,117.5,-120,117.5,190,-202.5,207.5,207.5,495,1
Singe Jasmeet,Raw,M,SBD,Open,63.1,66,125,140,-155,140,110,117.5,120,120,140,165,180,180,440,2
Adrian Knox,Raw,M,SBD,Open,73.95,74,237.5,250,257.5,257.5,127.5,135,140,140,262.5,277.5,290,290,687.5,1
Ben Langley,Raw,M,SBD,Open,73.05,74,230,240,250,250,140,150,155,155,-250,250,-270,250,655,2
Emmanuel Franklin,Raw,M,SBD,Open,72.65,74,175,185,195,195,140,150,157.5,157.5,205,217.5,227.5,227.5,580,3
Jason Stolzenberg,Raw,M,SBD,Open,73.05,74,195,205,207.5,207.5,120,127.5,-130,127.5,230,237.5,245,245,580,4
Jonathan Kariv,Raw,M,SBD,Open,73.75,74,195,202.5,-205,202.5,135,142.5,147.5,147.5,210,-222.5,-222.5,210,560,5
Kris Boyce,Raw,M,SBD,Open,72.1,74,170,177.5,-182.5,177.5,127.5,135,-137.5,135,205,217.5,-222.5,217.5,530,6
Tomas Coleman,Raw,M,SBD,Open,73.1,74,180,190,195,195,112.5,117.5,-122.5,117.5,200,215,-230,215,527.5,7
Nicholas Lazarides,Raw,M,SBD,Open,71.3,74,-165,165,175,175,115,-120,-120,115,210,-217.5,-222.5,210,500,8
Shakti Barik,Raw,M,SBD,Open,71.65,74,-200,-200,-200,,-130,,,,,,,,,DQ
Tumelo Ramaisa,Raw,M,SBD,Open,73.9,74,180,190,-192.5,190,120,125,-127.5,125,-245,-245,-247.5,,,DQ
Jurins Kengamu,Raw,M,SBD,Open,79.35,83,225,237.5,247.5,247.5,145,152.5,-155,152.5,260,275,282.5,282.5,682.5,1
Owen Lockwood,Raw,M,SBD,Open,82.75,83,227.5,237.5,245,245,137.5,145,-150,145,250,262.5,265,265,655,2
Matthew Coppenhall,Raw,M,SBD,Open,81.85,83,210,225,230,230,150,157.5,160,160,245,-252.5,262.5,262.5,652.5,3
Jonathan Baptista,Raw,M,SBD,Open,82.6,83,235,-245,-245,235,150,157.5,-162.5,157.5,240,250,-260,250,642.5,4
Jaspreet Singh,Raw,M,SBD,Open,80.5,83,-160,-170,190,190,120,135,142.5,142.5,200,230,250,250,582.5,5
Wenshuo Huang,Raw,M,SBD,Open,82.7,83,-225,-225,-232.5,,130,140,-150,140,235,250,-257.5,250,,DQ
James Blundell,Raw,M,SBD,Open,91.25,93,230,240,247.5,247.5,160,167.5,175,175,260,275,287.5,287.5,710,1
Peter Davison,Raw,M,SBD,Open,88.45,93,222.5,235,245,245,155,162.5,165,165,270,285,-300,285,695,2
Jean-Arth Pretorius,Raw,M,SBD,Open,89.25,93,220,230,-240,230,150,157.5,-162.5,157.5,280,300,-310,300,687.5,3
Franco Holder,Raw,M,SBD,Open,91.15,93,205,215,-225,215,180,185,187.5,187.5,260,270,277.5,277.5,680,4
Wesle McGuinness,Raw,M,SBD,Open,91.65,93,225,240,247.5,247.5,157.5,165,170,170,245,255,-262.5,255,672.5,5
Gian Smit,Raw,M,SBD,Open,89.15,93,220,230,237.5,237.5,140,145,150,150,240,260,-280,260,647.5,6
Dhanushka Kodikara,Raw,M,SBD,Open,92.95,93,225,235,245,245,120,132.5,-140,132.5,220,235,-245,235,612.5,7
Ajab Singh,Raw,M,SBD,Open,91.4,93,170,190,-210,190,150,162.5,-170,162.5,230,-245,-250,230,582.5,8
David Thomas,Raw,M,SBD,Open,91.45,93,190,200,207.5,207.5,107.5,117.5,122.5,122.5,225,237.5,250,250,580,9
Joshua Bell,Raw,M,SBD,Open,91.25,93,140,150,160,160,140,150,-155,150,200,215,225,225,535,10
Sebastian Menne,Raw,M,SBD,Open,90.85,93,135,145,155,155,110,-115,-115,110,180,200,210,210,475,11
Thomas Brannick,Raw,M,SBD,Open,104.05,105,247.5,260,272.5,272.5,182.5,192.5,197.5,197.5,272.5,287.5,-300,287.5,757.5,1
Johann de Bruin,Raw,M,SBD,Open,104.4,105,230,240,247.5,247.5,140,150,-155,150,285,300,317.5,317.5,715,2
Indika Paranagama,Raw,M,SBD,Open,103.15,105,235,255,-267.5,255,135,142.5,150,150,255,265,275,275,680,3
John Smith #4,Raw,M,SBD,Open,103.15,105,230,240,247.5,247.5,155,162.5,-167.5,162.5,255,262.5,267.5,267.5,677.5,4
Baruch Sekenossky,Raw,M,SBD,Open,119.8,120,300,315,325,325,190,200,-210,200,300,-325,-325,300,825,1
Wesley Hall,Raw,M,SBD,Open,126.68,120+,270,285,292.5,292.5,180,190,200,200,280,305,325,325,817.5,1
D.K.R. Jayathilaka,Raw,M,SBD,Open,121.65,120+,260,280,290,290,120,132.5,137.5,137.5,290,305,-325,305,732.5,2
Darin Weerasinghe,Raw,M,SBD,Open,123.5,120+,200,215,225,225,165,-172.5,-172.5,165,220,237.5,250,250,640,3
Sinovuyo Lindi,Raw,M,SBD,Sub-Juniors,51.55,53,102.5,107.5,-110,107.5,65,70,72.5,72.5,130,-135,135,135,315,1
Ronaldo Phillips,Raw,M,SBD,Sub-Juniors,51.4,53,90,95,-100,95,60,65,70,70,110,120,-130,120,285,2
Kai Gajewiak,Raw,M,SBD,Sub-Juniors,58.25,59,145,150,-155,150,102.5,108,112.5,112.5,145,150,152.5,152.5,415,1
Chaka Dalfie,Raw,M,SBD,Sub-Juniors,54.3,59,110,125,140,140,50,70,72.5,72.5,140,165,175,175,387.5,2
Paseka Ntoagae,Raw,M,SBD,Sub-Juniors,58.1,59,-120,-120,-120,,75,85,90,90,185,-190,-190,185,,DQ
Mpho Hlanyane,Raw,M,SBD,Sub-Juniors,65.9,66,130,140,-145,140,100,105,-115,105,195,205,-210,205,450,1
Liam Colman,Raw,M,SBD,Sub-Juniors,62.7,66,137.5,147.5,-150,147.5,90,95,-100,95,160,-170,-170,160,402.5,2
Daniel Lotter,Raw,M,SBD,Sub-Juniors,63.05,66,100,110,120,120,90,95,-102.5,95,145,157.5,162.5,162.5,377.5,3
P Matheshwaran,Raw,M,SBD,Sub-Juniors,63.3,66,60,80,95,95,30,45,55,55,100,135,147.5,147.5,297.5,4
Antho Ramsbottom,Raw,M,SBD,Sub-Juniors,71.75,74,150,157.5,165,165,87.5,95,-100,95,190,192.5,207.5,207.5,467.5,1
Will Skinner,Raw,M,SBD,Sub-Juniors,71.5,74,142.5,-155,155,155,77.5,85,90,90,200,212.5,-222.5,212.5,457.5,2
Joaquim de Jenga,Raw,M,SBD,Sub-Juniors,79.6,83,200,210,217.5,217.5,-145,145,-150,145,260,-270.5,-270.5,260,622.5,1
Yogesh Yogesh,Raw,M,SBD,Sub-Juniors,79.35,83,150,-185,,150,85,-100,,85,180,200,,200,435,2
Joshua Kiggen,Raw,M,SBD,Sub-Juniors,92.65,93,230,240,247.5,247.5,142.5,152.5,-155,152.5,260,-270,-270,260,660,1
Jaydin Lensing,Raw,M,SBD,Sub-Juniors,94.4,105,150,160,170,170,90,-100,,90,190,-207.5,-210,190,450,1
Bradley May,Raw,M,SBD,Sub-Juniors,119.3,120,275,-300.5,-300.5,275,142.5,152.5,-157.5,152.5,240,265,-277.5,265,692.5,1
Israr Pasa,Raw,M,SBD,Sub-Juniors,111.75,120,147.5,160,170,170,90,95,-100,95,177.5,190,205,205,470,2
Lee McCafferty,Raw,M,SBD,Sub-Juniors,113.45,120,140,152.5,162.5,162.5,100,107.5,-112.5,107.5,185,195,-200,195,465,3
Brendon Chaithoo,Raw,M,SBD,Juniors,51.25,53,145,155,-160.5,155,97.5,102.5,-107.5,102.5,175,190.5,,190.5,448,1
Sha Wiesendanger,Raw,M,SBD,Juniors,64.2,66,180,192.5,200,200,102.5,110,115,115,215,227.5,230,230,545,1
Elliot Stone,Raw,M,SBD,Juniors,65,66,190,200,207.5,207.5,117.5,125,-132.5,125,200,212.5,-222.5,212.5,545,2
Samrendra Routray,Raw,M,SBD,Juniors,65,66,145,155,165,165,110,122.5,-132.5,122.5,185,205,215,215,502.5,3
Arno van Niekerk,Raw,M,SBD,Juniors,65.05,66,155,160,-167.5,160,-90,95,-97.5,95,180,195,207.5,207.5,462.5,4
Th Thammathataree,Raw,M,SBD,Juniors,72.2,74,185,197.5,202.5,202.5,112.5,120,125,125,220,230,237.5,237.5,565,1
Timothy Rew,Raw,M,SBD,Juniors,71.35,74,172.5,182.5,-187.5,182.5,107.5,117.5,-122.5,117.5,212.5,222.5,230,230,530,2
Mark Harvey,Raw,M,SBD,Juniors,70.2,74,180,187.5,195,195,112.5,117.5,122.5,122.5,185,197.5,210,210,527.5,3
Rube van der Linde,Raw,M,SBD,Juniors,68.7,74,185,-192.5,-192.5,185,100,-102.5,102.5,102.5,200,210,-212.5,210,497.5,4
Scott Webb,Raw,M,SBD,Juniors,81.3,83,230,237.5,245,245,142.5,147.5,150,150,245,257.5,272.5,272.5,667.5,1
Kristopher Franklin,Raw,M,SBD,Juniors,82.55,83,200,212.5,225,225,145,-152.5,-160,145,245,-262.5,-262.5,245,615,2
Sam Mitchell,Raw,M,SBD,Juniors,82.5,83,177.5,185,190,190,127.5,132.5,-135,132.5,205,217.5,227.5,227.5,550,3
Jaydee Williams,Raw,M,SBD,Juniors,80.55,83,165,180,185,185,90,105,107.5,107.5,180,-215,215,215,507.5,4
Thomas Morgan,Raw,M,SBD,Juniors,81.35,83,165,175,180,180,115,120,-122.5,120,180,192.5,202.5,202.5,502.5,5
Abdul Karrie Davids,Raw,M,SBD,Juniors,82.25,83,-230,-230,-230,,145,155,165,165,220,230,240,240,,DQ
Jade Blake,Raw,M,SBD,Juniors,91.7,93,250,265,270,270,170,175,-181.5,175,245,255,-265,255,700,1
Eoghan Moriarty,Raw,M,SBD,Juniors,92.4,93,220,232.5,237.5,237.5,125,135,137.5,137.5,250,265,-275,265,640,2
Eugene Scheepers,Raw,M,SBD,Juniors,91.55,93,215,225,230,230,140,145,-150,145,225,240,245,245,620,3
Venkatesa Prabu,Raw,M,SBD,Juniors,87.8,93,160,185,195,195,95,107.5,-112.5,107.5,200,230,-240,230,532.5,4
Terence Bosman,Raw,M,SBD,Juniors,104.5,105,230,240,-250,240,140,150,157.5,157.5,270,280,292.5,292.5,690,1
Benjamin Wharton,Raw,M,SBD,Juniors,101.9,105,242.5,255,265,265,130,140,-147.5,140,262.5,275,282.5,282.5,687.5,2
Luke Powlson,Raw,M,SBD,Juniors,103.5,105,190,200,-205,200,140,-145,-145,140,220,-230,-230,220,560,3
Ravi Shankar,Raw,M,SBD,Juniors,100.5,105,-150,150,190,190,90,107.5,-122.5,107.5,200,255,-262.5,255,552.5,4
Mark Macqueen,Raw,M,SBD,Juniors,119.94,120,300,317.5,325,325,177.5,185,190,190,297.5,315,330,330,845,1
Frankie Parke,Raw,M,SBD,Juniors,119,120,275,290,-295,290,165,175,180,180,260,-275,-275,260,730,2
Shane Flowers,Raw,M,SBD,Juniors,134.5,120+,265,280,292.5,292.5,185,195,202.5,202.5,270,290,305,305,800,1
Rajiv Sharma,Raw,M,SBD,Masters 1,62.35,66,100,120,132.5,132.5,80,90,-100,90,110,125,-150,125,347.5,1
Marlon Daniels,Raw,M,SBD,Masters 1,80.45,83,210,222.5,235.5,235.5,155,163,-165,163,195,217.5,-242.5,217.5,616,1
Alistair Begg,Raw,M,SBD,Masters 1,82.45,83,160,180,200,200,130,-140,140,140,200,220,235,235,575,2
George Millar,Raw,M,SBD,Masters 1,80.55,83,155,165,175,175,107.5,-115,-115,107.5,215,230,242.5,242.5,525,3
N Seshagiri Rao,Raw,M,SBD,Masters 1,81.9,83,140,-150,150,150,70,75,85,85,150,160,170,170,405,4
Jorncy Page,Raw,M,SBD,Masters 1,92.85,93,190,195,-205,195,135,140,145,145,220,235,-250,235,575,1
Victor Mapoo,Raw,M,SBD,Masters 1,83.1,93,200,210,-212.5,210,-130,-130,-130,,-225,-225,-225,,,DQ
Henk de Wet,Raw,M,SBD,Masters 1,102.25,105,210,220,230,230,140,150,155,155,250,270,-282.5,270,655,1
Sujay Janardan,Raw,M,SBD,Masters 1,97.95,105,220,242.5,252.5,252.5,100,-102.5,,100,260,277.5,-302.5,277.5,630,2
Johannes Marius,Raw,M,SBD,Masters 1,102,105,190,-210,-210,190,160,-170,-170,160,245,255,-282.5,255,605,3
A.E Wijewickrama,Raw,M,SBD,Masters 1,100.2,105,220,232.5,250,250,115,125,-130,125,210,225,-237.5,225,600,4
Daniel Byrne,Raw,M,SBD,Masters 1,102.7,105,195,215,-230,215,140,152.5,157.5,157.5,190,210,-227.5,210,582.5,5
Neeraj Chawla,Raw,M,SBD,Masters 1,113.4,120,200,215,-225,215,150,160,-165,160,210,235,-247.5,235,610,1
Madikane Faku,Raw,M,SBD,Masters 1,115.75,120,-225,225,235,235,90,100,-105,100,270,-285,-285,270,605,2
Mario Sayeur,Raw,M,SBD,Masters 1,142.45,120+,280,290,-300,290,150,157.5,-162.5,157.5,295,310,-318,310,757.5,1
Karl Christians,Raw,M,SBD,Masters 2,65.8,66,145,157.5,-162.5,157.5,75,82.5,-85,82.5,180,192.5,195,195,435,1
Vinu Abraham,Raw,M,SBD,Masters 2,65.75,66,100,120,130,130,70,80,90,90,110,140,170,170,390,2
Ian Hacker,Raw,M,SBD,Masters 2,79.25,83,175,185,187.5,187.5,110,115,-117.5,115,180,202.5,212.5,212.5,515,1
David Quatse,Raw,M,SBD,Masters 2,81.6,83,145,155,175,175,75,85,95,95,175,200,212.5,212.5,482.5,2
Neil Butler,Raw,M,SBD,Masters 2,81.8,83,140,145,150,150,95,102.5,105,105,180,190,200,200,455,3
Ebrahim Mobara,Raw,M,SBD,Masters 2,92.1,93,175,197.5,-200,197.5,100,110,115,115,160,205,225,225,537.5,1
Kr Gupta Praveen,Raw,M,SBD,Masters 2,86.6,93,130,145,150,150,75,85,90,90,130,150,-155,150,390,2
Christo Schoonraad,Raw,M,SBD,Masters 2,99.8,105,200,220,237.5,237.5,125,135,-147.5,135,220,245,252.5,252.5,625,1
Surinder Singh,Raw,M,SBD,Masters 2,99.4,105,150,170,185,185,100,112.5,122.5,122.5,170,190,-200,190,497.5,2
D.U.M Jayathilake,Raw,M,SBD,Masters 2,93.6,105,100,,,100,70,,,70,110,125,140,140,310,3
Johan Kruger,Raw,M,SBD,Masters 2,118.6,120,160,180,-200,180,-110,115,122.5,122.5,200,220,-242.5,220,522.5,1
Burton Haupt,Raw,M,SBD,Masters 2,133.8,120+,-160,180,200,200,130,140,150,150,200,220,245,245,595,1
Colin Young,Raw,M,SBD,Masters 3,104.9,105,140,160,,160,140,160.5,,160.5,200,217.5,,217.5,538,1
Andre Ludik,Raw,M,SBD,Masters 3,114.65,120,145,152.5,160,160,100,105,,105,202.5,212.5,,212.5,477.5,1
Datt Sharma Mohan,Raw,M,SBD,Masters 4,56,59,55,65,70,70,35,45,50,50,70,90,102.5,102.5,222.5,1
Dan Oppenheim,Raw,M,SBD,Masters 4,70.6,74,110,115,120,120,80,85,90,90,155,172.5,-186,172.5,382.5,1
Kirsten Enslin,Raw,F,B,Open,47,47,,,,,57.5,-60,-60,57.5,,,,,57.5,1
Linzi Waite,Raw,F,B,Open,51.3,52,,,,,45,50,52.5,52.5,,,,,52.5,1
Catherine Graham,Raw,F,B,Open,56.25,57,,,,,70,75,80,80,,,,,80,1
Lauren Katz,Raw,F,B,Open,56.15,57,,,,,62.5,65,-70,65,,,,,65,2
Nidhi Chadha,Raw,F,B,Open,56.6,57,,,,,47.5,55,57.5,57.5,,,,,57.5,3
Gemma Marshall,Raw,F,B,Open,59.75,63,,,,,80,85,-87.5,85,,,,,85,1
Lisa Basson,Raw,F,B,Open,61.65,63,,,,,72.5,77.5,80,80,,,,,80,2
Rowan Hendry-Horne,Raw,F,B,Open,70.45,72,,,,,80,85,90,90,,,,,90,1
Christi de Jager,Raw,F,B,Open,83.55,84,,,,,85,-90,-90,85,,,,,85,1
Lauren Norton,Raw,F,B,Open,107.55,84+,,,,,95,100,102.5,102.5,,,,,102.5,1
Hudaibia Khan,Raw,F,B,Open,104.45,84+,,,,,60,67.5,70,70,,,,,70,2
Patricia Harding,Raw,F,B,Sub-Juniors,47,47,,,,,32.5,35,-37.5,35,,,,,35,1
Caitlin Poxon,Raw,F,B,Sub-Juniors,62.15,63,,,,,52.5,55,60,60,,,,,60,1
Jelhandri Rautenbach,Raw,F,B,Sub-Juniors,74.6,84,,,,,70,72.5,75,75,,,,,75,1
Rachel Hughes #1,Raw,F,B,Juniors,69.85,72,,,,,77.5,82.5,85,85,,,,,85,1
Susan Parker,Raw,F,B,Masters 1,51.7,52,,,,,47.5,52.5,-55,52.5,,,,,52.5,1
Emma Stott,Raw,F,B,Masters 1,62.35,63,,,,,65,-67.5,70,70,,,,,70,1
Siona Garden,Raw,F,B,Masters 1,68.35,72,,,,,45,50,57.5,57.5,,,,,57.5,1
Lizelle Cruz,Raw,F,B,Masters 1,81.4,84,,,,,100,115,-120,115,,,,,115,1
Delwyn Evans,Raw,F,B,Masters 2,70.85,72,,,,,70,72.5,76.5,76.5,,,,,76.5,1
Claire Petersen,Raw,F,B,Masters 2,63.3,72,,,,,50,55,57.5,57.5,,,,,57.5,2
Marina Cornwall,Raw,F,B,Masters 3,44.25,47,,,,,37.5,42.5,47.5,47.5,,,,,47.5,1
Judith McGauley,Raw,F,B,Masters 4,59.85,63,,,,,35,-37.5,37.5,37.5,,,,,37.5,1
Jasmeet Singh,Raw,M,B,Open,63.8,66,,,,,110,120,-122.5,120,,,,,120,1
Emmanuel Franklin,Raw,M,B,Open,72.35,74,,,,,140,150,,150,,,,,150,1
Kris Boyce,Raw,M,B,Open,71.25,74,,,,,125,132.5,-137.5,132.5,,,,,132.5,2
Ranjan Barik Shakti,Raw,M,B,Open,73.1,74,,,,,130,-137.5,-137.5,130,,,,,130,3
Ricardo Fitzpatrick,Raw,M,B,Open,82.17,83,,,,,167.5,172.5,-175,172.5,,,,,172.5,1
Matt Gordon,Raw,M,B,Open,81.25,83,,,,,-152.5,157.5,165,165,,,,,165,2
James Ingram,Raw,M,B,Open,80.85,83,,,,,117.5,125,-127.5,125,,,,,125,3
David Jacobsz,Raw,M,B,Open,91.4,93,,,,,165,-175,-175,165,,,,,165,1
Mohit Suri,Raw,M,B,Open,85,93,,,,,90,100,,100,,,,,100,2
John Smith #4,Raw,M,B,Open,103.85,105,,,,,145,152.5,160,160,,,,,160,1
Benedict Bucarizza,Raw,M,B,Open,118.95,120,,,,,225,232.5,-240.5,232.5,,,,,232.5,1
Pieter Bester,Raw,M,B,Open,117.85,120,,,,,200,-205,205,205,,,,,205,2
Robert Mcavlay,Raw,M,B,Open,116.7,120,,,,,170,180,185,185,,,,,185,3
Wesley Hall,Raw,M,B,Open,125.2,120+,,,,,185,-200,-200,185,,,,,185,1
Taneja Kunal,Raw,M,B,Open,146.65,120+,,,,,160,175,180,180,,,,,180,2
Darin Weerasinghe,Raw,M,B,Open,123.5,120+,,,,,165,170,-177.5,170,,,,,170,3
Kai Gajewiak,Raw,M,B,Sub-Juniors,58.75,59,,,,,100,105,110,110,,,,,110,1
Wynand Kuhn,Raw,M,B,Sub-Juniors,66.5,74,,,,,90,97.5,-100,97.5,,,,,97.5,1
Yogesh Yogesh,Raw,M,B,Sub-Juniors,80.2,83,,,,,-85,85,-100,85,,,,,85,1
Israr Pasa,Raw,M,B,Sub-Juniors,112.1,120,,,,,82.5,90,-95,90,,,,,90,1
Samrendra Routray,Raw,M,B,Juniors,65.95,66,,,,,105,115,120,120,,,,,120,1
James Leaper,Raw,M,B,Juniors,64.5,66,,,,,92.5,100,-107.5,100,,,,,100,2
Mark Harvey,Raw,M,B,Juniors,72.05,74,,,,,105,110,115,115,,,,,115,1
Kristopher Franklin,Raw,M,B,Juniors,82.85,83,,,,,140,147.5,,147.5,,,,,147.5,1
Alexander Anderson,Raw,M,B,Juniors,81.05,83,,,,,137.5,-142.5,142.5,142.5,,,,,142.5,2
Jonathon Lenzi,Raw,M,B,Juniors,91.25,93,,,,,155,165,167.5,167.5,,,,,167.5,1
Osura Bangamuwa,Raw,M,B,Juniors,89.45,93,,,,,150,160,-170,160,,,,,160,2
David Greene,Raw,M,B,Masters 1,58.6,59,,,,,122.5,125,-126.5,125,,,,,125,1
Glen van der Linde,Raw,M,B,Masters 1,71.8,74,,,,,105,112.5,-117.5,112.5,,,,,112.5,1
Gordon Kay,Raw,M,B,Masters 1,80.4,83,,,,,125,130,-135,130,,,,,130,1
Javed Mehta,Raw,M,B,Masters 1,90.9,93,,,,,155,-162.5,-162.5,155,,,,,155,1
David Litchfield,Raw,M,B,Masters 1,91.6,93,,,,,145,150,-157.5,150,,,,,150,2
Jorncy Page,Raw,M,B,Masters 1,92.6,93,,,,,135,142.5,145,145,,,,,145,3
Kamran Butt Ather,Raw,M,B,Masters 1,103.25,105,,,,,145,150,-160,150,,,,,150,1
Malone Horn,Raw,M,B,Masters 1,114.6,120,,,,,190,200,-207.5,200,,,,,200,1
Neeraj Chawla,Raw,M,B,Masters 1,112.5,120,,,,,130,140,,140,,,,,140,2
Fanie du Preez,Raw,M,B,Masters 1,130.35,120+,,,,,145,150,155,155,,,,,155,1
JC Bruce,Raw,M,B,Masters 2,65.25,66,,,,,80,85,-90,85,,,,,85,1
Tommie de Nysschen,Raw,M,B,Masters 2,73.7,74,,,,,110,-115,-115,110,,,,,110,1
Satpal Satpal,Raw,M,B,Masters 2,73.35,74,,,,,90,100,-102.5,100,,,,,100,2
Craig Van Wyk,Raw,M,B,Masters 2,117.95,120,,,,,170,180,-185,180,,,,,180,1
Ian Furman,Raw,M,B,Masters 2,128.8,120+,,,,,-200,200,-205,200,,,,,200,1
Ramprakash Ramprakash,Raw,M,B,Masters 3,71,74,,,,,40,50,60,60,,,,,60,1
Inderjeet Singh,Raw,M,B,Masters 3,81.25,83,,,,,-105,105,115,115,,,,,115,1
Daniel Royer,Raw,M,B,Masters 3,101.85,105,,,,,90,100,-110,100,,,,,100,1
Singh Patel Nidhi,Single-ply,F,B,Open,56.2,57,,,,,75,82.5,85,85,,,,,85,1
Chadha Nidhi,Single-ply,F,B,Open,56.6,57,,,,,40,50,-60,50,,,,,50,2
Usha Usha,Single-ply,F,B,Open,62.45,63,,,,,100,105,-110,105,,,,,105,1
Karyn Turcotte,Single-ply,F,B,Open,61.3,63,,,,,-85,-85,-85,,,,,,,DQ
Shweta Sahni,Single-ply,F,B,Open,69.5,72,,,,,40,55,-62.5,55,,,,,55,1
Iti Sehgal,Single-ply,F,B,Open,69.55,72,,,,,47.5,52.5,-60,52.5,,,,,52.5,2
Christi de Jager,Single-ply,F,B,Open,83.55,84,,,,,-115,115,122.5,122.5,,,,,122.5,1
Sandri van Staden,Single-ply,F,B,Open,82.3,84,,,,,107.5,-112.5,112.5,112.5,,,,,112.5,2
Ramandeep Kaur,Single-ply,F,B,Open,88.4,84+,,,,,90,-100,100,100,,,,,100,1
Sampa Guha,Single-ply,F,B,Open,86.7,84+,,,,,77.5,90,92.5,92.5,,,,,92.5,2
Nafis Khan Hudaibia,Single-ply,F,B,Open,104.4,84+,,,,,70,77.5,85,85,,,,,85,3
Archana Jain,Single-ply,F,B,Masters 1,51,52,,,,,47.5,55,-57.5,55,,,,,55,1
Gogie Chug Kapila,Single-ply,F,B,Masters 1,61.9,63,,,,,40,42.5,45,45,,,,,45,1
Inderjeet Inderjeet,Single-ply,F,B,Masters 2,48.55,52,,,,,25,30,,30,,,,,30,1
Shakti Barik,Single-ply,M,B,Open,72.2,74,,,,,110,120,130,130,,,,,130,1
Kumar Acharya Pradeep,Single-ply,M,B,Open,82.15,83,,,,,-185,185,190,190,,,,,190,1
B Vishwanatha,Single-ply,M,B,Open,82.95,83,,,,,145,155,162.5,162.5,,,,,162.5,2
Connor Scheckle,Single-ply,M,B,Open,92.7,93,,,,,160,-165,-165,160,,,,,160,1
Dhanushka Kodikara,Single-ply,M,B,Open,92.5,93,,,,,100,,,100,,,,,100,2
Darin Weerasinghe,Single-ply,M,B,Open,123.5,120+,,,,,195,205,-210,205,,,,,205,1
Pradeep Malik,Single-ply,M,B,Open,131.2,120+,,,,,190,195,200,200,,,,,200,2
Kunal Taneja,Single-ply,M,B,Open,146.05,120+,,,,,160,170,,170,,,,,170,3
Daniel Lotter,Single-ply,M,B,Sub-Juniors,63.1,66,,,,,-105,-105,105,105,,,,,105,1
Yogesh Yogesh,Single-ply,M,B,Sub-Juniors,80.2,83,,,,,80,95,,95,,,,,95,1
Ruben van der Linde,Single-ply,M,B,Juniors,68.4,74,,,,,110,115,-120,115,,,,,115,1
Osura Bangamuwa,Single-ply,M,B,Juniors,89.45,93,,,,,-160,160,-185,160,,,,,160,1
Koustabh Ghosh,Single-ply,M,B,Juniors,89.25,93,,,,,105,115,-117.5,115,,,,,115,2
Ankit Khatri,Single-ply,M,B,Juniors,133.5,120+,,,,,120,135,-142.5,135,,,,,135,1
Rajiv Sharma,Single-ply,M,B,Masters 1,63.05,66,,,,,110,115,130,130,,,,,130,1
Glen van der Linde,Single-ply,M,B,Masters 1,71.8,74,,,,,115,125,130,130,,,,,130,1
Anand Mandia,Single-ply,M,B,Masters 1,81.85,83,,,,,130,-140,-150,130,,,,,130,1
Javed Mehta,Single-ply,M,B,Masters 1,90.9,93,,,,,130,140,150,150,,,,,150,1
Mohit Suri,Single-ply,M,B,Masters 1,85,93,,,,,90,100,-110,100,,,,,100,2
Kamran Butt Ather,Single-ply,M,B,Masters 1,103.25,105,,,,,-175,175,-190,175,,,,,175,1
Sujay Janardan,Single-ply,M,B,Masters 1,97.35,105,,,,,-130,130,,130,,,,,130,2
Niraj Chawla,Single-ply,M,B,Masters 1,112,120,,,,,130,170,200,200,,,,,200,1
Satpal Satpal,Single-ply,M,B,Masters 2,73.35,74,,,,,100,110,-112.5,110,,,,,110,1
Ramprakash Ramprakash,Single-ply,M,B,Masters 3,71,74,,,,,40,50,60,60,,,,,60,1
Singh Inderjeet,Single-ply,M,B,Masters 3,81.25,83,,,,,125,132.5,-140,132.5,,,,,132.5,1
Royer Daniel,Single-ply,M,B,Masters 3,101.85,105,,,,,110,120,,120,,,,,120,1
Ludik Andre,Single-ply,M,B,Masters 3,114.35,120,,,,,110,117.5,,117.5,,,,,117.5,1
