Division,WeightClassKg,Place,Name,Team,BodyweightKg,Best3SquatKg,Best3BenchKg,Best3DeadliftKg,TotalKg,Equipment,Event,Sex
Boys,51.71,1,Benny Lara,Victoria West,51.62,163.29,81.65,170.1,415.04,Single-ply,SBD,M
Boys,51.71,2,Ivan Rosales,Columbus,51.62,131.54,79.38,156.49,367.41,Single-ply,SBD,M
Boys,51.71,3,Mason Williams,Yorktown,51.3,129.27,72.57,147.42,349.27,Single-ply,SBD,M
Boys,51.71,4,Ryan De la Garza,Goliad,50.12,102.06,43.09,102.06,247.21,Single-ply,SBD,M
Boys,51.71,5,Camrin Wleczyk,Van Vleck,46.49,74.84,40.82,99.79,215.46,Single-ply,SBD,M
Boys,51.71,DQ,Juan Ramirez,Runge,51.71,,,,,Single-ply,SBD,M
Boys,51.71,DQ,Mason Neisner,Columbus,51.71,,,,,Single-ply,SBD,M
Boys,55.79,1,Jesus Rios,Palacios,53.3,170.1,104.33,201.85,476.27,Single-ply,SBD,M
Boys,55.79,2,Michael Casillas,Victoria West,55.2,147.42,86.18,158.76,392.36,Single-ply,SBD,M
Boys,55.79,3,Cody Faust,Yoakum,55.61,124.74,83.91,156.49,365.14,Single-ply,SBD,M
Boys,55.79,4,Stephen Hernandez,Victoria East,55.7,133.81,83.91,145.15,362.87,Single-ply,SBD,M
Boys,55.79,5,Arthur Sanchez,Victoria West,55.38,122.47,58.97,136.08,317.51,Single-ply,SBD,M
Boys,55.79,6,Russell Morrison,El Maton Tidehaven,53.48,122.47,61.23,129.27,312.98,Single-ply,SBD,M
Boys,55.79,7,Moses Cantu,Yorktown,55.38,86.18,43.09,102.06,231.33,Single-ply,SBD,M
Boys,55.79,DQ,Bailey Parrett,Yorktown,55.79,,,,,Single-ply,SBD,M
Boys,55.79,DQ,Adrian Herrera,Yoakum,52.62,167.83,83.91,,,Single-ply,SBD,M
Boys,55.79,DQ,Devin Stoner,Van Vleck,52.71,79.38,,,,Single-ply,SBD,M
Boys,59.87,1,Moc Moo,Port Lavaca Calhoun,58.92,210.92,102.06,195.04,508.02,Single-ply,SBD,M
Boys,59.87,2,Tyler Le,Palacios,58.01,170.1,90.72,188.24,449.06,Single-ply,SBD,M
Boys,59.87,3,Zachary Baker,Hallettsville,59.01,138.35,74.84,145.15,358.34,Single-ply,SBD,M
Boys,59.87,4,Abraham Espino,Van Vleck,59.69,136.08,83.91,122.47,342.46,Single-ply,SBD,M
Boys,59.87,5,Christian Pina,Runge,58.79,111.13,61.23,147.42,319.78,Single-ply,SBD,M
Boys,59.87,6,DJ Vargas,Van Vleck,57.7,106.59,52.16,136.08,294.84,Single-ply,SBD,M
Boys,59.87,7,Alex Bonorden,Victoria St. Joseph,58.92,83.91,52.16,120.2,256.28,Single-ply,SBD,M
Boys,59.87,8,Jose Reynoso,Columbus,59.1,90.72,43.09,108.86,242.67,Single-ply,SBD,M
Boys,59.87,DQ,Orlando Macias,Edna,57.2,90.72,65.77,,,Single-ply,SBD,M
Boys,59.87,DQ,Isaac Garza,Ganado,59.87,,,,,Single-ply,SBD,M
Boys,59.87,DQ,Tanner Rawlings,Van Vleck,59.87,,,,,Single-ply,SBD,M
Boys,59.87,DQ,Colby Rodriguez,Vanderbilt Industrial,59.87,,,,,Single-ply,SBD,M
Boys,59.87,DQ,Lamar Turner,Edna,59.42,,,,,Single-ply,SBD,M
Boys,67.13,1,Jonathan Zelaya,Victoria East,64.59,201.85,115.67,204.12,521.63,Single-ply,SBD,M
Boys,67.13,2,Brandon Robles,Van Vleck,65.91,183.7,92.99,192.78,469.47,Single-ply,SBD,M
Boys,67.13,3,Abraham Ruiz,Victoria East,66.18,181.44,111.13,161.03,453.59,Single-ply,SBD,M
Boys,67.13,4,Denver Evans,Yoakum,66,154.22,90.72,176.9,421.84,Single-ply,SBD,M
Boys,67.13,5,Chris Eastwood,Goliad,67,156.49,77.11,183.7,417.3,Single-ply,SBD,M
Boys,67.13,6,Michael Chomour,Yoakum,63.82,158.76,86.18,163.29,408.23,Single-ply,SBD,M
Boys,67.13,7,Drew Powell,Hallettsville,64.91,156.49,92.99,151.95,401.43,Single-ply,SBD,M
Boys,67.13,8,Tre Evans,Edna,63.91,117.93,83.91,145.15,347,Single-ply,SBD,M
Boys,67.13,9,Luis Avila,Van Vleck,59.92,120.2,74.84,142.88,337.93,Single-ply,SBD,M
Boys,67.13,10,Michael Foster,Edna,63.41,113.4,72.57,142.88,328.85,Single-ply,SBD,M
Boys,67.13,11,Dan Rod,Goliad,64.32,106.59,61.23,122.47,290.3,Single-ply,SBD,M
Boys,67.13,DQ,Anastacio Perez,Yorktown,67.13,,,,,Single-ply,SBD,M
Boys,67.13,DQ,Erick Cruz,Victoria St. Joseph,67.13,,,,,Single-ply,SBD,M
Boys,74.84,1,Chayce Grevey,Victoria West,74.8,233.6,151.95,247.21,632.76,Single-ply,SBD,M
Boys,74.84,2,Daniel Leita,Port Lavaca Calhoun,72.21,213.19,124.74,251.74,589.67,Single-ply,SBD,M
Boys,74.84,3,Seth Alvarez,Palacios,73.98,240.4,106.59,210.92,557.92,Single-ply,SBD,M
Boys,74.84,4,Kobe Blackmon,Van Vleck,72.89,190.51,124.74,204.12,519.36,Single-ply,SBD,M
Boys,74.84,5,Matthew Vallejo,Victoria St. Joseph,73.8,195.04,115.67,208.65,519.36,Single-ply,SBD,M
Boys,74.84,6,Kory Taylor,Victoria West,74.12,183.7,106.59,213.19,503.49,Single-ply,SBD,M
Boys,74.84,7,Carson Berger,Vanderbilt Industrial,73.98,172.37,122.47,188.24,483.08,Single-ply,SBD,M
Boys,74.84,8,Morgan Segovia,Palacios,74.8,195.04,108.86,174.63,478.54,Single-ply,SBD,M
Boys,74.84,9,Samuel Bonorden,Victoria St. Joseph,67.4,181.44,102.06,181.44,464.93,Single-ply,SBD,M
Boys,74.84,10,Kyle Carillo,El Maton Tidehaven,71.71,181.44,79.38,195.04,455.86,Single-ply,SBD,M
Boys,74.84,11,Jacob Galvez,El Maton Tidehaven,73.62,172.37,102.06,165.56,439.98,Single-ply,SBD,M
Boys,74.84,12,Terano Arkadie,Yoakum,68.31,154.22,88.45,161.03,403.7,Single-ply,SBD,M
Boys,74.84,13,Cameron Mata,Yoakum,74.8,158.76,63.5,147.42,369.68,Single-ply,SBD,M
Boys,74.84,14,Jordan Garza,Yoakum,68.4,142.88,88.45,136.08,367.41,Single-ply,SBD,M
Boys,74.84,DQ,Dillan Wakefield,Van Vleck,74.84,,,,,Single-ply,SBD,M
Boys,74.84,DQ,Cameron Ledwig,El Maton Tidehaven,74.84,,,,,Single-ply,SBD,M
Boys,74.84,DQ,Matt Harris,El Maton Tidehaven,74.84,,,,,Single-ply,SBD,M
Boys,74.84,DQ,Nick Freschnecht,Columbus,74.84,,,,,Single-ply,SBD,M
Boys,74.84,DQ,Josh Beane,Columbus,74.84,,,,,Single-ply,SBD,M
Boys,74.84,DQ,Isaiah Dennis,Pettus,74.84,,,,,Single-ply,SBD,M
Boys,74.84,DQ,Kamron Luhn,Victoria West,74.84,,,,,Single-ply,SBD,M
Boys,74.84,DQ,Hunter Dollery,Victoria West,73.89,229.06,129.27,,,Single-ply,SBD,M
Boys,82.1,1,Daniel Rodriguez #6,Port Lavaca Calhoun,80.51,274.42,124.74,231.33,630.49,Single-ply,SBD,M
Boys,82.1,2,Isaiah Herring,Hallettsville,77.88,208.65,136.08,190.51,535.24,Single-ply,SBD,M
Boys,82.1,3,Dylan Tomek,Hallettsville,80.51,195.04,124.74,208.65,528.44,Single-ply,SBD,M
Boys,82.1,4,Jeff Williams,El Maton Tidehaven,81.42,181.44,127.01,199.58,508.02,Single-ply,SBD,M
Boys,82.1,5,Tyler Perez,Goliad,78.7,199.58,102.06,204.12,505.76,Single-ply,SBD,M
Boys,82.1,6,Nick Martinez,Van Vleck,80.69,183.7,111.13,197.31,492.15,Single-ply,SBD,M
Boys,82.1,7,Daniel Guillen,Victoria East,81.19,190.51,115.67,174.63,480.81,Single-ply,SBD,M
Boys,82.1,8,Liam Porr,Victoria St. Joseph,81.1,176.9,102.06,176.9,455.86,Single-ply,SBD,M
Boys,82.1,9,Jatorian Travis,El Maton Tidehaven,77.52,170.1,92.99,158.76,421.84,Single-ply,SBD,M
Boys,82.1,10,Reid Henke,Hallettsville,76.29,142.88,92.99,158.76,394.63,Single-ply,SBD,M
Boys,82.1,DQ,Joseph Herrera,Columbus,82.1,,,,,Single-ply,SBD,M
Boys,82.1,DQ,Dane Graham,Van Vleck,82.1,,,,,Single-ply,SBD,M
Boys,82.1,DQ,Dillon Butler,Victoria West,82.1,,,,,Single-ply,SBD,M
Boys,82.1,DQ,Brandon Turner #3,Victoria West,82.1,,,,,Single-ply,SBD,M
Boys,82.1,DQ,Darence Barnes,Van Vleck,81.19,151.95,,,,Single-ply,SBD,M
Boys,82.1,DQ,Jonathan Oviedo,Victoria East,78.29,172.37,,,,Single-ply,SBD,M
Boys,89.81,1,Rene Osomia,Port Lavaca Calhoun,89.81,249.48,142.88,217.72,610.08,Single-ply,SBD,M
Boys,89.81,2,Shaun Bryant,Victoria East,82.6,215.46,122.47,213.19,551.11,Single-ply,SBD,M
Boys,89.81,3,Matthew Stringham,Port Lavaca Calhoun,86.91,217.72,136.08,197.31,551.11,Single-ply,SBD,M
Boys,89.81,4,Trace McAfee,Hallettsville,86.59,219.99,129.27,199.58,548.85,Single-ply,SBD,M
Boys,89.81,5,Justin Garza,Yoakum,83.28,201.85,131.54,199.58,532.97,Single-ply,SBD,M
Boys,89.81,6,Adam Nguyen,Palacios,86.09,204.12,104.33,210.92,519.36,Single-ply,SBD,M
Boys,89.81,7,Sylias Montgomery,Port Lavaca Calhoun,89.31,208.65,97.52,204.12,510.29,Single-ply,SBD,M
Boys,89.81,8,Hayden Henry,Hallettsville,84.91,197.31,113.4,190.51,501.22,Single-ply,SBD,M
Boys,89.81,9,Brig Nelson,Victoria St. Joseph,89.58,195.04,90.72,181.44,467.2,Single-ply,SBD,M
Boys,89.81,10,Raul Padilla,Victoria West,87.82,179.17,113.4,147.42,439.98,Single-ply,SBD,M
Boys,89.81,11,Christian Montemayor,Van Vleck,85.32,147.42,104.33,158.76,410.5,Single-ply,SBD,M
Boys,89.81,12,Juan Inclan,Runge,87.41,129.27,61.23,142.88,333.39,Single-ply,SBD,M
Boys,89.81,13,Damien Cerda,Runge,88,113.4,61.23,124.74,299.37,Single-ply,SBD,M
Boys,89.81,14,Johnny Reyes,Edna,84.41,115.67,68.04,106.59,290.3,Single-ply,SBD,M
Boys,89.81,DQ,Brad Austin,Columbus,89.81,,,,,Single-ply,SBD,M
Boys,89.81,DQ,Justin Martinez,Edna,89.81,,,,,Single-ply,SBD,M
Boys,89.81,DQ,Jose Gonzales,Runge,89.81,,,,,Single-ply,SBD,M
Boys,89.81,DQ,Gabriel Hernandez,Victoria East,89.81,,,,,Single-ply,SBD,M
Boys,89.81,DQ,Rashard Tolbert,Van Vleck,88.41,197.31,,,,Single-ply,SBD,M
Boys,89.81,DQ,Dominic Garcia,Palacios,85.5,,,,,Single-ply,SBD,M
Boys,99.79,1,Kaden Hardt,Hallettsville,96.39,260.82,181.44,238.14,680.39,Single-ply,SBD,M
Boys,99.79,2,Zevaughn Shelton,Victoria West,96.89,272.16,133.81,233.6,639.57,Single-ply,SBD,M
Boys,99.79,3,Eric Luck,Victoria East,93.49,226.8,156.49,188.24,571.53,Single-ply,SBD,M
Boys,99.79,4,Jacob Garza,Vanderbilt Industrial,99.79,249.48,154.22,167.83,571.53,Single-ply,SBD,M
Boys,99.79,5,Leo Colom,Port Lavaca Calhoun,98.11,199.58,129.27,235.87,564.72,Single-ply,SBD,M
Boys,99.79,6,John Perez,Port Lavaca Calhoun,97.61,226.8,133.81,197.31,557.92,Single-ply,SBD,M
Boys,99.79,7,Kevin Carpenter,Palacios,99.61,210.92,115.67,229.06,555.65,Single-ply,SBD,M
Boys,99.79,8,Frankie Alvarez,Victoria East,96.89,210.92,129.27,201.85,542.04,Single-ply,SBD,M
Boys,99.79,9,Joseph Benavides,Pettus,97.11,185.97,140.61,190.51,517.1,Single-ply,SBD,M
Boys,99.79,10,Angel Hernandez,Goliad,95.21,190.51,102.06,219.99,512.56,Single-ply,SBD,M
Boys,99.79,11,Toby Trevino,Goliad,95.21,183.7,120.2,201.85,505.76,Single-ply,SBD,M
Boys,99.79,12,Michael Brietzke,Luling,96.89,206.38,99.79,183.7,489.88,Single-ply,SBD,M
Boys,99.79,13,Steve Hampson,Hallettsville,94.3,188.24,120.2,158.76,467.2,Single-ply,SBD,M
Boys,99.79,14,Saige Petterson,Victoria East,94.71,188.24,106.59,165.56,460.4,Single-ply,SBD,M
Boys,99.79,15,Dalton Ashcraft,Van Vleck,99.79,183.7,102.06,165.56,451.32,Single-ply,SBD,M
Boys,99.79,DQ,Diego Delgado,Pettus,99.79,,,,,Single-ply,SBD,M
Boys,99.79,DQ,Efrain Guerra,Edna,99.79,,,,,Single-ply,SBD,M
Boys,99.79,DQ,Jacqui Shorter,Columbus,99.79,,,,,Single-ply,SBD,M
Boys,99.79,DQ,Jared Williams,Van Vleck,98.29,,,,,Single-ply,SBD,M
Boys,99.79,DQ,Steven Brandt,Victoria West,91.72,181.44,,,,Single-ply,SBD,M
Boys,109.77,1,Eddie Garcia,Port Lavaca Calhoun,105.1,317.51,161.03,265.35,743.89,Single-ply,SBD,M
Boys,109.77,2,Tristan Caballero,Yoakum,108.82,260.82,172.37,217.72,650.91,Single-ply,SBD,M
Boys,109.77,3,Alex Nguyen,Palacios,108.82,233.6,161.03,197.31,591.94,Single-ply,SBD,M
Boys,109.77,4,Isahi Cardenas,Victoria West,107.59,265.35,124.74,192.78,582.87,Single-ply,SBD,M
Boys,109.77,5,Brennan Schimcek,Hallettsville,109.32,226.8,145.15,197.31,569.26,Single-ply,SBD,M
Boys,109.77,6,Will Dowell,Hallettsville,105.51,226.8,131.54,199.58,557.92,Single-ply,SBD,M
Boys,109.77,7,Dominique Brazil,Palacios,103.92,195.04,104.33,208.65,508.02,Single-ply,SBD,M
Boys,109.77,8,Michael Rios,Runge,100.38,185.97,111.13,190.51,487.61,Single-ply,SBD,M
Boys,109.77,9,Jacob Jalomo,Edna,99.88,170.1,111.13,199.58,480.81,Single-ply,SBD,M
Boys,109.77,10,Louie Lopez,Victoria St. Joseph,101.51,170.1,102.06,188.24,460.4,Single-ply,SBD,M
Boys,109.77,11,Shannon Tesch,Vanderbilt Industrial,99.88,161.03,97.52,170.1,428.64,Single-ply,SBD,M
Boys,109.77,12,Trevor Benavides,Victoria St. Joseph,109.5,138.35,102.06,129.27,369.68,Single-ply,SBD,M
Boys,109.77,DQ,Nick Duve,Yorktown,109.77,,,,,Single-ply,SBD,M
Boys,109.77,DQ,Brady Vickery,Vanderbilt Industrial,109.77,,,,,Single-ply,SBD,M
Boys,109.77,DQ,William Sanchez,Columbus,109.77,,,,,Single-ply,SBD,M
Boys,109.77,DQ,Ryan Hessong,Edna,109.77,,,,,Single-ply,SBD,M
Boys,109.77,DQ,Chase Weaver,Victoria West,109.77,,,,,Single-ply,SBD,M
Boys,124.74,1,Matthew Frazier,Port Lavaca Calhoun,110.99,272.16,167.83,208.65,648.64,Single-ply,SBD,M
Boys,124.74,2,Malakye Adams,Victoria East,115.62,249.48,149.69,204.12,603.28,Single-ply,SBD,M
Boys,124.74,3,Jason Suniga,Victoria West,120.02,272.16,138.35,190.51,601.01,Single-ply,SBD,M
Boys,124.74,4,Justin Broll,Yorktown,121.38,210.92,131.54,213.19,555.65,Single-ply,SBD,M
Boys,124.74,5,Fabian Vargas,Goliad,112.22,231.33,127.01,195.04,553.38,Single-ply,SBD,M
Boys,124.74,6,Anthony Reeves,Victoria West,114.49,188.24,115.67,188.24,492.15,Single-ply,SBD,M
Boys,124.74,7,Zeke Palcious,Goliad,117.89,190.51,106.59,176.9,474,Single-ply,SBD,M
Boys,124.74,8,Joey Dominguez,Yoakum,117.3,183.7,117.93,170.1,471.74,Single-ply,SBD,M
Boys,124.74,9,Robert Reyes,Runge,114.89,188.24,111.13,151.95,451.32,Single-ply,SBD,M
Boys,124.74,10,Nick Gomez,Yoakum,114.58,188.24,95.25,158.76,442.25,Single-ply,SBD,M
Boys,124.74,11,Sergio Calvo,Victoria St. Joseph,112.31,151.95,92.99,167.83,412.77,Single-ply,SBD,M
Boys,124.74,12,Morgan Neuman,Edna,123.6,133.81,74.84,138.35,347,Single-ply,SBD,M
Boys,124.74,DQ,Eric Salazar,Van Vleck,124.74,,,,,Single-ply,SBD,M
Boys,124.74+,1,Joel Sanchez,Luling,172.55,276.69,136.08,215.46,628.23,Single-ply,SBD,M
Boys,124.74+,2,Drew Hathaway,Victoria West,126.28,238.14,151.95,217.72,607.81,Single-ply,SBD,M
Boys,124.74+,3,Wyatt Neuman,Edna,135.71,226.8,115.67,222.26,564.72,Single-ply,SBD,M
Boys,124.74+,4,Jonathyn Murry,Luling,139.48,226.8,124.74,213.19,564.72,Single-ply,SBD,M
Boys,124.74+,5,Ruben Avila,Victoria West,135.99,197.31,111.13,188.24,496.68,Single-ply,SBD,M
Boys,124.74+,6,EJ Hodges,Port Lavaca Calhoun,125.6,181.44,138.35,165.56,485.34,Single-ply,SBD,M
Boys,124.74+,7,Gonzalo Flores,Victoria East,144.2,183.7,122.47,165.56,471.74,Single-ply,SBD,M
Boys,124.74+,8,Hunter Hackney,Runge,131.9,147.42,99.79,213.19,460.4,Single-ply,SBD,M
Boys,124.74+,9,Trevor Gloor,Victoria St. Joseph,125.42,174.63,117.93,161.03,453.59,Single-ply,SBD,M
Boys,124.74+,10,Brandon Winters,Runge,126.92,165.56,102.06,183.7,451.32,Single-ply,SBD,M
Boys,124.74+,11,Emilio Vargas,Goliad,132.18,172.37,99.79,170.1,442.25,Single-ply,SBD,M
Boys,124.74+,12,Ethan Pray,Victoria St. Joseph,142.7,102.06,90.72,140.61,333.39,Single-ply,SBD,M
Boys,124.74+,DQ,Zach Shults,Yorktown,125.19,,,,,Single-ply,SBD,M
Boys,124.74+,DQ,Jake Carr,Palacios,125.19,,,,,Single-ply,SBD,M
Boys,124.74+,DQ,Blake Weise,Goliad,125.19,,,,,Single-ply,SBD,M
Boys,124.74+,DQ,Joel Wamget,Van Vleck,139.48,278.96,174.63,,,Single-ply,SBD,M
