Division,WeightClassKg,Place,Name,Team,BodyweightKg,Best3SquatKg,Best3BenchKg,Best3DeadliftKg,TotalKg,Equipment,Event,Sex
Boys,55.79,1,Chandler Haller,Marshall,55.34,106.59,54.43,124.74,285.76,Single-ply,SBD,M
Boys,59.87,1,Peyton Cooper,Elysian Fields,58.97,115.67,65.77,133.81,315.25,Single-ply,SBD,M
Boys,59.87,2,Carter Winegart,Tyler Lee,56.7,108.86,68.04,113.4,290.3,Single-ply,SBD,M
Boys,59.87,3,Tavis Abercrombie,Marshall,57.61,113.4,45.36,124.74,283.5,Single-ply,SBD,M
Boys,67.13,1,Stone Crisp,Elysian Fields,66.5,158.76,92.99,158.76,410.5,Single-ply,SBD,M
Boys,67.13,2,Gustavo Hillario,Tyler Lee,63.05,131.54,79.38,149.69,360.61,Single-ply,SBD,M
Boys,67.13,3,David Lucio,Marshall,67.09,136.08,58.97,136.08,331.12,Single-ply,SBD,M
Boys,67.13,4,Kristopher Cooper,Longview,64.41,151.95,,158.76,310.71,Single-ply,SD,M
Boys,67.13,5,Christian Fincannon,Marshall,61.23,102.06,68.04,136.08,306.17,Single-ply,SBD,M
Boys,67.13,6,Montreal Stocker,Marshall,66.77,111.13,68.04,122.47,301.64,Single-ply,SBD,M
Boys,74.84,1,Dcrayvan Polk,Longview,70.76,201.85,115.67,208.65,526.17,Single-ply,SBD,M
Boys,74.84,2,Terry Floyd,Longview,74.39,185.97,97.52,226.8,510.29,Single-ply,SBD,M
Boys,74.84,3,Markevion Silmon,Marshall,73.3,185.97,102.06,208.65,496.68,Single-ply,SBD,M
Boys,74.84,4,Tyler Wilder,Longview,73.48,185.97,90.72,190.51,467.2,Single-ply,SBD,M
Boys,74.84,5,Casey McMullen,Elysian Fields,73.84,179.17,95.25,192.78,467.2,Single-ply,SBD,M
Boys,74.84,6,Cameron Watson,Tyler Lee,73.48,183.7,88.45,192.78,464.93,Single-ply,SBD,M
Boys,74.84,7,Treylin Lewis,Marshall,70.58,136.08,65.77,154.22,356.07,Single-ply,SBD,M
Boys,74.84,8,Jared McLean,Tyler Lee,72.12,108.86,72.57,142.88,324.32,Single-ply,SBD,M
Boys,74.84,9,Devin Goble,Tyler Lee,73.94,113.4,61.23,133.81,308.44,Single-ply,SBD,M
Boys,82.1,1,Steven Skinner,Longview,79.83,208.65,95.25,235.87,539.77,Single-ply,SBD,M
Boys,82.1,2,Jason Roundtree,Longview,82.1,163.29,92.99,181.44,437.72,Single-ply,SBD,M
Boys,82.1,3,Hayden Simmons,Elysian Fields,78.2,151.95,95.25,174.63,421.84,Single-ply,SBD,M
Boys,82.1,4,Carson Carlile,Marshall,78.83,124.74,68.04,145.15,337.93,Single-ply,SBD,M
Boys,89.81,1,James McAllister,Marshall,83.01,136.08,56.7,145.15,337.93,Single-ply,SBD,M
Boys,99.79,1,Parker Musslewhite,Tyler Lee,95.25,238.14,106.59,226.8,571.53,Single-ply,SBD,M
Boys,99.79,2,Joshua Moon,Longview,95.71,206.38,115.67,226.8,548.85,Single-ply,SBD,M
Boys,99.79,3,James Perales,Tyler Lee,94.8,165.56,106.59,217.72,489.88,Single-ply,SBD,M
Boys,99.79,4,Ben Nguyen,Longview,99.79,188.24,97.52,204.12,489.88,Single-ply,SBD,M
Boys,99.79,5,Kylian Jackson,Marshall,91.44,124.74,74.84,154.22,353.8,Single-ply,SBD,M
Boys,109.77,1,Keyontea Cooper,Marshall,109.32,215.46,124.74,192.78,532.97,Single-ply,SBD,M
Boys,124.74,1,Antonio Washington,Marshall,122.56,281.23,145.15,272.16,698.53,Single-ply,SBD,M
Boys,124.74,2,Cory Green,Tyler Lee,123.38,256.28,136.08,256.28,648.64,Single-ply,SBD,M
Boys,124.74,3,Xavion Gardner,Tyler Lee,123.83,235.87,122.47,238.14,596.47,Single-ply,SBD,M
Boys,124.74,4,Greg Hood,Marshall,118.93,222.26,111.13,204.12,537.51,Single-ply,SBD,M
Boys,124.74+,1,Marcus Polk,Longview,131.54,263.08,138.35,285.76,687.19,Single-ply,SBD,M
Boys,124.74+,2,Ahmad Farrier,Longview,149.69,251.74,131.54,215.46,598.74,Single-ply,SBD,M
Boys,124.74+,3,Jordan Jones,Tyler Lee,161.03,231.33,115.67,219.99,566.99,Single-ply,SBD,M
Boys,124.74+,4,Kendall Starling,Longview,141.97,226.8,108.86,217.72,553.38,Single-ply,SBD,M
Boys,124.74+,5,Mike Mathis,Elysian Fields,176.86,129.27,95.25,158.76,383.29,Single-ply,SBD,M
Boys,,NS,Jerry Villela,Tyler Lee,,,,,,Single-ply,SBD,M
