﻿

                  Первенство России среди юниоров
           22 - 25 марта 2000 год        г. Сергиев Посад

      52.0 кг
1.Панин д.\80        51.80   Иваново       187.5   102.5   200.0   490.0
2.Курбатов В.\78     51.70   В.Новгород    180.0   110.0   152.5   442.5
3.Азизов Р.\80       51.90   С. – Посад    170.0    92.5   180.0   442.5
     56.0 кг
1.Савиных С.\83      55.00   Челябинск     205.0   125.0   200.0   530.0
2.Малягов В.\77      55.60   Красноярск    217.5   120.0   190.0   527.5
3.Ушаков Е.\82       56.00   Омск          202.5    87.5   205.0   495.0
     60.0 кг
1.Звягинцев А.\78    59.60   Сыктывкар     225.0   152.5   220.0   597.5
2.Громов А.\81       59.30   Саранск       240.0   135.0   195.0   570.0
3.Лебеденков Д.\79   59.70   Тольятти      210.0   135.0   225.0   570.0
     67.5 кг
1.Соколов Н.\79      66.00   Москва        257.5   165.0   262.5   675.0
2.Осокин А.\79       67.40   Владимир      232.5   187.5   240.0   660.0
3.Лебедко К.\81      67.40   Иркутск       257.5   142.5   247.5   647.5
21.Кан А.\77         65.80   Уфа           200.0   132.5   210.0   542.5
25.Гизидинов Р.\79   65.55   Уфа           200.0   120.0   200.0   520.0
     75.0 кг
1.Крайнов З.\78      73.75   Владимир      260.0   162.5   292.5   715.0
2.Ермилов А.\78      75.00   С.- Петербург 280.0   167.5   267.5   715.0
3.Альцибеев А.\78    75.0    Киров         265.0   162.5   277.5   705.0
     82.5 кг
1.Малунин А.\78      81.65   Ярославль     282.5   185.0   287.5   755.0
2.Манишин В.\79      80.50   Л.- Кузнецк   267.5   177.5   285.0   730.0
3.Алтыбаев М.\77     81.75   В.Новгород    275.0   162.5   275.0   712.5
19.Колесников Е.\80  80.60   Уфа           245.0   157.5   255.0   657.5
     90.0 кг
1.Шароватов А.\77    88.30   Москва        300.0   205.0   312.5   817.5
2.Руденко В.\81      89.70   Москва        317.5   187.5   300.0   805.0
3.Харитонов С.\77    89.20   Владимир      295.0   177.5   312.5   785.0
4.Байков А.\81       89.75   Уфа           280.0   195.0   280.0   755.0
     100.0 кг
1.Суслов Н.\79       97.00   Владимир      360.0   215.0   320.0   895.0
2.Ушаков Н.\79       98.80   Орёл          325.0   205.0   310.0   840.0
3.Черноморец М.\77   99.20   С.- Посад     337.5   202.5   292.5   832.5
     110.0 кг
1.Медведев И.\80    103.15   Владимир      342.5   225.0   317.5   885.0
2.Дедюля К.\77      106.90   Хабаровск     355.0   207.5   315.0   877.5
3.Беленков Е.\81    105.40   Хабаровск     320.0   190.0   300.0   810.0
     125.0 кг
1.Маланичев а.\77   124.40   Москва        390.0   235.0   365.0   990.0
2.Гринёв С.\77      124.15   Ярославль     330.0   220.0   310.0   860.0
3.Михеев в.\77      123.10   Омск          337.5   230.0   287.5   855.0
     +125.0 кг
1.Бондаренко В.\78  129.80   Хабаровск     340.0   222.5   350.0   912.5
2.Гурьянов Н.\78    145.80   Якутск        350.0   220.0   340.0   910.0 
3.Зеленин К.\78     156.35   Москва        330.0   250.0   310.0   890.0

  Выступало всего 218 спортсменов

   Абсолютное первенство                       Командное первенство
1.Маланичев А.         564.70 очка           1.Владимирская область    59 очка
2.Суслов Н.            551.59 очка           2.Москва                  59 очков 
3.Медведев И.          532.24 очка           3.Хабаровский край        43 очка

         
              

                   Первенство России среди юниоров ( женщины )
              22 - 25 марта 2000 года        г. Сергиев Посад
44.0 кг
1.Шаповалова Н.\83    43.65   Саянск          130.0    62.5   130.0   322.5
2.Токарева Н.\84      44.00   Л.- Кузнецк     122.5    50.0   112.5   285.0
3.Чущина М.\85        43.90   Малоярславль    105.0    50.0   110.0   265.0
        48.0 кг
1.Лафина О.\79        47.50   Серов           162.5    80.0   115.0   357.5
2.Павловская К.\83    47.85   Кемерово        137.5    75.0   142.5   355.0
3.Крикунова Н.\81     45.90   В.Новгород      125.0    65.0   125.0   315.0
       52.0 кг          
1.Шадрина Е.\82       51.80   Челябинск       175.0    90.0   165.0   430.0
2.Таирова И.\80       51.15   Енисейск        155.0    90.0   170.0   415.0
3.Смирнова А.\82      49.10   Кемерово        147.5    70.0   145.0   362.5
       56.0 кг
1.Перфильева Е.\78    56.00   Москва          177.5    85.0   170.0   432.5
2.Кануткина В.\79     55.10   Северск         170.0    85.0   157.5   412.5   
3.Петухова В.\77      55.80   Соликамск       160.0    85.0   165.0   410.0
       60.0 кг
1.Писаренко В.\79     59.40   Хабаровск       182.5    82.5   155.0   420.0
2.Мелехова Г.\78      59.20   Кемерово        145.0    85.0   145.0   375.0
3.Пантина О.\79       58.60   Ливны           150.0    75.0   145.0   370.0
       67.5 кг
1.Загулова Ю.\81      65.70   Москва          187.5    95.0   180.0   462.5
2.Чепуштанова Ю.\80   65.70   Красноярск      160.0    95.0   152.5   407.5
3.Киреева А.\77       67.00   Североурал.     142.5    67.5   130.0   340.0
       75.0 кг
1.Кривенко А.\81      74.65   Норильск        162.5    75.0   160.0   397.5
2.Ананьева М.\78      69.00   Новокузнецк     135.0    75.0   175.0   385.0
3.Мурашова А.\83      71.60   Саянск          170.0    70.0   140.0   380.0
       82.5 кг
1.Юрик Е.\77          77.70   Красноярск      210.0   130.0   210.0   550.0
2.Моногарова Е.\81    75.80   Ливны           150.0    75.0   140.0   365.0
3.Повыдало Н.\82      75.60   Клин            135.0    60.0   120.0   315.0
       90.0 кг
1.Курина Ю.\81        88.70   Рузаевка        232.5    95.0   195.0   522.5
2.Толмачева С.\77     83.10   Иваново         120.0    72.5   135.0   327.5
3.Черных Ю.\78        82.80   Екатеринбург    127.5    67.5   130.0   325.0
       +90.0 кг
1.Авилкина Е.\77     103.00   Калуга          150.0   110.0   190.0   450.0
2.Исакова Н.\80       90.70   Шуя              75.0    40.0   100.0   215.0

Всего выступало 93 спортсменки

    Абсолютное первенство
1.Шадрина Е       537.67 очка
2.Таирова И.      523.96 очка
3.Юрик Е.         511.72 очка

    Командное первенство
1.Красноярский край     54 очка
2.Кемеровская область   44 очка
3.Калужская область     39 очков
                       
