Division,WeightClassKg,Place,Name,Team,BodyweightKg,Best3SquatKg,Best3BenchKg,Best3DeadliftKg,TotalKg,Equipment,Event,Sex
Boys,51.71,1,Deonte Duhart,Ingleside,51.71,120.2,63.5,127.01,310.71,Single-ply,SBD,M
Boys,51.71,2,Adrian Linares,Victoria West,42.82,106.59,61.23,115.67,283.5,Single-ply,SBD,M
Boys,51.71,3,Chris Edwards,Aransas Pass,46.27,108.86,61.23,102.06,272.16,Single-ply,SBD,M
Boys,51.71,4,Andrew Nguyen,Victoria St. Joseph,51.26,83.91,43.09,92.99,219.99,Single-ply,SBD,M
Boys,55.79,1,Mason Williams,Yorktown,54.88,154.22,83.91,158.76,396.89,Single-ply,SBD,M
Boys,55.79,2,Kevion Terrell,Victoria St. Joseph,55.79,131.54,74.84,129.27,335.66,Single-ply,SBD,M
Boys,55.79,3,Moses Alaniz,Cuero,55.79,90.72,61.23,111.13,263.08,Single-ply,SBD,M
Boys,59.87,1,Danny Morales,Karnes City,59.24,183.7,83.91,161.03,428.64,Single-ply,SBD,M
Boys,59.87,2,Chris Anderson,Ingleside,58.33,149.69,83.91,176.9,410.5,Single-ply,SBD,M
Boys,59.87,3,Landen Valdez,Victoria West,59.87,165.56,92.99,149.69,408.23,Single-ply,SBD,M
Boys,59.87,4,JT Bryce,George West,59.42,136.08,81.65,140.61,358.34,Single-ply,SBD,M
Boys,59.87,5,Cutter Braun,Yoakum,58.79,142.88,52.16,129.27,324.32,Single-ply,SBD,M
Boys,59.87,DQ,Michael Cardenas,Gonzales,58.79,,,,,Single-ply,SBD,M
Boys,67.13,1,Adrian Fuentes,George West,66.41,165.56,111.13,192.78,469.47,Single-ply,SBD,M
Boys,67.13,2,Noah Martinez,Victoria West,66.5,181.44,92.99,183.7,458.13,Single-ply,SBD,M
Boys,67.13,3,Nathaniel Reyna,Victoria West,64.86,165.56,104.33,156.49,426.38,Single-ply,SBD,M
Boys,67.13,4,Benjamin Luna,Goliad,64.86,151.95,95.25,170.1,417.3,Single-ply,SBD,M
Boys,67.13,5,Isaiah Collums,Goliad,65.77,158.76,79.38,174.63,412.77,Single-ply,SBD,M
Boys,67.13,6,Nick Teer,Aransas Pass,66.41,142.88,102.06,158.76,403.7,Single-ply,SBD,M
Boys,67.13,7,Everado Pena,Ingleside,65.95,151.95,88.45,156.49,396.89,Single-ply,SBD,M
Boys,67.13,8,Jesse Garcia,Aransas Pass,66.5,131.54,95.25,142.88,369.68,Single-ply,SBD,M
Boys,67.13,9,Jacob Cuellar,Cuero,63.41,124.74,79.38,142.88,347,Single-ply,SBD,M
Boys,67.13,10,Stephen Ayala,Ingleside,66.95,133.81,74.84,136.08,344.73,Single-ply,SBD,M
Boys,67.13,11,Aj Diaz,Aransas Pass,65.14,120.2,92.99,124.74,337.93,Single-ply,SBD,M
Boys,67.13,12,Josh Hernandez,Goliad,67.13,113.4,70.31,136.08,319.78,Single-ply,SBD,M
Boys,74.84,1,Denver Evans,Yoakum,69.58,183.7,113.4,206.38,503.49,Single-ply,SBD,M
Boys,74.84,2,Isaiah Enriquez,Karnes City,73.48,195.04,102.06,204.12,501.22,Single-ply,SBD,M
Boys,74.84,3,Seth Ruff,Ingleside,72.57,188.24,95.25,204.12,487.61,Single-ply,SBD,M
Boys,74.84,4,Jacob Warren,Ingleside,74.03,183.7,108.86,185.97,478.54,Single-ply,SBD,M
Boys,74.84,5,Javier Galvan,Aransas Pass,71.03,161.03,129.27,174.63,464.93,Single-ply,SBD,M
Boys,74.84,6,Justin Ficklen,Cuero,74.84,158.76,113.4,183.7,455.86,Single-ply,SBD,M
Boys,74.84,7,Antonio Urrea,Aransas Pass,71.76,161.03,115.67,158.76,435.45,Single-ply,SBD,M
Boys,74.84,8,Ray Caltzonzin,Victoria West,72.21,151.95,97.52,167.83,417.3,Single-ply,SBD,M
Boys,74.84,9,Damian Davila,Aransas Pass,72.94,161.03,92.99,161.03,415.04,Single-ply,SBD,M
Boys,74.84,10,Kolby Culpepper,Karnes City,73.3,151.95,102.06,142.88,396.89,Single-ply,SBD,M
Boys,74.84,11,Shayne Coquat,George West,67.77,142.88,86.18,140.61,369.68,Single-ply,SBD,M
Boys,74.84,12,Isaac Alvarado,Aransas Pass,71.4,136.08,97.52,136.08,369.68,Single-ply,SBD,M
Boys,74.84,13,Dominic Diaz,Victoria West,72.67,142.88,72.57,147.42,362.87,Single-ply,SBD,M
Boys,74.84,14,Mason Alexander,Victoria St. Joseph,73.84,147.42,86.18,124.74,358.34,Single-ply,SBD,M
Boys,74.84,DQ,Ryan Mendoza,Runge,68.76,117.93,58.97,,,Single-ply,SBD,M
Boys,74.84,DQ,Gabriel Gomez,Ingleside,70.58,104.33,,,,Single-ply,SBD,M
Boys,82.1,1,Robert Schmidt,Karnes City,81.37,231.33,122.47,210.92,564.72,Single-ply,SBD,M
Boys,82.1,2,Patrick Williams,Ingleside,77.75,206.38,129.27,215.46,551.11,Single-ply,SBD,M
Boys,82.1,3,Gary Hunley,Victoria West,81.28,197.31,129.27,213.19,539.77,Single-ply,SBD,M
Boys,82.1,4,Nate Duvall,George West,77.66,188.24,106.59,199.58,494.42,Single-ply,SBD,M
Boys,82.1,5,Sergio Torres,Gonzales,79.38,174.63,111.13,181.44,467.2,Single-ply,SBD,M
Boys,82.1,6,Brandon Basquez,Yoakum,77.38,167.83,102.06,163.29,433.18,Single-ply,SBD,M
Boys,82.1,7,Justin Guerrero,Runge,80.92,147.42,99.79,158.76,405.97,Single-ply,SBD,M
Boys,82.1,8,Seth Burks,Cuero,79.11,142.88,77.11,142.88,362.87,Single-ply,SBD,M
Boys,82.1,9,Wesley Bohl,Goliad,77.66,127.01,70.31,142.88,340.19,Single-ply,SBD,M
Boys,82.1,10,Miguel Buenostro,Yoakum,78.11,117.93,68.04,149.69,335.66,Single-ply,SBD,M
Boys,89.81,1,Raul Padilla,Victoria West,89.81,233.6,165.56,204.12,603.28,Single-ply,SBD,M
Boys,89.81,2,Izac Canchola,Victoria St. Joseph,83.91,204.12,127.01,226.8,557.92,Single-ply,SBD,M
Boys,89.81,3,Steven Brandt,Victoria West,84.19,213.19,124.74,210.92,548.85,Single-ply,SBD,M
Boys,89.81,4,Sebastian Segura,Karnes City,86.18,206.38,115.67,199.58,521.63,Single-ply,SBD,M
Boys,89.81,5,Cole Hobbs,Goliad,88.18,183.7,129.27,179.17,492.15,Single-ply,SBD,M
Boys,89.81,6,Isaiah Estrada,Victoria St. Joseph,88.54,188.24,99.79,183.7,471.74,Single-ply,SBD,M
Boys,89.81,7,Bryce Byars,Yoakum,85.55,151.95,102.06,183.7,437.72,Single-ply,SBD,M
Boys,89.81,8,Caleb Limon,Victoria St. Joseph,87.72,172.37,86.18,158.76,417.3,Single-ply,SBD,M
Boys,89.81,9,Cole Wangener,Goliad,82.6,147.42,88.45,174.63,410.5,Single-ply,SBD,M
Boys,89.81,10,Kade Bednorz,Goliad,88.9,145.15,83.91,136.08,365.14,Single-ply,SBD,M
Boys,89.81,11,Jesse Gonzales,Yorktown,83.73,136.08,90.72,136.08,362.87,Single-ply,SBD,M
Boys,89.81,12,Austin Rocha,Yoakum,86.55,122.47,65.77,124.74,312.98,Single-ply,SBD,M
Boys,89.81,13,Kaden Collins,Goliad,86.73,113.4,54.43,113.4,281.23,Single-ply,SBD,M
Boys,89.81,DQ,Brian Garza,Gonzales,88.27,219.99,106.59,,,Single-ply,SBD,M
Boys,99.79,1,Jt Esparza,Gonzales,99.79,215.46,158.76,215.46,589.67,Single-ply,SBD,M
Boys,99.79,2,Connor Brandt,Yoakum,97.98,215.46,129.27,199.58,544.31,Single-ply,SBD,M
Boys,99.79,3,Miguel Garcia,Yoakum,97.16,179.17,102.06,183.7,464.93,Single-ply,SBD,M
Boys,99.79,4,Christian Almaguer,Gonzales,95.8,147.42,77.11,149.69,374.21,Single-ply,SBD,M
Boys,99.79,5,Mateo Martinez,Goliad,92.08,145.15,72.57,151.95,369.68,Single-ply,SBD,M
Boys,109.77,1,Angel Hernandez,Goliad,104.51,258.55,156.49,256.28,671.32,Single-ply,SBD,M
Boys,109.77,2,Ethan Bernal,George West,106.05,260.82,158.76,204.12,623.69,Single-ply,SBD,M
Boys,109.77,3,Marcus Avitia,Ingleside,104.51,226.8,142.88,190.51,560.19,Single-ply,SBD,M
Boys,109.77,4,Ezekiel Palacios,Goliad,109.59,208.65,133.81,215.46,557.92,Single-ply,SBD,M
Boys,109.77,5,Anthony Rogers,Ingleside,105.41,231.33,127.01,174.63,532.97,Single-ply,SBD,M
Boys,109.77,6,Sergio Calvo,Victoria St. Joseph,109.77,208.65,113.4,208.65,530.7,Single-ply,SBD,M
Boys,109.77,7,Nathaniel Gomez,Karnes City,102.42,215.46,117.93,195.04,528.44,Single-ply,SBD,M
Boys,109.77,8,Cameron Antwine,Cuero,102.15,204.12,99.79,213.19,517.1,Single-ply,SBD,M
Boys,109.77,9,Brenden Rodriguez,Gonzales,106.14,208.65,115.67,190.51,514.83,Single-ply,SBD,M
Boys,109.77,10,Zach Banda,Cuero,104.51,204.12,88.45,190.51,483.08,Single-ply,SBD,M
Boys,109.77,11,Clayton Klecker,Goliad,105.14,179.17,102.06,190.51,471.74,Single-ply,SBD,M
Boys,109.77,12,Omar Gutierez,Yoakum,100.61,185.97,97.52,181.44,464.93,Single-ply,SBD,M
Boys,109.77,13,Cruz Medina,Yorktown,105.6,181.44,99.79,181.44,462.66,Single-ply,SBD,M
Boys,109.77,14,Paul Rojas,Goliad,106.78,163.29,95.25,181.44,439.98,Single-ply,SBD,M
Boys,109.77,15,Elisha Vernado,Cuero,101.51,161.03,86.18,156.49,403.7,Single-ply,SBD,M
Boys,109.77,16,Silvano Reyes,Gonzales,101.7,158.76,83.91,117.93,360.61,Single-ply,SBD,M
Boys,124.74,1,Nick Ramirez,Gonzales,122.92,285.76,142.88,206.38,635.03,Single-ply,SBD,M
Boys,124.74,2,Jace Gonzales,Karnes City,116.3,265.35,140.61,226.8,632.76,Single-ply,SBD,M
Boys,124.74,3,Jorge Melgoza,Cuero,122.02,231.33,170.1,204.12,605.55,Single-ply,SBD,M
Boys,124.74,4,Nick Gomez,Yoakum,122.74,244.94,122.47,213.19,580.6,Single-ply,SBD,M
Boys,124.74,5,Alexander Tijerina,Ingleside,113.4,238.14,127.01,213.19,578.33,Single-ply,SBD,M
Boys,124.74,6,Tyler Neese,Victoria West,124.38,226.8,111.13,192.78,530.7,Single-ply,SBD,M
Boys,124.74,7,Trevoer Benavides,Victoria West,122.29,192.78,131.54,192.78,517.1,Single-ply,SBD,M
Boys,124.74,8,Rudy Orosco,Runge,123.74,217.72,90.72,170.1,478.54,Single-ply,SBD,M
Boys,124.74,9,Ryan Gomez,Gonzales,116.21,183.7,92.99,185.97,462.66,Single-ply,SBD,M
Boys,124.74,10,Ruben Leal,Aransas Pass,115.03,195.04,122.47,142.88,460.4,Single-ply,SBD,M
Boys,124.74+,1,Joey Dominguez,Yoakum,140.16,242.67,142.88,249.48,635.03,Single-ply,SBD,M
Boys,124.74+,2,Mikey Chapa,Karnes City,155.13,217.72,122.47,213.19,553.38,Single-ply,SBD,M
Boys,124.74+,3,Adrian Martinez,Aransas Pass,151.05,199.58,124.74,199.58,523.9,Single-ply,SBD,M
Boys,124.74+,4,Isaac Mendez,Goliad,125.83,167.83,86.18,181.44,435.45,Single-ply,SBD,M
