Division,WeightClassKg,Place,Name,Team,BodyweightKg,Best3SquatKg,Best3BenchKg,Best3DeadliftKg,TotalKg,Equipment,Event,Sex
Boys,51.71,1,Colten Upchurch,Burkburnett,41.37,74.84,38.56,70.31,183.7,Single-ply,SBD,M
Boys,55.79,1,Nathan Mock,Perrin-Whitt,54.52,136.08,68.04,145.15,349.27,Single-ply,SBD,M
Boys,55.79,2,Jacob Wooten,Wichita Falls Rider,54.43,127.01,61.23,140.61,328.85,Single-ply,SBD,M
Boys,55.79,3,Mychal Lee,Wichita Falls Hirschi,55.07,129.27,65.77,133.81,328.85,Single-ply,SBD,M
Boys,55.79,4,Quinton Rice,Petrolia,54.61,97.52,58.97,92.99,249.48,Single-ply,SBD,M
Boys,59.87,1,Tuan Hoang,Wichita Falls City View,58.97,154.22,72.57,170.1,396.89,Single-ply,SBD,M
Boys,59.87,2,Sergio Romero,Childress,57.06,113.4,65.77,140.61,319.78,Single-ply,SBD,M
Boys,59.87,3,Christian Gauthier,Burkburnett,58.79,97.52,79.38,136.08,312.98,Single-ply,SBD,M
Boys,67.13,1,J. Paul Axtell,Olney,65.86,213.19,120.2,195.04,528.44,Single-ply,SBD,M
Boys,67.13,2,Wyatt Burrows,Olney,67.13,190.51,97.52,210.92,498.95,Single-ply,SBD,M
Boys,67.13,3,Zachary Downing,Wichita Falls Hirschi,64.77,188.24,102.06,188.24,478.54,Single-ply,SBD,M
Boys,67.13,4,Jared Holmes,Perrin-Whitt,64.68,165.56,102.06,204.12,471.74,Single-ply,SBD,M
Boys,67.13,5,John Leija,Vernon,65.41,167.83,106.59,174.63,449.06,Single-ply,SBD,M
Boys,67.13,6,Devon Hall,Seymour,62.96,154.22,90.72,181.44,426.38,Single-ply,SBD,M
Boys,67.13,7,Dalton Trouille,Olney,64.68,163.29,99.79,161.03,424.11,Single-ply,SBD,M
Boys,67.13,8,Nathaniel Downing,Wichita Falls Hirschi,63.78,149.69,79.38,172.37,401.43,Single-ply,SBD,M
Boys,67.13,9,Cody Castor,Childress,65.59,158.76,92.99,149.69,401.43,Single-ply,SBD,M
Boys,67.13,10,Bryson Garrard,Vernon,64.41,138.35,77.11,136.08,351.53,Single-ply,SBD,M
Boys,67.13,11,Jonathan Harris,Whitesboro,61.23,106.59,88.45,151.95,347,Single-ply,SBD,M
Boys,67.13,12,Cody Putnam,Alvord,65.41,136.08,74.84,136.08,347,Single-ply,SBD,M
Boys,67.13,13,Yancey Southard,Perrin-Whitt,66.13,102.06,56.7,127.01,285.76,Single-ply,SBD,M
Boys,67.13,14,Yeager Edwards,Wichita Falls,66.59,97.52,52.16,108.86,258.55,Single-ply,SBD,M
Boys,67.13,DQ,Danari Curry,Wichita Falls Rider,65.23,149.69,,,,Single-ply,SBD,M
Boys,67.13,DQ,Brady Afair,Perrin-Whitt,64.32,115.67,,,,Single-ply,SBD,M
Boys,67.13,DQ,Brock Martin,Argyle,65.86,149.69,72.57,,,Single-ply,SBD,M
Boys,74.84,1,Garet Gill,Wichita Falls,74.84,219.99,120.2,201.85,542.04,Single-ply,SBD,M
Boys,74.84,2,Marcus King,Wichita Falls,74.75,199.58,99.79,181.44,480.81,Single-ply,SBD,M
Boys,74.84,3,Nick Golden,Argyle,73.21,170.1,81.65,208.65,460.4,Single-ply,SBD,M
Boys,74.84,4,Aaron Fraga,Wichita Falls,73.66,158.76,122.47,165.56,446.79,Single-ply,SBD,M
Boys,74.84,5,Bryan Hernandez,Olney,73.03,158.76,108.86,163.29,430.91,Single-ply,SBD,M
Boys,74.84,6,Gerrick McKinney,Wichita Falls Hirschi,73.57,142.88,102.06,174.63,419.57,Single-ply,SBD,M
Boys,74.84,7,Jacob Stacy,Petrolia,74.21,149.69,97.52,147.42,394.63,Single-ply,SBD,M
Boys,74.84,8,Joshua Kelly,Childress,68.76,138.35,92.99,158.76,390.09,Single-ply,SBD,M
Boys,74.84,9,Landon Washburn,Petrolia,68.76,138.35,92.99,140.61,371.95,Single-ply,SBD,M
Boys,74.84,10,Dalton Reagan,Vernon,71.94,140.61,74.84,142.88,358.34,Single-ply,SBD,M
Boys,74.84,11,Luis Rico,Nocona,73.84,136.08,77.11,145.15,358.34,Single-ply,SBD,M
Boys,74.84,12,Nathan Selman,Decatur,74.75,138.35,74.84,136.08,349.27,Single-ply,SBD,M
Boys,74.84,13,Tyler Hayes,Nocona,68.49,133.81,79.38,131.54,344.73,Single-ply,SBD,M
Boys,74.84,14,Quade McFall,Vernon,70.94,136.08,65.77,142.88,344.73,Single-ply,SBD,M
Boys,74.84,15,Mason Barry,Henrietta,73.21,127.01,83.91,131.54,342.46,Single-ply,SBD,M
Boys,74.84,16,Genaro Semano,Vernon,71.76,108.86,68.04,151.95,328.85,Single-ply,SBD,M
Boys,74.84,17,Matthew Colston,Decatur,70.67,117.93,70.31,136.08,324.32,Single-ply,SBD,M
Boys,74.84,18,Hank Moore,Perrin-Whitt,72.39,127.01,56.7,131.54,315.25,Single-ply,SBD,M
Boys,82.1,1,Reed Latham,Petrolia,75.84,204.12,142.88,204.12,551.11,Single-ply,SBD,M
Boys,82.1,2,Brandon Murphy,Whitesboro,81.1,219.99,113.4,199.58,532.97,Single-ply,SBD,M
Boys,82.1,3,Jessy Upchurch,Burkburnett,80.92,181.44,129.27,181.44,492.15,Single-ply,SBD,M
Boys,82.1,4,Hunter Abston,Olney,79.29,190.51,131.54,167.83,489.88,Single-ply,SBD,M
Boys,82.1,5,Juan Salazar,Vernon,80.56,170.1,99.79,199.58,469.47,Single-ply,SBD,M
Boys,82.1,6,Brent McCallon,Vernon,76.93,176.9,102.06,185.97,464.93,Single-ply,SBD,M
Boys,82.1,7,TJ Story,Vernon,79.92,156.49,97.52,172.37,426.38,Single-ply,SBD,M
Boys,82.1,8,Jaime Lizama,Childress,78.65,145.15,97.52,158.76,401.43,Single-ply,SBD,M
Boys,82.1,9,Noah Elliott,Decatur,79.65,145.15,77.11,158.76,381.02,Single-ply,SBD,M
Boys,82.1,DQ,Moises Dang,Wichita Falls,78.2,,,,,Single-ply,SBD,M
Boys,82.1,DQ,Keishun Hickerson,Wichita Falls,77.02,,,,,Single-ply,SBD,M
Boys,82.1,DQ,Dylan Grider,Burkburnett,81.1,,,,,Single-ply,SBD,M
Boys,82.1,DQ,Josh Ealom,Vernon,81.37,,,,,Single-ply,SBD,M
Boys,89.81,1,Dakota Carpenter,Argyle,87.82,215.46,131.54,231.33,578.33,Single-ply,SBD,M
Boys,89.81,2,Alex Guerrero,Childress,88,215.46,140.61,219.99,576.06,Single-ply,SBD,M
Boys,89.81,3,James Baker,Whitesboro,88.45,197.31,122.47,185.97,505.76,Single-ply,SBD,M
Boys,89.81,4,Tristan Barbare,Perrin-Whitt,89.09,192.78,95.25,181.44,469.47,Single-ply,SBD,M
Boys,89.81,5,Joe Mason,Whitesboro,89.36,190.51,92.99,165.56,449.06,Single-ply,SBD,M
Boys,89.81,6,Juan Mancilla,Nocona,88.09,158.76,88.45,190.51,437.72,Single-ply,SBD,M
Boys,89.81,7,Tanner Mills,Childress,87,165.56,97.52,163.29,426.38,Single-ply,SBD,M
Boys,89.81,8,Ondra Ryan,Wichita Falls Hirschi,85.73,136.08,79.38,151.95,367.41,Single-ply,SBD,M
Boys,89.81,9,Colby Westbrook,Decatur,88.27,133.81,68.04,165.56,367.41,Single-ply,SBD,M
Boys,89.81,10,Jason Daughtry,Nocona,84.46,138.35,68.04,156.49,362.87,Single-ply,SBD,M
Boys,89.81,11,Tanner Young,Whitesboro,87.54,129.27,92.99,133.81,356.07,Single-ply,SBD,M
Boys,89.81,DQ,James White,Decatur,87,136.08,,,,Single-ply,SBD,M
Boys,89.81,DQ,Shane Huizenga,Burkburnett,89.45,,,,,Single-ply,SBD,M
Boys,89.81,DQ,Matt Castle,Argyle,88.99,,,,,Single-ply,SBD,M
Boys,89.81,DQ,Preston Guerra,Seymour,83.73,,,,,Single-ply,SBD,M
Boys,99.79,1,Tyler Kindig,Wichita Falls Rider,93.53,215.46,138.35,204.12,557.92,Single-ply,SBD,M
Boys,99.79,2,Adrian Arthur,Wichita Falls Hirschi,89.9,199.58,120.2,208.65,528.44,Single-ply,SBD,M
Boys,99.79,3,Keston Wood,Petrolia,97.79,195.04,136.08,190.51,521.63,Single-ply,SBD,M
Boys,99.79,4,Willie Phillips,Wichita Falls Rider,93.44,188.24,120.2,204.12,512.56,Single-ply,SBD,M
Boys,99.79,5,Caleb Hughes,Wichita Falls Rider,96.07,181.44,124.74,183.7,489.88,Single-ply,SBD,M
Boys,99.79,6,Zach Boyd,Nocona,89.99,163.29,111.13,179.17,453.59,Single-ply,SBD,M
Boys,99.79,7,Taylor Colley,Petrolia,97.16,170.1,102.06,181.44,453.59,Single-ply,SBD,M
Boys,99.79,8,Kylar Pendergraft,Nocona,89.99,181.44,86.18,181.44,449.06,Single-ply,SBD,M
Boys,99.79,9,Zane Hickey,Decatur,91.44,167.83,81.65,172.37,421.84,Single-ply,SBD,M
Boys,99.79,10,Jacob Galloway,Wichita Falls,97.52,161.03,79.38,156.49,396.89,Single-ply,SBD,M
Boys,99.79,11,Cody Snead,Alvord,98.7,108.86,61.23,129.27,299.37,Single-ply,SBD,M
Boys,99.79,DQ,Julio Rabago,Wichita Falls Rider,97.79,188.24,,,,Single-ply,SBD,M
Boys,109.77,1,Drew McVicker,Olney,104.42,317.51,215.46,222.26,755.23,Single-ply,SBD,M
Boys,109.77,2,Conner Bales,Burkburnett,103.42,226.8,133.81,240.4,601.01,Single-ply,SBD,M
Boys,109.77,3,Dylan Hudson,Olney,104.24,226.8,138.35,185.97,551.11,Single-ply,SBD,M
Boys,109.77,4,Raymond Carrasco,Olney,99.88,208.65,129.27,197.31,535.24,Single-ply,SBD,M
Boys,109.77,5,Joseph Crouse,Archer City,107.23,158.76,113.4,185.97,458.13,Single-ply,SBD,M
Boys,109.77,6,Oscar Juarez,Childress,103.24,185.97,86.18,154.22,426.38,Single-ply,SBD,M
Boys,109.77,7,Colby Murillo,Decatur,107.41,165.56,81.65,156.49,403.7,Single-ply,SBD,M
Boys,109.77,8,Tim Sombathy,Alvord,105.51,129.27,74.84,131.54,335.66,Single-ply,SBD,M
Boys,109.77,9,Jakob Flores,Decatur,103.69,120.2,72.57,124.74,317.51,Single-ply,SBD,M
Boys,109.77,10,Deuce Glasker,Nocona,104.87,122.47,68.04,111.13,301.64,Single-ply,SBD,M
Boys,109.77,DQ,Preston Newman,Vernon,104.33,,,,,Single-ply,SBD,M
Boys,124.74,1,Russell Carey,Whitesboro,119.39,247.21,129.27,226.8,603.28,Single-ply,SBD,M
Boys,124.74,2,Blake Martin,Alvord,116.12,276.69,108.86,204.12,589.67,Single-ply,SBD,M
Boys,124.74,3,Edgar Ramirez,Wichita Falls Hirschi,118.75,249.48,136.08,192.78,578.33,Single-ply,SBD,M
Boys,124.74,4,Austin McCarty,Childress,111.22,219.99,131.54,190.51,542.04,Single-ply,SBD,M
Boys,124.74,5,Andrew Fry,Wichita Falls Rider,122.47,219.99,122.47,197.31,539.77,Single-ply,SBD,M
Boys,124.74,6,Jose Barron,Wichita Falls Rider,110.68,206.38,142.88,183.7,532.97,Single-ply,SBD,M
Boys,124.74+,1,Collin Partridge,Wichita Falls Rider,136.17,328.85,185.97,233.6,748.43,Single-ply,SBD,M
Boys,124.74+,2,Dontryll Dever,Wichita Falls,134.54,249.48,154.22,231.33,635.03,Single-ply,SBD,M
Boys,124.74+,3,Tyler Yzaguirre,Alvord,132.72,231.33,136.08,181.44,548.85,Single-ply,SBD,M
Boys,124.74+,4,Carlos Romero,Childress,127.19,235.87,117.93,188.24,542.04,Single-ply,SBD,M
Boys,124.74+,5,Jacob Venable,Wichita Falls,138.53,224.53,99.79,190.51,514.83,Single-ply,SBD,M
Boys,124.74+,6,Aytch Warrier,Wichita Falls,153.31,195.04,92.99,185.97,474,Single-ply,SBD,M
Boys,124.74+,7,Todd Beebe,Vernon,127.64,172.37,108.86,190.51,471.74,Single-ply,SBD,M
Boys,124.74+,8,Seth Patrick,Decatur,141.43,81.65,56.7,113.4,251.74,Single-ply,SBD,M
