Division,WeightClassKg,Place,Name,Team,BodyweightKg,Best3SquatKg,Best3BenchKg,Best3DeadliftKg,TotalKg,Equipment,Event,Sex
Boys,51.71,1,Colt Baranowski,Smithville,44.54,95.25,49.9,106.59,251.74,Single-ply,SBD,M
Boys,51.71,2,Zane Timpson,Smithville,51.35,81.65,52.16,106.59,240.4,Single-ply,SBD,M
Boys,55.79,1,Rushi Patel,College Station,55.34,158.76,86.18,158.76,403.7,Single-ply,SBD,M
Boys,55.79,2,Marques Aguilar,Belton,55.52,111.13,72.57,117.93,301.64,Single-ply,SBD,M
Boys,59.87,1,Santi Piedrahita,Belton,58.79,117.93,61.23,129.27,308.44,Single-ply,SBD,M
Boys,59.87,2,Chad Adams,Giddings,59.33,113.4,65.77,129.27,308.44,Single-ply,SBD,M
Boys,59.87,3,Joe Rangel,Cameron Yoe,59.42,97.52,70.31,138.35,306.17,Single-ply,SBD,M
Boys,59.87,4,Devonte Beasley,Belton,55.88,113.4,63.5,127.01,303.91,Single-ply,SBD,M
Boys,67.13,1,JT Abshire,College Station,66.77,201.85,102.06,195.04,498.95,Single-ply,SBD,M
Boys,67.13,2,Brendan Hunt,Belton,65.59,188.24,77.11,174.63,439.98,Single-ply,SBD,M
Boys,67.13,3,Christian Castillo,Belton,64.32,163.29,83.91,149.69,396.89,Single-ply,SBD,M
Boys,67.13,4,Patrick Frazho,Belton,64.86,136.08,72.57,156.49,365.14,Single-ply,SBD,M
Boys,67.13,5,Raul Arizola,Smithville,63.96,136.08,86.18,136.08,358.34,Single-ply,SBD,M
Boys,67.13,6,Trey Motyka,Smithville,64.59,136.08,79.38,140.61,356.07,Single-ply,SBD,M
Boys,67.13,8,Graham Sherrill,Smithville,64.86,86.18,52.16,113.4,251.74,Single-ply,SBD,M
Boys,74.84,1,Braden Tschirhart,College Station,70.76,199.58,124.74,197.31,521.63,Single-ply,SBD,M
Boys,74.84,2,Taylor Sands,Little River Academy,74.66,183.7,113.4,199.58,496.68,Single-ply,SBD,M
Boys,74.84,3,Andrew Wyatt,Smithville,73.57,165.56,127.01,183.7,476.27,Single-ply,SBD,M
Boys,74.84,4,Jordan Morgan,Waco La Vega,73.12,181.44,95.25,163.29,439.98,Single-ply,SBD,M
Boys,74.84,5,Zach Andress,Cameron Yoe,70.76,163.29,90.72,167.83,421.84,Single-ply,SBD,M
Boys,74.84,6,Alex Aguillon,Cameron Yoe,69.4,158.76,83.91,161.03,403.7,Single-ply,SBD,M
Boys,74.84,7,Marshall Conde,Little River Academy,67.27,113.4,90.72,136.08,340.19,Single-ply,SBD,M
Boys,74.84,7,Rodrigo Valdez,College Station,70.94,142.88,106.59,142.88,392.36,Single-ply,SBD,M
Boys,74.84,8,Heath Hollas,Cameron Yoe,70.76,115.67,88.45,142.88,347,Single-ply,SBD,M
Boys,74.84,9,Tyler Bunt,Cameron Yoe,70.31,124.74,77.11,133.81,335.66,Single-ply,SBD,M
Boys,74.84,10,Dj Fripp,Cameron Yoe,73.48,,124.74,183.7,308.44,Single-ply,BD,M
Boys,74.84,11,Bryce Welsh,Cameron Yoe,73.03,,99.79,172.37,272.16,Single-ply,BD,M
Boys,82.1,1,Hunter Douzat,Little River Academy,80.74,244.94,158.76,229.06,632.76,Single-ply,SBD,M
Boys,82.1,2,Luke Whiteley,Little River Academy,81.47,185.97,127.01,204.12,517.1,Single-ply,SBD,M
Boys,82.1,3,Kevin Avdic,Cameron Yoe,81.65,154.22,102.06,165.56,421.84,Single-ply,SBD,M
Boys,82.1,4,Caison Schurr,Belton,77.93,151.95,90.72,170.1,412.77,Single-ply,SBD,M
Boys,82.1,5,Joe Shuler,Belton,79.29,158.76,81.65,158.76,399.16,Single-ply,SBD,M
Boys,82.1,6,Keaton Kaulfus,Belton,81.92,127.01,92.99,170.1,390.09,Single-ply,SBD,M
Boys,82.1,7,Jacob Bandera,Smithville,80.47,127.01,90.72,147.42,365.14,Single-ply,SBD,M
Boys,82.1,8,Dominic Lewis,Cameron Yoe,79.83,124.74,77.11,136.08,337.93,Single-ply,SBD,M
Boys,82.1,9,Tydrick Williams,Cameron Yoe,77.56,,117.93,197.31,315.25,Single-ply,BD,M
Boys,82.1,10,Coby Smith,Giddings,81.83,138.35,,120.2,258.55,Single-ply,SD,M
Boys,89.81,1,Nathan Ellard,College Station,85.37,242.67,165.56,226.8,635.03,Single-ply,SBD,M
Boys,89.81,2,Nico Vargas,Cameron Yoe,89.36,190.51,104.33,192.78,487.61,Single-ply,SBD,M
Boys,89.81,3,Chet Ligon,Belton,82.19,183.7,108.86,183.7,476.27,Single-ply,SBD,M
Boys,89.81,4,Mitchell Dunahoo,Belton,85,183.7,99.79,181.44,464.93,Single-ply,SBD,M
Boys,89.81,5,Justin Buuck,Belton,89.09,158.76,115.67,174.63,449.06,Single-ply,SBD,M
Boys,89.81,6,Bailey Eicknloff,Belton,86.45,172.37,86.18,174.63,433.18,Single-ply,SBD,M
Boys,89.81,7,Jawaun Howard,Belton,88.63,167.83,111.13,154.22,433.18,Single-ply,SBD,M
Boys,89.81,8,John Santos,Cameron Yoe,86.64,151.95,95.25,158.76,405.97,Single-ply,SBD,M
Boys,89.81,9,Mason Gentry,Smithville,85.64,83.91,86.18,113.4,283.5,Single-ply,SBD,M
Boys,99.79,1,Jerry Leyba,Belton,98.88,249.48,142.88,251.74,644.1,Single-ply,SBD,M
Boys,99.79,2,Mark Wagner,College Station,91.72,215.46,133.81,217.72,566.99,Single-ply,SBD,M
Boys,99.79,3,John Harvey,Belton,93.44,222.26,122.47,213.19,557.92,Single-ply,SBD,M
Boys,99.79,4,Davis Wood,College Station,98.52,204.12,138.35,192.78,535.24,Single-ply,SBD,M
Boys,99.79,5,Truce Tumlinson,College Station,97.52,204.12,108.86,213.19,526.17,Single-ply,SBD,M
Boys,99.79,6,Garrett Orange,Belton,92.9,170.1,88.45,165.56,424.11,Single-ply,SBD,M
Boys,109.77,1,Arturo Jaimes,Belton,107.59,238.14,145.15,256.28,639.57,Single-ply,SBD,M
Boys,109.77,2,Chandler Strmiska,Little River Academy,106.05,238.14,161.03,238.14,637.3,Single-ply,SBD,M
Boys,109.77,3,Justin Rew,Little River Academy,104.05,229.06,138.35,217.72,585.13,Single-ply,SBD,M
Boys,109.77,4,Seth Russell,College Station,102.24,226.8,120.2,183.7,530.7,Single-ply,SBD,M
Boys,109.77,5,Richard Rogers,Giddings,108.68,226.8,113.4,188.24,528.44,Single-ply,SBD,M
Boys,109.77,6,James Baggett,Waco La Vega,103.51,183.7,115.67,183.7,483.08,Single-ply,SBD,M
Boys,109.77,7,Wade Smith,Giddings,106.23,190.51,111.13,142.88,444.52,Single-ply,SBD,M
Boys,109.77,8,Freddie Williams,Waco La Vega,101.6,195.04,,208.65,403.7,Single-ply,SD,M
Boys,109.77,9,Jose Fuentes,Smithville,108.41,136.08,90.72,142.88,369.68,Single-ply,SBD,M
Boys,124.74,1,Dortavis Lewis,Cameron Yoe,118.84,240.4,142.88,199.58,582.87,Single-ply,SBD,M
Boys,124.74,2,Kaleb Barho,Smithville,119.39,226.8,142.88,213.19,582.87,Single-ply,SBD,M
Boys,124.74,3,Will Drake,Belton,123.01,204.12,117.93,208.65,530.7,Single-ply,SBD,M
Boys,124.74,4,Casey Allison,Waco La Vega,110.77,199.58,133.81,195.04,528.44,Single-ply,SBD,M
Boys,124.74,5,Sidney Sherwood,Belton,121.65,190.51,115.67,138.35,444.52,Single-ply,SBD,M
Boys,124.74,6,Hayden Frinke,Little River Academy,122.92,151.95,117.93,154.22,424.11,Single-ply,SBD,M
Boys,124.74,7,Gabriel Gongora,Waco La Vega,110.68,165.56,99.79,145.15,410.5,Single-ply,SBD,M
Boys,124.74,8,Caleb Hubnik,Cameron Yoe,119.29,151.95,102.06,,254.01,Single-ply,SB,M
Boys,124.74,9,Alfredo Sierra,Cameron Yoe,118.39,151.95,86.18,,238.14,Single-ply,SB,M
Boys,124.74+,1,Javon Chambers,Belton,125.92,306.17,172.37,229.06,707.6,Single-ply,SBD,M
Boys,124.74+,2,Jairo Rodriguez,Waco La Vega,128.09,238.14,151.95,229.06,619.15,Single-ply,SBD,M
Boys,124.74+,3,Juan Ramirez,Giddings,137.71,242.67,151.95,204.12,598.74,Single-ply,SBD,M
Boys,124.74+,4,David Hahn,College Station,142.52,258.55,131.54,195.04,585.13,Single-ply,SBD,M
Boys,124.74+,5,Henry Dawson,Waco La Vega,131.63,206.38,154.22,215.46,576.06,Single-ply,SBD,M
Boys,124.74+,6,Demarcus Mason,Waco La Vega,142.79,238.14,147.42,183.7,569.26,Single-ply,SBD,M
Boys,124.74+,7,Adrian Lewis,Cameron Yoe,132.45,226.8,145.15,192.78,564.72,Single-ply,SBD,M
Boys,124.74+,8,Luis Tello,Giddings,130,219.99,124.74,174.63,519.36,Single-ply,SBD,M
Boys,124.74+,9,Travarius Glasker,Waco La Vega,175.09,201.85,129.27,183.7,514.83,Single-ply,SBD,M
Boys,124.74+,10,Chris Sifuentes,Giddings,128.91,195.04,97.52,161.03,453.59,Single-ply,SBD,M
Boys,124.74+,11,Brok Garcia,Smithville,137.71,140.61,72.57,124.74,337.93,Single-ply,SBD,M
Boys,,NS,Kyle Thiele,Giddings,,,,,,Single-ply,SBD,M
Boys,,NS,Blayton Evans,Belton,,,,,,Single-ply,SBD,M
Boys,,NS,Malachi Gonzales,Giddings,,,,,,Single-ply,SBD,M
Boys,,NS,Sammy Segura,Giddings,,,,,,Single-ply,SBD,M
