Division,WeightClassKg,Place,Name,Team,BodyweightKg,Best3SquatKg,Best3BenchKg,Best3DeadliftKg,TotalKg,Equipment,Event,Sex
Boys,51.71,1,Ethan Peace,Waxahachie,51.62,92.99,47.63,102.06,242.67,Single-ply,SBD,M
Boys,51.71,2,Cody Vance,Midlothian,43.27,77.11,45.36,90.72,213.19,Single-ply,SBD,M
Boys,55.79,1,Dakota Justus,Joshua,53.52,111.13,61.23,113.4,285.76,Single-ply,SBD,M
Boys,59.87,1,Adrien Moreno,Burleson,58.97,129.27,68.04,,197.31,Single-ply,SB,M
Boys,67.13,1,Jordan McKenzie,Midlothian,67.13,183.7,106.59,129.27,419.57,Single-ply,SBD,M
Boys,67.13,2,Robert Wheeless,Waxahachie,64.41,124.74,83.91,142.88,351.53,Single-ply,SBD,M
Boys,67.13,3,Dylan Cox,Burleson Centennial,63.78,81.65,52.16,102.06,235.87,Single-ply,SBD,M
Boys,67.13,4,Jeremy Berstler,Burleson Centennial,66.68,122.47,,,122.47,Single-ply,S,M
Boys,74.84,1,Anthony Gallo,Waxahachie,71.49,174.63,97.52,167.83,439.98,Single-ply,SBD,M
Boys,74.84,2,Ethan Brown,Burleson,71.3,167.83,83.91,174.63,426.38,Single-ply,SBD,M
Boys,74.84,3,Gabriel Fuentez,Burleson,74.84,149.69,88.45,188.24,426.38,Single-ply,SBD,M
Boys,74.84,4,Ethan McBrayer,Burleson,71.21,151.95,92.99,176.9,421.84,Single-ply,SBD,M
Boys,74.84,5,Max Allen,Midlothian,73.48,140.61,81.65,172.37,394.63,Single-ply,SBD,M
Boys,74.84,6,Ian Nunez,Cleburne,74.3,147.42,90.72,145.15,383.29,Single-ply,SBD,M
Boys,74.84,7,Ethan Hernandez,Burleson,70.76,124.74,81.65,158.76,365.14,Single-ply,SBD,M
Boys,74.84,8,Dagan Murdoch,Joshua,71.12,127.01,68.04,111.13,306.17,Single-ply,SBD,M
Boys,82.1,1,Cedric Moore,Waxahachie,80.47,149.69,97.52,183.7,430.91,Single-ply,SBD,M
Boys,82.1,2,Andrew Colman,Midlothian,78.83,145.15,74.84,158.76,378.75,Single-ply,SBD,M
Boys,89.81,1,Shawn Cherry,Waxahachie,89.27,181.44,104.33,181.44,467.2,Single-ply,SBD,M
Boys,89.81,2,James Wilson,Waxahachie,83.1,167.83,83.91,183.7,435.45,Single-ply,SBD,M
Boys,89.81,3,Mason Conley,Midlothian,87.72,147.42,83.91,174.63,405.97,Single-ply,SBD,M
Boys,89.81,4,Dylan Wittee,Cleburne,86.73,111.13,68.04,115.67,294.84,Single-ply,SBD,M
Boys,99.79,1,Trenton Blew,Burleson,90.08,197.31,113.4,185.97,496.68,Single-ply,SBD,M
Boys,99.79,2,Christian Mirabal,Waxahachie,97.98,181.44,108.86,190.51,480.81,Single-ply,SBD,M
Boys,99.79,3,Bradley Gregory,Joshua,90.81,181.44,106.59,172.37,460.4,Single-ply,SBD,M
Boys,99.79,4,River Hagan,Burleson,98.97,195.04,115.67,149.69,460.4,Single-ply,SBD,M
Boys,99.79,5,Andrew Freese,Burleson,90.36,179.17,95.25,183.7,458.13,Single-ply,SBD,M
Boys,99.79,6,Justin Cuellar,Waxahachie,99.79,154.22,97.52,158.76,410.5,Single-ply,SBD,M
Boys,99.79,7,Josh Rodriguez,Cleburne,96.52,131.54,88.45,165.56,385.55,Single-ply,SBD,M
Boys,99.79,8,Cooper Zelazny,Joshua,95.25,147.42,79.38,136.08,362.87,Single-ply,SBD,M
Boys,99.79,9,Logan Birch,Burleson Centennial,99.61,138.35,79.38,145.15,362.87,Single-ply,SBD,M
Boys,99.79,10,Ethan Hill,Midlothian,94.17,149.69,117.93,,267.62,Single-ply,SB,M
Boys,109.77,1,Caleb Banks,Burleson,100.61,233.6,111.13,219.99,564.72,Single-ply,SBD,M
Boys,109.77,2,Colton Smith,Cleburne,107.77,204.12,124.74,213.19,542.04,Single-ply,SBD,M
Boys,109.77,3,Ritthik Patel,Cleburne,102.24,181.44,108.86,158.76,449.06,Single-ply,SBD,M
Boys,109.77,4,Brydon Devore,Joshua,104.69,181.44,113.4,149.69,444.52,Single-ply,SBD,M
Boys,109.77,5,Randel Tadrik,Cleburne,109.59,188.24,106.59,145.15,439.98,Single-ply,SBD,M
Boys,109.77,6,Daniel Duron,Waxahachie,107.23,151.95,83.91,174.63,410.5,Single-ply,SBD,M
Boys,124.74,1,Austin Stavely,Burleson,117.03,210.92,117.93,222.26,551.11,Single-ply,SBD,M
Boys,124.74,2,Jace Lowe,Cleburne,112.67,208.65,136.08,204.12,548.85,Single-ply,SBD,M
Boys,124.74,3,Jared Negrete,Burleson,120.02,204.12,129.27,183.7,517.1,Single-ply,SBD,M
Boys,124.74,4,Chandler Poggensee,Burleson,111.31,185.97,124.74,192.78,503.49,Single-ply,SBD,M
Boys,124.74,5,Harlen Perkins,Burleson,110.68,199.58,102.06,195.04,496.68,Single-ply,SBD,M
Boys,124.74,6,Wesley Hillis,Cleburne,123.29,195.04,108.86,188.24,492.15,Single-ply,SBD,M
Boys,124.74,7,Margarito Rojas,Cleburne,113.4,176.9,127.01,165.56,469.47,Single-ply,SBD,M
Boys,124.74,8,Angel Serrano,Cleburne,113.67,170.1,104.33,154.22,428.64,Single-ply,SBD,M
Boys,124.74+,1,David Ramos,Midlothian,147.42,195.04,102.06,204.12,501.22,Single-ply,SBD,M
Boys,124.74+,2,Joseph Perez,Waxahachie,131.63,181.44,113.4,181.44,476.27,Single-ply,SBD,M
Boys,124.74+,3,Brentley Smith,Cleburne,134.08,195.04,104.33,158.76,458.13,Single-ply,SBD,M
Boys,124.74+,4,Aaron Mercado,Burleson Centennial,149.14,161.03,102.06,,263.08,Single-ply,SB,M
