Place,Name,Sex,Event,Division,WeightClassKg,Equipment,BirthYear,State,BodyweightKg,Squat1Kg,Squat2Kg,Squat3Kg,Best3SquatKg,Bench1Kg,Bench2Kg,Bench3Kg,Best3BenchKg,Deadlift1Kg,Deadlift2Kg,Deadlift3Kg,Best3DeadliftKg,TotalKg
1,Robert Coberg,M,B,M-M1,105,Single-ply,1970,NJ,102.7,,,,,162.5,-167.5,167.5,167.5,,,,,167.5
1,Robert Coberg,M,B,M-O,105,Single-ply,1970,NJ,102.7,,,,,162.5,-167.5,167.5,167.5,,,,,167.5
1,Aryan Davoodi,M,B,MR-T2,59,Raw,2001,NJ,57.3,,,,,-75,-75,80,80,,,,,80
1,Ilana Torres,F,SBD,FR-Jr,52,Raw,1997,NJ,51,75,82.5,87.5,87.5,40,-45,-45,40,102.5,110,115,115,242.5
1,Lily Neibart,F,SBD,FR-Jr,63,Raw,1995,NJ,62.4,72.5,-80,80,80,52.5,-57.5,57.5,57.5,102.5,112.5,115,115,252.5
1,Jessica Howland,F,SBD,FR-M1,84,Raw,1977,NJ,80.9,75,82.5,-92.5,82.5,40,-45,-45,40,112.5,-115,115,115,237.5
1,Tammy Rhoads,F,SBD,FR-M1,84+,Raw,1970,NJ,84.8,-125,125,127.5,127.5,77.5,82.5,-85,82.5,125,130,137.5,137.5,347.5
1,Desiree Dickens,F,SBD,FR-M3,72,Raw,1958,NJ,65.2,-90,-92.5,92.5,92.5,50,55,57.5,57.5,95,102.5,110,110,260
1,Catherine Innes,F,SBD,FR-M3,84,Raw,1952,NJ,77,85,-90,90,90,52.5,55,-57.5,55,127.5,132.5,137.5,137.5,282.5
1,Jessica Webster,F,SBD,FR-O,63,Raw,1983,DE,62.9,95,100,-105,100,62.5,67.5,-70,67.5,142.5,147.5,150,150,317.5
2,Jayda Schmidt,F,SBD,FR-O,63,Raw,1996,DE,62.2,107.5,112.5,-117.5,112.5,60,62.5,-65,62.5,120,122.5,-127.5,122.5,297.5
3,Stacey Arbelo,F,SBD,FR-O,63,Raw,1984,NJ,62.1,-95,95,-100,95,55,60,-65,60,102.5,-112.5,117.5,117.5,272.5
4,Madeline Gehret,F,SBD,FR-O,63,Raw,1999,NJ,61.1,92.5,100,105,105,47.5,52.5,55,55,100,110,-120,110,270
5,Nidaa Abdeljabbar,F,SBD,FR-O,63,Raw,1993,NJ,62.6,-77.5,77.5,-85,77.5,37.5,45,-55,45,110,117.5,122.5,122.5,245
1,Sachi Ramcharitar,F,SBD,FR-O,72,Raw,1991,NJ,70.8,-122.5,122.5,-127.5,122.5,60,-65,65,65,125,132.5,140,140,327.5
2,Brooke Craver,F,SBD,FR-O,72,Raw,1993,NJ,71.3,102.5,105,-110,105,60,65,-67.5,65,127.5,135,147.5,147.5,317.5
3,Samantha Farina,F,SBD,FR-O,72,Raw,1993,NJ,71.5,-92.5,100,-112.5,100,55,60,-67.5,60,125,130,140,140,300
4,Amanda Farina,F,SBD,FR-O,72,Raw,1993,NJ,69.5,-85,85,-92.5,85,52.5,55,-60,55,125,130,-132.5,130,270
5,Jean Natale,F,SBD,FR-O,72,Raw,1980,PA,70.9,52.5,57.5,62.5,62.5,37.5,42.5,47.5,47.5,82.5,87.5,92.5,92.5,202.5
DQ,Samantha Herceg,F,SBD,FR-O,72,Raw,1999,NJ,71.5,-140,-142.5,145,145,-70,72.5,77.5,77.5,-152.5,-157.5,-162.5,,
1,Brea Heil,F,SBD,FR-O,84,Raw,1995,PA,79,150,157.5,165,165,82.5,85,-87.5,85,140,147.5,152.5,152.5,402.5
DQ,Brittani Schoeber,F,SBD,FR-O,84,Raw,1990,NJ,82.8,125,140,-147.5,140,-62.5,-70,-70,,145,152.5,-170,152.5,
1,Tammy Rhoads,F,SBD,FR-O,84+,Raw,1970,NJ,84.8,-125,125,127.5,127.5,77.5,82.5,-85,82.5,125,130,137.5,137.5,347.5
2,Salina Wydo,F,SBD,FR-O,84+,Raw,1984,NJ,89.7,95,97.5,102.5,102.5,52.5,57.5,60,60,127.5,137.5,142.5,142.5,305
DQ,Samantha Herceg,F,SBD,FR-T3,72,Raw,1999,NJ,71.5,-140,-142.5,145,145,-70,72.5,77.5,77.5,-152.5,-157.5,-162.5,,
1,Charles McKelvey,M,SBD,M-O,93,Single-ply,1992,NJ,92.7,200,-210,215,215,147.5,152.5,160,160,215,227.5,237.5,237.5,612.5
1,Justin Trapp,M,SBD,MR-Jr,74,Raw,1998,NJ,73.4,185,-187.5,-187.5,185,115,120,-122.5,120,227.5,237.5,-245,237.5,542.5
1,Deandre Veasley,M,SBD,MR-Jr,93,Raw,1995,NJ,85.1,167.5,185,192.5,192.5,115,125,137.5,137.5,207.5,215,232.5,232.5,562.5
2,Zachary Tillman,M,SBD,MR-Jr,93,Raw,1998,PA,86.4,135,142.5,152.5,152.5,100,105,110,110,160,172.5,182.5,182.5,445
1,Brian Grierson,M,SBD,MR-Jr,105,Raw,1996,VA,100.8,175,187.5,195,195,105,112.5,115,115,210,227.5,245,245,555
1,Andrew Blair,M,SBD,MR-M2,59,Raw,1966,DE,57,-82.5,82.5,-95,82.5,70,77.5,80,80,127.5,137.5,140,140,302.5
1,Bruce Green,M,SBD,MR-M2,93,Raw,1966,NJ,86.2,75,85,97.5,97.5,90,95,-100,95,130,137.5,140,140,332.5
1,Thomas Crego Jr,M,SBD,MR-M2,105,Raw,1965,PA,97.9,-185,-185,185,185,147.5,150,-152.5,150,215,227.5,-235,227.5,562.5
2,Daniel Debenedetto,M,SBD,MR-M2,105,Raw,1964,NJ,103.2,192.5,-207.5,-207.5,192.5,120,125,127.5,127.5,217.5,230,-240,230,550
1,Al Rausa,M,SBD,MR-M3,93,Raw,1956,LA,86.7,90,-95,95,95,92.5,102.5,107.5,107.5,122.5,125,130,130,332.5
1,Richard Landry,M,SBD,MR-M4,105,Raw,1947,NY,94.2,-130,130,135,135,85,90,92.5,92.5,152.5,165,-170,165,392.5
1,Andrew Blair,M,SBD,MR-O,59,Raw,1966,DE,57,-82.5,82.5,-95,82.5,70,77.5,80,80,127.5,137.5,140,140,302.5
1,Justin Trapp,M,SBD,MR-O,74,Raw,1998,NJ,73.4,185,-187.5,-187.5,185,115,120,-122.5,120,227.5,237.5,-245,237.5,542.5
1,Christopher Espersen,M,SBD,MR-O,83,Raw,1995,PA,82.4,182.5,-192.5,192.5,192.5,115,120,-122.5,120,205,215,-230,215,527.5
2,Ryan McDonnell,M,SBD,MR-O,83,Raw,1994,NJ,82.6,152.5,165,170,170,112.5,130,-137.5,130,197.5,215,-227.5,215,515
3,Eric Shacklett,M,SBD,MR-O,83,Raw,1988,NJ,79.6,180,185,-195,185,102.5,105,110,110,192.5,200,210,210,505
4,Timothy Young,M,SBD,MR-O,83,Raw,1994,PA,81.8,152.5,162.5,175,175,110,120,127.5,127.5,180,192.5,200,200,502.5
5,Nicholas Earwood,M,SBD,MR-O,83,Raw,1984,NJ,78.1,145,155,-165,155,85,92.5,-105,92.5,165,180,190,190,437.5
6,John Paluszek,M,SBD,MR-O,83,Raw,1989,PA,81.5,145,155,-165,155,105,110,112.5,112.5,145,-150,-150,145,412.5
7,Juan Antonio Gabriel Talon,M,SBD,MR-O,83,Raw,1991,PA,75.8,132.5,142.5,-150,142.5,87.5,92.5,-95,92.5,137.5,142.5,150,150,385
1,Erik Smithman,M,SBD,MR-O,93,Raw,1989,NJ,92.6,210,220,232.5,232.5,155,162.5,172.5,172.5,210,220,232.5,232.5,637.5
2,Rafael Da Silva Van Gysel,M,SBD,MR-O,93,Raw,1990,PA,91.2,207.5,220,225,225,127.5,132.5,137.5,137.5,245,260,-275,260,622.5
3,Patrick Logan,M,SBD,MR-O,93,Raw,1992,DE,90.9,-197.5,207.5,217.5,217.5,117.5,127.5,-132.5,127.5,232.5,250,-257.5,250,595
4,Angelo Valecce,M,SBD,MR-O,93,Raw,1990,PA,90.1,175,185,-190,185,142.5,-150,-150,142.5,200,230,237.5,237.5,565
5,Deandre Veasley,M,SBD,MR-O,93,Raw,1995,NJ,85.1,167.5,185,192.5,192.5,115,125,137.5,137.5,207.5,215,232.5,232.5,562.5
6,Kyle Anderson,M,SBD,MR-O,93,Raw,1992,NJ,89.4,172.5,182.5,192.5,192.5,100,110,125,125,200,215,227.5,227.5,545
7,Robert Kingsland,M,SBD,MR-O,93,Raw,1983,PA,90.5,170,185,192.5,192.5,122.5,132.5,137.5,137.5,185,195,-205,195,525
8,Alfred Bradley,M,SBD,MR-O,93,Raw,1984,PA,90.5,142.5,147.5,155,155,107.5,115,122.5,122.5,187.5,200,210,210,487.5
9,Bruce Green,M,SBD,MR-O,93,Raw,1966,NJ,86.2,75,85,97.5,97.5,90,95,-100,95,130,137.5,140,140,332.5
1,Anthony Scardapane,M,SBD,MR-O,105,Raw,1992,PA,97,180,185,-190,185,115,117.5,127.5,127.5,187.5,195,202.5,202.5,515
2,Eric Began,M,SBD,MR-O,105,Raw,1984,NJ,97.2,-137.5,150,-185,150,110,125,-137.5,125,145,185,205,205,480
1,David Brown,M,SBD,MR-O,120,Raw,1995,DE,108.5,195,212.5,220,220,125,132.5,-135,132.5,232.5,250,262.5,262.5,615
2,William Peake III,M,SBD,MR-O,120,Raw,2001,NJ,117.6,190,-200,200,200,142.5,147.5,152.5,152.5,207.5,220,230,230,582.5
DQ,Robert Szyba,M,SBD,MR-O,120,Raw,1979,NJ,111.8,-155,160,-167.5,160,-95,-97.5,-97.5,,180,-190,190,190,
1,Brian Donohue,M,SBD,MR-O,120+,Raw,1985,NJ,153.1,260,275,285,285,177.5,187.5,195,195,270,287.5,302.5,302.5,782.5
2,Justin Isaacs,M,SBD,MR-O,120+,Raw,1988,DE,134.3,230,245,260,260,167.5,175,-185,175,270,285,312.5,312.5,747.5
3,Jerry Schwartz,M,SBD,MR-O,120+,Raw,1984,PA,128.4,185,195,205,205,140,150,155,155,230,240,247.5,247.5,607.5
4,Jon Cohen,M,SBD,MR-O,120+,Raw,1989,PA,149.8,225,-240,245,245,115,120,125,125,217.5,230,237.5,237.5,607.5
1,Christian Bergman,M,SBD,MR-SO,120,Raw,1993,NJ,118.6,137.5,-150,150,150,67.5,75,-82.5,75,147.5,160,-170,160,385
1,William Peake III,M,SBD,MR-T2,120,Raw,2001,NJ,117.6,190,-200,200,200,142.5,147.5,152.5,152.5,207.5,220,230,230,582.5
1,Zachary Siphavanh,M,SBD,MR-T3,120,Raw,1999,DE,116.6,215,227.5,-235,227.5,135,142.5,150,150,262.5,-275,-275,262.5,640
1,Nathan Alexander,M,SBD,MR-Y3,48,Raw,2005,NJ,47.9,72.5,75,80,80,42.5,47.5,-50,47.5,90,95,100,100,227.5
1,Alexis Ambrosino,F,BD,FR-Jr,57,Raw,1997,NJ,56.1,,,,,52.5,-57.5,57.5,57.5,102.5,107.5,112.5,112.5,170
1,Alexis Ambrosino,F,BD,FR-O,57,Raw,1997,NJ,56.1,,,,,52.5,-57.5,57.5,57.5,102.5,107.5,112.5,112.5,170
