Division,WeightClassKg,Place,Name,Team,BodyweightKg,Best3SquatKg,Best3BenchKg,Best3DeadliftKg,TotalKg,Equipment,Event,Sex
Boys,51.71,1,Eliazar Venegas,Waco Midway,47.26,117.93,63.5,131.54,312.98,Single-ply,SBD,M
Boys,51.71,2,Max Castelli,Belton,51.71,113.4,70.31,124.74,308.44,Single-ply,SBD,M
Boys,51.71,3,Mason Johnson,Gatesville,49.71,106.59,58.97,117.93,283.5,Single-ply,SBD,M
Boys,51.71,4,Kyle Gascon,Belton,51.71,97.52,40.82,79.38,217.72,Single-ply,SBD,M
Boys,51.71,5,Dustin Jacoby,Copperas Cove,39.01,61.23,24.95,79.38,165.56,Single-ply,SBD,M
Boys,51.71,6,James Langerman,Waco Midway,43.91,47.63,29.48,70.31,147.42,Single-ply,SBD,M
Boys,55.79,1,Avery Rodriguez,Temple,55.61,115.67,79.38,154.22,349.27,Single-ply,SBD,M
Boys,55.79,2,Xavier McCarter,Copperas Cove,53.34,124.74,74.84,131.54,331.12,Single-ply,SBD,M
Boys,55.79,3,Devonte Beasley,Belton,55.7,117.93,72.57,124.74,315.25,Single-ply,SBD,M
Boys,55.79,4,Marques Aguilar,Belton,55.7,113.4,70.31,113.4,297.1,Single-ply,SBD,M
Boys,55.79,DQ,Xavier Aviles,Temple,55.79,,,,,Single-ply,SBD,M
Boys,59.87,1,Juan Sanchez,Waco,57.15,147.42,90.72,167.83,405.97,Single-ply,SBD,M
Boys,59.87,2,Brent Wheeler,Belton,56.7,136.08,79.38,129.27,344.73,Single-ply,SBD,M
Boys,59.87,3,Joe Rangel,Cameron Yoe,58.15,104.33,68.04,149.69,322.05,Single-ply,SBD,M
Boys,59.87,4,Santi Piedrahita,Belton,58.15,113.4,72.57,127.01,312.98,Single-ply,SBD,M
Boys,59.87,5,Jose Marquez,Waco,58.33,117.93,65.77,129.27,312.98,Single-ply,SBD,M
Boys,59.87,6,Alain Rabarisoamihono,Temple,57.79,102.06,61.23,140.61,303.91,Single-ply,SBD,M
Boys,59.87,7,Colten Kirkpatrick,Waco Midway,58.79,108.86,56.7,131.54,297.1,Single-ply,SBD,M
Boys,59.87,8,Tarrin Morrow,Copperas Cove,57.88,77.11,52.16,92.99,222.26,Single-ply,SBD,M
Boys,67.13,1,Dwight Roberts,Temple,63.68,181.44,111.13,213.19,505.76,Single-ply,SBD,M
Boys,67.13,2,Brendan Hunt,Belton,66.22,174.63,90.72,179.17,444.52,Single-ply,SBD,M
Boys,67.13,3,Christian Castillo,Belton,64.59,176.9,90.72,170.1,437.72,Single-ply,SBD,M
Boys,67.13,4,Jaylun Taylor,Gatesville,66.5,170.1,90.72,161.03,421.84,Single-ply,SBD,M
Boys,67.13,5,Jake Wiseman,Waco Midway,66.22,136.08,79.38,165.56,381.02,Single-ply,SBD,M
Boys,74.84,1,Malik Stoutamire,Temple,74.48,192.78,124.74,222.26,539.77,Single-ply,SBD,M
Boys,74.84,2,Devayse Little,Belton,74.84,204.12,117.93,201.85,523.9,Single-ply,SBD,M
Boys,74.84,3,Kyleland Sauls,Temple,74.21,192.78,117.93,195.04,505.76,Single-ply,SBD,M
Boys,74.84,4,Craig Dawson,Waco Midway,69.13,199.58,106.59,181.44,487.61,Single-ply,SBD,M
Boys,74.84,5,Zaye Petit,Copperas Cove,68.86,192.78,106.59,181.44,480.81,Single-ply,SBD,M
Boys,74.84,6,Mark Mebane,Belton,70.85,170.1,104.33,190.51,464.93,Single-ply,SBD,M
Boys,74.84,7,Alex Aguillon,Cameron Yoe,72.48,176.9,90.72,192.78,460.4,Single-ply,SBD,M
Boys,74.84,8,Isiah Hawkins,Copperas Cove,69.67,147.42,120.2,165.56,433.18,Single-ply,SBD,M
Boys,74.84,9,Kyle Ebanies,Temple,74.53,158.76,92.99,181.44,433.18,Single-ply,SBD,M
Boys,74.84,10,Michael Essix,Waco,74.57,136.08,102.06,195.04,433.18,Single-ply,SBD,M
Boys,74.84,11,Brandon Russ,Copperas Cove,74.39,156.49,97.52,176.9,430.91,Single-ply,SBD,M
Boys,74.84,12,Dai'Shawn Fisher,Waco,74.66,163.29,83.91,156.49,403.7,Single-ply,SBD,M
Boys,74.84,13,Troy Johnson,Copperas Cove,67.68,151.95,86.18,136.08,374.21,Single-ply,SBD,M
Boys,74.84,14,Kendall Fincher,Cameron Yoe,73.48,131.54,83.91,158.76,374.21,Single-ply,SBD,M
Boys,74.84,15,Miguel Pérez,Waco,74.03,145.15,77.11,140.61,362.87,Single-ply,SBD,M
Boys,74.84,16,Jacob Essix,Waco,71.03,124.74,65.77,124.74,315.25,Single-ply,SBD,M
Boys,74.84,DQ,Brooks Barnett,Waco Midway,74.84,,,,,Single-ply,SBD,M
Boys,74.84,DQ,Kyle Telg,Waco Midway,74.84,,,,,Single-ply,SBD,M
Boys,74.84,DQ,Adrian Alejos,Copperas Cove,74.84,,,,,Single-ply,SBD,M
Boys,82.1,1,Omar Essix,Waco,81.1,272.16,129.27,272.16,673.58,Single-ply,SBD,M
Boys,82.1,2,Jacob Lewallen,Belton,79.92,226.8,124.74,242.67,594.21,Single-ply,SBD,M
Boys,82.1,3,Alexander Myles,Copperas Cove,82.01,201.85,133.81,224.53,560.19,Single-ply,SBD,M
Boys,82.1,4,Chandler Vela,Belton,80.83,204.12,124.74,204.12,532.97,Single-ply,SBD,M
Boys,82.1,5,Chet Ligon,Belton,80.38,204.12,111.13,176.9,492.15,Single-ply,SBD,M
Boys,82.1,6,Kevin Avdic,Cameron Yoe,79.65,172.37,113.4,183.7,469.47,Single-ply,SBD,M
Boys,82.1,7,Dj Hampton,Copperas Cove,81.74,161.03,104.33,192.78,458.13,Single-ply,SBD,M
Boys,82.1,8,Daniel Ford,Waco Midway,80.01,140.61,86.18,147.42,374.21,Single-ply,SBD,M
Boys,82.1,9,Patrick Tucker,Waco,78.56,124.74,86.18,142.88,353.8,Single-ply,SBD,M
Boys,82.1,DQ,Fabian Garcia,Waco,82.1,,,,,Single-ply,SBD,M
Boys,89.81,1,Gelico Green,Waco,86.73,204.12,115.67,222.26,542.04,Single-ply,SBD,M
Boys,89.81,2,Garrett Roeder,Cameron Yoe,84.91,197.31,122.47,219.99,539.77,Single-ply,SBD,M
Boys,89.81,3,Tim Edwards,Copperas Cove,84.28,195.04,117.93,217.72,530.7,Single-ply,SBD,M
Boys,89.81,4,John Santos,Cameron Yoe,86.18,176.9,113.4,192.78,483.08,Single-ply,SBD,M
Boys,89.81,5,Cedric Carter,Temple,88.04,156.49,108.86,217.72,483.08,Single-ply,SBD,M
Boys,89.81,6,Codie Hidalgo,Copperas Cove,88.45,183.7,92.99,195.04,471.74,Single-ply,SBD,M
Boys,89.81,7,Mitchell Dunahoo,Belton,83.82,172.37,106.59,181.44,460.4,Single-ply,SBD,M
Boys,89.81,8,Chris Hooper,Temple,86,156.49,104.33,197.31,458.13,Single-ply,SBD,M
Boys,89.81,9,Jakob Mitchell,Waco,85.28,158.76,106.59,183.7,449.06,Single-ply,SBD,M
Boys,89.81,10,Will Howard,Temple,84.69,147.42,88.45,195.04,430.91,Single-ply,SBD,M
Boys,89.81,11,Dominic Lewis,Cameron Yoe,89.72,142.88,102.06,158.76,403.7,Single-ply,SBD,M
Boys,89.81,12,John Flores,Waco Midway,86.45,151.95,79.38,158.76,390.09,Single-ply,SBD,M
Boys,99.79,1,Jerry Leyba,Belton,97.43,272.16,147.42,258.55,678.12,Single-ply,SBD,M
Boys,99.79,2,Ashad Matthews,Temple,98.02,213.19,161.03,226.8,601.01,Single-ply,SBD,M
Boys,99.79,3,Sam Jackson,Gatesville,96.43,219.99,136.08,219.99,576.06,Single-ply,SBD,M
Boys,99.79,4,Nico Vargas,Cameron Yoe,92.35,231.33,120.2,204.12,555.65,Single-ply,SBD,M
Boys,99.79,5,Jazerian Faulkner,Temple,99.52,195.04,127.01,204.12,526.17,Single-ply,SBD,M
Boys,99.79,6,James Evans,Waco,95.16,192.78,102.06,229.06,523.9,Single-ply,SBD,M
Boys,99.79,7,Michael Griego,Gatesville,95.07,181.44,113.4,192.78,487.61,Single-ply,SBD,M
Boys,99.79,8,Justin Buuck,Belton,90.17,172.37,120.2,190.51,483.08,Single-ply,SBD,M
Boys,99.79,9,Xavier White,Temple,98.16,188.24,113.4,181.44,483.08,Single-ply,SBD,M
Boys,99.79,10,Sammy Rodriguez,Temple,99.79,181.44,90.72,208.65,480.81,Single-ply,SBD,M
Boys,99.79,11,Andrew Bullock,Waco Midway,91.08,172.37,97.52,163.29,433.18,Single-ply,SBD,M
Boys,99.79,12,Connor Laughren,Gatesville,94.89,174.63,99.79,158.76,433.18,Single-ply,SBD,M
Boys,99.79,13,Thomas Barnhill,Waco Midway,98.7,127.01,72.57,124.74,324.32,Single-ply,SBD,M
Boys,99.79,DQ,Henry Lamm,Waco Midway,99.79,,,,,Single-ply,SBD,M
Boys,99.79,DQ,John Harvey,Belton,99.79,,,,,Single-ply,SBD,M
Boys,109.77,1,Carnealus Manning,Waco,107.59,251.74,142.88,226.8,621.42,Single-ply,SBD,M
Boys,109.77,2,Zach Moody,Copperas Cove,105.41,226.8,117.93,233.6,578.33,Single-ply,SBD,M
Boys,109.77,3,Keyshawn Dudley,Waco,107.23,204.12,133.81,226.8,564.72,Single-ply,SBD,M
Boys,109.77,4,Emilo Cortez,Belton,106.14,235.87,151.95,172.37,560.19,Single-ply,SBD,M
Boys,109.77,5,Darrieon McLean,Waco,108.86,219.99,124.74,199.58,544.31,Single-ply,SBD,M
Boys,109.77,6,Tavis Lewis,Copperas Cove,101.7,204.12,113.4,219.99,537.51,Single-ply,SBD,M
Boys,109.77,7,Josh Childres,Temple,109.68,195.04,108.86,229.06,532.97,Single-ply,SBD,M
Boys,109.77,8,Jesse Flores,Temple,109.45,226.8,117.93,176.9,521.63,Single-ply,SBD,M
Boys,109.77,9,Jacob Snoddy,Gatesville,105.41,176.9,117.93,176.9,471.74,Single-ply,SBD,M
Boys,109.77,10,Jamar Wheless,Waco,103.69,170.1,115.67,181.44,467.2,Single-ply,SBD,M
Boys,109.77,11,Ezekiel Buchanon,Copperas Cove,109.77,154.22,99.79,195.04,449.06,Single-ply,SBD,M
Boys,109.77,12,John Montemayor,Waco Midway,106.23,156.49,102.06,158.76,417.3,Single-ply,SBD,M
Boys,109.77,13,Zakary Richards,Waco Midway,106.59,161.03,86.18,158.76,405.97,Single-ply,SBD,M
Boys,109.77,14,Daniel Phillips,Waco Midway,105.87,136.08,97.52,158.76,392.36,Single-ply,SBD,M
Boys,109.77,DQ,Antione Holiday,Temple,109.77,,,,,Single-ply,SBD,M
Boys,109.77,DQ,Wyatt Chambers,Temple,109.41,170.1,,,,Single-ply,SBD,M
Boys,124.74,1,Bailey Adair,Gatesville,122.47,310.71,192.78,215.46,718.94,Single-ply,SBD,M
Boys,124.74,2,Tyrese Beasley,Waco,121.47,272.16,142.88,219.99,635.03,Single-ply,SBD,M
Boys,124.74,3,Kevondre Black,Waco,119.2,272.16,145.15,210.92,628.23,Single-ply,SBD,M
Boys,124.74,4,Dortavious Lewis,Cameron Yoe,118.3,272.16,147.42,199.58,619.15,Single-ply,SBD,M
Boys,124.74,5,Curtavis Norman,Waco,115.58,240.4,142.88,206.38,589.67,Single-ply,SBD,M
Boys,124.74,6,Jim Hitchcock,Gatesville,116.03,231.33,131.54,219.99,582.87,Single-ply,SBD,M
Boys,124.74,7,Juan Jiminez,Copperas Cove,110.04,204.12,122.47,242.67,569.26,Single-ply,SBD,M
Boys,124.74,8,Austin Duenas,Copperas Cove,118.12,215.46,115.67,226.8,557.92,Single-ply,SBD,M
Boys,124.74,9,Cairi Chansler,Gatesville,110.22,217.72,138.35,197.31,553.38,Single-ply,SBD,M
Boys,124.74,10,Mason Camacho,Temple,121.47,195.04,99.79,192.78,487.61,Single-ply,SBD,M
Boys,124.74,11,Sidney Sherwood,Belton,119.39,204.12,127.01,151.95,483.08,Single-ply,SBD,M
Boys,124.74,12,Tj Franklin,Temple,115.3,158.76,113.4,185.97,458.13,Single-ply,SBD,M
Boys,124.74,13,Alfredo Sierra,Cameron Yoe,114.03,181.44,97.52,149.69,428.64,Single-ply,SBD,M
Boys,124.74,14,Wyatt Tackett,Gatesville,122.11,170.1,97.52,158.76,426.38,Single-ply,SBD,M
Boys,124.74,DQ,Will Drake,Belton,122.29,247.21,111.13,,,Single-ply,SBD,M
Boys,124.74+,1,Javon Chambers,Belton,126.64,335.66,185.97,219.99,741.62,Single-ply,SBD,M
Boys,124.74+,2,Phillip Haskins,Temple,133.4,260.82,145.15,238.14,644.1,Single-ply,SBD,M
Boys,124.74+,3,Adrian Lewis,Cameron Yoe,136.8,242.67,161.03,213.19,616.89,Single-ply,SBD,M
Boys,124.74+,4,Daizion Carroll,Waco Midway,142.52,254.01,149.69,204.12,607.81,Single-ply,SBD,M
Boys,124.74+,5,Khalil Glasker,Waco,134.44,238.14,136.08,226.8,601.01,Single-ply,SBD,M
Boys,124.74+,6,Jordan Sharp,Waco Midway,147.24,235.87,113.4,204.12,553.38,Single-ply,SBD,M
Boys,124.74+,7,Aaron Shannahan,Copperas Cove,142.43,210.92,113.4,215.46,539.77,Single-ply,SBD,M
Boys,124.74+,8,Ethan Strong,Temple,143.52,231.33,108.86,172.37,512.56,Single-ply,SBD,M
Boys,124.74+,9,Josh Echeverria,Waco Midway,128.09,174.63,102.06,181.44,458.13,Single-ply,SBD,M
Boys,124.74+,10,Dal Wright,Copperas Cove,124.78,188.24,86.18,181.44,455.86,Single-ply,SBD,M
Boys,124.74+,11,Johnny Jackson,Belton,148.05,163.29,106.59,176.9,446.79,Single-ply,SBD,M
Boys,124.74+,12,Clancey Lawhorn,Gatesville,134.81,192.78,86.18,151.95,430.91,Single-ply,SBD,M
Boys,124.74+,13,Zachary Mellinger,Waco Midway,130.91,163.29,79.38,154.22,396.89,Single-ply,SBD,M
Boys,124.74+,14,Robert Ursua,Waco Midway,127.19,129.27,77.11,142.88,349.27,Single-ply,SBD,M
