Division,WeightClassKg,Place,Name,Team,BodyweightKg,Best3SquatKg,Best3BenchKg,Best3DeadliftKg,TotalKg,Equipment,Event,Sex
Girls,44.23,1,Yoselin Miranda,Woodville,44.09,79.38,34.02,88.45,201.85,Single-ply,SBD,F
Girls,44.23,2,Maura Fentress,Woodville,40.37,61.23,34.02,83.91,179.17,Single-ply,SBD,F
Girls,51.94,1,Laila Fry,Buna,51.17,108.86,52.16,117.93,278.96,Single-ply,SBD,F
Girls,56.02,1,Crystal Martin,Woodville,55.34,90.72,45.36,97.52,233.6,Single-ply,SBD,F
Girls,56.02,2,Kimberlyn Carter,Buna,54.88,74.84,36.29,102.06,213.19,Single-ply,SBD,F
Girls,56.02,3,Emily Mixon,Woodville,54.43,70.31,38.56,90.72,199.58,Single-ply,SBD,F
Girls,60.1,1,Alyssa Thornton,Buna,60.06,127.01,61.23,102.06,290.3,Single-ply,SBD,F
Girls,60.1,2,Camber Castellanos,Woodville,59.96,113.4,56.7,113.4,283.5,Single-ply,SBD,F
Girls,60.1,3,Katelyn Odom,Woodville,59.42,106.59,56.7,111.13,274.42,Single-ply,SBD,F
Girls,60.1,DQ,Emily Dickens,Woodville,60.06,,,,,Single-ply,SBD,F
Girls,60.1,DQ,Madison Smith,Kirbyville,59.42,70.31,,,,Single-ply,SBD,F
Girls,67.36,1,Alma Hurtado,Kirbyville,64.41,68.04,38.56,88.45,195.04,Single-ply,SBD,F
Girls,67.36,DQ,Kaylyn May,Kirbyville,65.77,83.91,,,,Single-ply,SBD,F
Girls,67.36,DQ,Brianna King,Woodville,63.5,,,,,Single-ply,SBD,F
Girls,75.07,1,Kaydnn Germain,Buna,72.67,127.01,63.5,124.74,315.25,Single-ply,SBD,F
Girls,75.07,2,Haley Shultz,Jasper,70.94,83.91,34.02,97.52,215.46,Single-ply,SBD,F
Girls,75.07,DQ,Ebony Barnett,Woodville,73.94,65.77,,,,Single-ply,SBD,F
Girls,75.07,DQ,Kaiya Castle,Woodville,68.04,,,,,Single-ply,SBD,F
Girls,82.33,1,Kristen Lewis,Buna,82.28,170.1,68.04,133.81,371.95,Single-ply,SBD,F
Girls,82.33,2,Emilea Stark,Kirbyville,82.01,120.2,56.7,124.74,301.64,Single-ply,SBD,F
Girls,82.33,3,Starla Wade,Jasper,82.19,92.99,40.82,106.59,240.4,Single-ply,SBD,F
Girls,82.33,4,Kelly Smith,Kirbyville,81.65,52.16,29.48,72.57,154.22,Single-ply,SBD,F
Girls,82.33,DQ,Harley Jackson,Kirbyville,81.19,68.04,,,,Single-ply,SBD,F
Girls,90.04,DQ,Natalli Vonessen,Woodville,89.36,,,,,Single-ply,SBD,F
Girls,100.02,1,Stacie Howard,Woodville,99.97,154.22,74.84,138.35,367.41,Single-ply,SBD,F
Girls,117.71+,1,Macey Townsend,Buna,118.3,192.78,90.72,158.76,442.25,Single-ply,SBD,F
Girls,117.71+,2,Koral Sylestine,Woodville,118.84,158.76,106.59,158.76,424.11,Single-ply,SBD,F
