Division,WeightClassKg,Place,Name,Team,BodyweightKg,Best3SquatKg,Best3BenchKg,Best3DeadliftKg,TotalKg,Equipment,Event,Sex
Girls,44.23,1,Grace Loveless,Rice,43.73,74.84,40.82,88.45,204.12,Single-ply,SBD,F
Girls,44.23,2,Angela Hernanadez,Kemp,41.46,81.65,36.29,79.38,197.31,Single-ply,SBD,F
Girls,44.23,3,Amanda Brown,Elkhart,42.64,70.31,38.56,63.5,172.37,Single-ply,SBD,F
Girls,44.23,4,Jenafer Martin,Kemp,42,61.23,31.75,68.04,161.03,Single-ply,SBD,F
Girls,44.23,5,Haley Walls,Fairfield,43.27,65.77,22.68,72.57,161.03,Single-ply,SBD,F
Girls,44.23,6,Makayla Mitchell,Eustace,38.46,58.97,27.22,63.5,149.69,Single-ply,SBD,F
Girls,47.85,1,Kayla Hale,Kemp,47.08,111.13,54.43,115.67,281.23,Single-ply,SBD,F
Girls,47.85,2,Carlie Dugan,Palestine Westwood,46.54,90.72,36.29,99.79,226.8,Single-ply,SBD,F
Girls,47.85,3,Sarah Farley,Kemp,46.27,79.38,38.56,90.72,208.65,Single-ply,SBD,F
Girls,47.85,4,Marissa Mayes,Eustace,46.45,74.84,27.22,97.52,199.58,Single-ply,SBD,F
Girls,47.85,5,Alicia Estrada,Kemp,46.72,79.38,38.56,81.65,199.58,Single-ply,SBD,F
Girls,47.85,6,Alexis Ramsey,Eustace,45.99,65.77,36.29,88.45,190.51,Single-ply,SBD,F
Girls,47.85,DQ,Alizabeth Ramsey,Eustace,46.36,65.77,,,,Single-ply,SBD,F
Girls,47.85,DQ,Nikki Lira,Athens,47.63,81.65,,,,Single-ply,SBD,F
Girls,51.94,1,Maddie Sander,Palestine,50.71,115.67,43.09,106.59,265.35,Single-ply,SBD,F
Girls,51.94,2,Shayla Roddey,Normangee,51.62,95.25,43.09,111.13,249.48,Single-ply,SBD,F
Girls,51.94,3,Courtney Warrent,Dawson,49.44,83.91,47.63,113.4,244.94,Single-ply,SBD,F
Girls,51.94,4,Alyssa Barnett,Palestine Westwood,51.17,90.72,45.36,104.33,240.4,Single-ply,SBD,F
Girls,51.94,5,Jessica Pettigrew,Kemp,48.99,81.65,38.56,95.25,215.46,Single-ply,SBD,F
Girls,51.94,6,Paxtyn Taylor,Jacksonville,50.98,81.65,38.56,95.25,215.46,Single-ply,SBD,F
Girls,51.94,7,Alyah Beck,Fairfield,51.26,90.72,36.29,83.91,210.92,Single-ply,SBD,F
Girls,51.94,8,N Donohoo,Fairfield,51.8,74.84,40.82,90.72,206.38,Single-ply,SBD,F
Girls,51.94,9,Jacee Ballow,Eustace,49.9,79.38,31.75,90.72,201.85,Single-ply,SBD,F
Girls,51.94,10,Brenda Mares,Jacksonville,48.9,77.11,27.22,92.99,197.31,Single-ply,SBD,F
Girls,51.94,11,Carmen Villarreal,Kemp,50.35,72.57,40.82,81.65,195.04,Single-ply,SBD,F
Girls,51.94,12,Bethany Pruitt,Fairfield,51.62,70.31,27.22,81.65,179.17,Single-ply,SBD,F
Girls,51.94,13,Audrey Ogle,Normangee,51.35,43.09,34.02,70.31,147.42,Single-ply,SBD,F
Girls,51.94,DQ,Sayra Bolanos,Malakoff,51.71,74.84,40.82,,,Single-ply,SBD,F
Girls,51.94,DQ,Tomia Smith,Blooming Grove,48.35,65.77,,,,Single-ply,SBD,F
Girls,56.02,1,Marshalla Padgett,Eustace,53.8,113.4,47.63,140.61,301.64,Single-ply,SBD,F
Girls,56.02,2,Amber Mills,Elkhart,54.98,113.4,52.16,122.47,288.03,Single-ply,SBD,F
Girls,56.02,3,Shelby Wallace,Fairfield,53.98,92.99,56.7,113.4,263.08,Single-ply,SBD,F
Girls,56.02,4,Harmony Mathews,Malakoff,55.79,99.79,47.63,99.79,247.21,Single-ply,SBD,F
Girls,56.02,5,Daneila Gonzalez,Palestine Westwood,53.07,106.59,38.56,99.79,244.94,Single-ply,SBD,F
Girls,56.02,6,Katia Jimenez,Groesbeck,53.71,88.45,47.63,99.79,235.87,Single-ply,SBD,F
Girls,56.02,7,Taylor Wehling,Palestine,55.25,92.99,40.82,97.52,231.33,Single-ply,SBD,F
Girls,56.02,8,Kiley Kennedy,Palestine Westwood,53.8,79.38,36.29,108.86,224.53,Single-ply,SBD,F
Girls,56.02,9,Paige Shuemake,Jacksonville,54.25,63.5,43.09,106.59,213.19,Single-ply,SBD,F
Girls,56.02,10,Randi Taylor,Palestine Westwood,53.16,77.11,36.29,92.99,206.38,Single-ply,SBD,F
Girls,56.02,11,Andria Crawford,Palestine Westwood,52.44,77.11,40.82,83.91,201.85,Single-ply,SBD,F
Girls,56.02,12,Skyler Daniels,Fairfield,54.61,74.84,31.75,83.91,190.51,Single-ply,SBD,F
Girls,56.02,13,Taylor Bass,Normangee,55.79,70.31,34.02,86.18,190.51,Single-ply,SBD,F
Girls,56.02,14,Jaylin Contreras,Kemp,53.07,72.57,31.75,77.11,181.44,Single-ply,SBD,F
Girls,56.02,15,Kaylan Chavers,Palestine Westwood,53.34,77.11,27.22,77.11,181.44,Single-ply,SBD,F
Girls,56.02,16,Chelsea Green,Malakoff,53.21,63.5,29.48,86.18,179.17,Single-ply,SBD,F
Girls,60.1,1,Skylar Rodgers,Elkhart,58.97,115.67,49.9,117.93,283.5,Single-ply,SBD,F
Girls,60.1,2,Kelsie Richmond,Eustace,57.97,102.06,47.63,122.47,272.16,Single-ply,SBD,F
Girls,60.1,3,Shelby West,Groesbeck,58.6,104.33,47.63,120.2,272.16,Single-ply,SBD,F
Girls,60.1,4,Alexis Smith,Rice,59.06,99.79,43.09,122.47,265.35,Single-ply,SBD,F
Girls,60.1,5,Susan Pennington,Normangee,58.15,108.86,47.63,97.52,254.01,Single-ply,SBD,F
Girls,60.1,6,Lindsay Johnston,Jacksonville,56.7,99.79,40.82,111.13,251.74,Single-ply,SBD,F
Girls,60.1,7,Stephanie Miranda,Athens,59.06,102.06,45.36,104.33,251.74,Single-ply,SBD,F
Girls,60.1,8,Anna Gaddis,Eustace,58.42,92.99,45.36,102.06,240.4,Single-ply,SBD,F
Girls,60.1,9,Jana Peters,Eustace,59.96,102.06,43.09,90.72,235.87,Single-ply,SBD,F
Girls,60.1,10,Abby Teer,Fairfield,57.42,79.38,29.48,95.25,204.12,Single-ply,SBD,F
Girls,60.1,11,Summer Black,Groesbeck,59.33,77.11,36.29,90.72,204.12,Single-ply,SBD,F
Girls,60.1,12,Jasce Furish,Blooming Grove,56.43,68.04,36.29,90.72,195.04,Single-ply,SBD,F
Girls,60.1,13,Mackenzie Craine,Kemp,59.51,77.11,36.29,81.65,195.04,Single-ply,SBD,F
Girls,60.1,14,Lupe Orozlo,Frankston,58.97,74.84,34.02,79.38,188.24,Single-ply,SBD,F
Girls,60.1,15,Alyssa Hammons,Jacksonville,59.78,63.5,29.48,92.99,185.97,Single-ply,SBD,F
Girls,60.1,16,Kayla Pizano,Frankston,58.15,65.77,31.75,77.11,174.63,Single-ply,SBD,F
Girls,60.1,17,Madison Simpson,Buffalo,56.34,70.31,27.22,74.84,172.37,Single-ply,SBD,F
Girls,60.1,DQ,Taylor Lack,Buffalo,59.6,99.79,45.36,,,Single-ply,SBD,F
Girls,60.1,DQ,Madison Schick,Fairfield,58.33,95.25,,,,Single-ply,SBD,F
Girls,60.1,DQ,Destinee Wilson,Normangee,59.06,97.52,,,,Single-ply,SBD,F
Girls,60.1,DQ,Katie Reyes,Palestine,58.69,,,,,Single-ply,SBD,F
Girls,60.1,DQ,Janzel Baroy,Palestine Westwood,59.06,,,,,Single-ply,SBD,F
Girls,67.36,1,Justice Oates,Fairfield,65.77,136.08,54.43,102.06,292.57,Single-ply,SBD,F
Girls,67.36,2,Hannah Rose,Blooming Grove,61.6,104.33,47.63,113.4,265.35,Single-ply,SBD,F
Girls,67.36,3,India Tennial,Jacksonville,65.41,102.06,43.09,120.2,265.35,Single-ply,SBD,F
Girls,67.36,4,Sarah Jones,Groesbeck,66.32,102.06,49.9,111.13,263.08,Single-ply,SBD,F
Girls,67.36,5,Sedi Milholland,Kemp,65.77,97.52,49.9,113.4,260.82,Single-ply,SBD,F
Girls,67.36,6,Kinsey Rogers,Kemp,66.32,102.06,47.63,104.33,254.01,Single-ply,SBD,F
Girls,67.36,7,Yasmin Barrera,Jacksonville,63.23,95.25,36.29,99.79,231.33,Single-ply,SBD,F
Girls,67.36,8,JoGail Holcombe,Eustace,64.41,81.65,47.63,88.45,217.72,Single-ply,SBD,F
Girls,67.36,9,Hannah Weedon,Normangee,62.05,77.11,38.56,95.25,210.92,Single-ply,SBD,F
Girls,67.36,10,Emily Cook,Frankston,65.68,65.77,47.63,97.52,210.92,Single-ply,SBD,F
Girls,67.36,11,Kassidy Bell,Buffalo,66.13,79.38,36.29,92.99,208.65,Single-ply,SBD,F
Girls,67.36,12,Hannah Jimenez,Palestine Westwood,63.32,92.99,34.02,79.38,206.38,Single-ply,SBD,F
Girls,67.36,13,Christina Dean,Kemp,65.32,81.65,43.09,81.65,206.38,Single-ply,SBD,F
Girls,67.36,14,Tessah Johnson,Jacksonville,61.33,72.57,34.02,88.45,195.04,Single-ply,SBD,F
Girls,67.36,15,Christina Ferguson,Fairfield,60.96,70.31,29.48,88.45,188.24,Single-ply,SBD,F
Girls,67.36,16,Zabrina Scroggins,Palestine,62.78,79.38,29.48,74.84,183.7,Single-ply,SBD,F
Girls,67.36,DQ,Julia Schatz,Groesbeck,64.77,81.65,,,,Single-ply,SBD,F
Girls,67.36,DQ,Destanie Sherrill,Palestine Westwood,65.05,,,,,Single-ply,SBD,F
Girls,75.07,1,Candace Denis,Malakoff,68.31,115.67,58.97,145.15,319.78,Single-ply,SBD,F
Girls,75.07,2,Infiniti Morrow,Palestine,70.31,138.35,54.43,127.01,319.78,Single-ply,SBD,F
Girls,75.07,3,Bree Thompson,Athens,73.21,122.47,61.23,129.27,312.98,Single-ply,SBD,F
Girls,75.07,4,Ashley Purselley,Eustace,67.68,115.67,68.04,127.01,310.71,Single-ply,SBD,F
Girls,75.07,5,Breanna Vasquez,Palestine,67.68,122.47,47.63,131.54,301.64,Single-ply,SBD,F
Girls,75.07,6,Malasha Cook,Palestine Westwood,72.3,111.13,45.36,136.08,292.57,Single-ply,SBD,F
Girls,75.07,7,Vanesa Villanueva,Kemp,73.03,120.2,47.63,120.2,288.03,Single-ply,SBD,F
Girls,75.07,8,Emma Reeder,Dawson,68.49,124.74,54.43,106.59,285.76,Single-ply,SBD,F
Girls,75.07,9,Sierra Truett,Groesbeck,69.4,111.13,47.63,104.33,263.08,Single-ply,SBD,F
Girls,75.07,10,Chloey Dalrumple,Kemp,70.67,92.99,43.09,97.52,233.6,Single-ply,SBD,F
Girls,75.07,DQ,Herstin Humtphries,Elkhart,70.4,,,,,Single-ply,SBD,F
Girls,82.33,1,Deondra Dowell,Malakoff,81.01,140.61,70.31,161.03,371.95,Single-ply,SBD,F
Girls,82.33,2,Vanessa McNiel,Blooming Grove,77.93,145.15,49.9,138.35,333.39,Single-ply,SBD,F
Girls,82.33,3,Sarah Leonard,Elkhart,77.84,136.08,56.7,138.35,331.12,Single-ply,SBD,F
Girls,82.33,4,Paige Miles,Frankston,81.28,131.54,61.23,115.67,308.44,Single-ply,SBD,F
Girls,82.33,5,Tristan Gotreaux,Normangee,78.2,115.67,54.43,122.47,292.57,Single-ply,SBD,F
Girls,82.33,6,Jasmine Serralde,Palestine,80.29,120.2,47.63,106.59,274.42,Single-ply,SBD,F
Girls,82.33,7,Kadja Burns,Palestine Westwood,78.74,115.67,47.63,106.59,269.89,Single-ply,SBD,F
Girls,82.33,8,Eva Hammock,Jacksonville,76.29,99.79,43.09,122.47,265.35,Single-ply,SBD,F
Girls,82.33,9,Megan Weimorts,Palestine,80.29,106.59,47.63,111.13,265.35,Single-ply,SBD,F
Girls,82.33,10,Ana Garcia,Athens,79.47,99.79,49.9,104.33,254.01,Single-ply,SBD,F
Girls,82.33,11,Billie Jean Robinson,Jacksonville,79.65,83.91,43.09,117.93,244.94,Single-ply,SBD,F
Girls,90.04,1,Lacey Tillis,Palestine,83.91,147.42,61.23,183.7,392.36,Single-ply,SBD,F
Girls,90.04,2,Haylee Croft,Elkhart,88.36,136.08,58.97,140.61,335.66,Single-ply,SBD,F
Girls,90.04,3,Raini Goodell,Eustace,87.45,122.47,58.97,129.27,310.71,Single-ply,SBD,F
Girls,90.04,4,Skye Loper,Groesbeck,83.55,131.54,56.7,120.2,308.44,Single-ply,SBD,F
Girls,90.04,5,Ashlynn Stewart,Athens,89.81,111.13,56.7,129.27,297.1,Single-ply,SBD,F
Girls,90.04,6,Kelsey Whitten,Blooming Grove,89.54,113.4,56.7,102.06,272.16,Single-ply,SBD,F
Girls,90.04,7,Karley Erickson,Frankston,85.64,74.84,43.09,70.31,188.24,Single-ply,SBD,F
Girls,90.04,DQ,Josephin Molina,Normangee,85.46,120.2,,,,Single-ply,SBD,F
Girls,100.02,1,Sunni Goodell,Eustace,97.98,179.17,79.38,158.76,417.3,Single-ply,SBD,F
Girls,100.02,2,Jessica Hill,Fairfield,99.79,170.1,77.11,136.08,383.29,Single-ply,SBD,F
Girls,100.02,3,Jessica Miller,Eustace,93.89,129.27,47.63,117.93,294.84,Single-ply,SBD,F
Girls,100.02,4,Ingrid Castaneda,Athens,97.25,117.93,54.43,102.06,274.42,Single-ply,SBD,F
Girls,100.02,5,Michaela Horn,Malakoff,98.25,111.13,52.16,111.13,274.42,Single-ply,SBD,F
Girls,100.02,6,Jessica Baeza,Kemp,92.99,88.45,43.09,81.65,213.19,Single-ply,SBD,F
Girls,100.02,DQ,Mariah Castillo,Palestine,92.62,142.88,56.7,,,Single-ply,SBD,F
Girls,100.02+,1,Raven Paul,Frankston,125.28,222.26,115.67,204.12,542.04,Single-ply,SBD,F
Girls,100.02+,2,Ty'eesha Dawkins,Palestine Westwood,108.95,181.44,74.84,147.42,403.7,Single-ply,SBD,F
Girls,100.02+,3,Julissa Lopez,Kemp,115.12,133.81,72.57,149.69,356.07,Single-ply,SBD,F
Girls,100.02+,4,Christa Schlebach,Kemp,111.86,79.38,54.43,113.4,247.21,Single-ply,SBD,F
Girls,100.02+,5,Laura Rodriguez,Athens,105.23,90.72,47.63,86.18,224.53,Single-ply,SBD,F
