Division,WeightClassKg,Place,Name,Team,BodyweightKg,Best3SquatKg,Best3BenchKg,Best3DeadliftKg,TotalKg,Equipment,Event,Sex
Girls,44.23,1,Jenny Lopez,Springtown,43.09,86.18,40.82,86.18,213.19,Single-ply,SBD,F
Girls,44.23,2,Kelsey Sitz,Archer City,44,83.91,36.29,81.65,201.85,Single-ply,SBD,F
Girls,44.23,3,Jaci Owen,Vernon,44,65.77,36.29,81.65,183.7,Single-ply,SBD,F
Girls,44.23,4,Vanessa Garza,Vernon,43.54,70.31,31.75,77.11,179.17,Single-ply,SBD,F
Girls,44.23,5,Taylor Netherton,Early,44.23,61.23,34.02,83.91,179.17,Single-ply,SBD,F
Girls,44.23,6,Remy Eckert,Stephenville,43.64,65.77,31.75,77.11,174.63,Single-ply,SBD,F
Girls,44.23,7,Alicia Mendez,Bridgeport,43.27,56.7,29.48,81.65,167.83,Single-ply,SBD,F
Girls,44.23,DQ,Suzell Garcia,Castleberry,40.73,49.9,,,,Single-ply,SBD,F
Girls,47.85,1,Brittany Hodges,Vernon,47.36,81.65,40.82,92.99,215.46,Single-ply,SBD,F
Girls,47.85,2,Sarah Alexander,Bridgeport,47.26,58.97,29.48,77.11,165.56,Single-ply,SBD,F
Girls,47.85,DQ,Sidney Ashton,Castleberry,47.85,47.63,,,,Single-ply,SBD,F
Girls,51.94,1,Rian Kinney,Springtown,51.89,120.2,52.16,104.33,276.69,Single-ply,SBD,F
Girls,51.94,2,Marina Salinas,Early,49.21,97.52,43.09,108.86,249.48,Single-ply,SBD,F
Girls,51.94,3,Apryl VanDygrift,Godley,51.62,99.79,45.36,102.06,247.21,Single-ply,SBD,F
Girls,51.94,4,Hayley Davidson,Bridgeport,51.94,95.25,49.9,99.79,244.94,Single-ply,SBD,F
Girls,51.94,5,Lauren Winborn,Early,51.94,92.99,45.36,102.06,240.4,Single-ply,SBD,F
Girls,51.94,6,Martha Ralon,Lake Worth,49.8,88.45,40.82,92.99,222.26,Single-ply,SBD,F
Girls,51.94,7,Kimberly O'Bryant,Godley,51.94,77.11,43.09,83.91,204.12,Single-ply,SBD,F
Girls,51.94,8,Jennifer Martinez,Bridgeport,51.48,74.84,24.95,90.72,190.51,Single-ply,SBD,F
Girls,51.94,9,Shyann Dixon-Wyatt,Stephenville,48.76,68.04,31.75,81.65,181.44,Single-ply,SBD,F
Girls,51.94,DQ,Tatiana Mann,Castleberry,48.63,58.97,,,,Single-ply,SBD,F
Girls,56.02,1,Camry Larriviere,Lake Worth,56.02,113.4,40.82,133.81,288.03,Single-ply,SBD,F
Girls,56.02,2,Allison Price,Bridgeport,54.61,95.25,47.63,127.01,269.89,Single-ply,SBD,F
Girls,56.02,3,Rachel Salazar,Castleberry,54.16,95.25,47.63,106.59,249.48,Single-ply,SBD,F
Girls,56.02,4,Taylor Guerrero,Santa Anna,54.79,102.06,38.56,90.72,231.33,Single-ply,SBD,F
Girls,56.02,5,Gabrielle Hamilton,Early,53.98,90.72,43.09,95.25,229.06,Single-ply,SBD,F
Girls,56.02,6,Estephanie Lano,Lake Worth,54.98,97.52,29.48,92.99,219.99,Single-ply,SBD,F
Girls,56.02,7,Tori Eoff,Early,53.61,77.11,40.82,99.79,217.72,Single-ply,SBD,F
Girls,56.02,8,Rylie Philpot,Early,55.97,77.11,40.82,99.79,217.72,Single-ply,SBD,F
Girls,56.02,9,Shannon Fisher,Santo,53.07,88.45,34.02,81.65,204.12,Single-ply,SBD,F
Girls,56.02,10,Allie Lewis,Stephenville,54.07,63.5,34.02,65.77,163.29,Single-ply,SBD,F
Girls,56.02,11,Alyssa Aguillar,Castleberry,55.43,56.7,31.75,63.5,151.95,Single-ply,SBD,F
Girls,60.1,1,Jazmin Puryear,Lake Worth,59.06,133.81,54.43,149.69,337.93,Single-ply,SBD,F
Girls,60.1,2,Courtney Coker,Millsap,58.88,99.79,58.97,133.81,292.57,Single-ply,SBD,F
Girls,60.1,3,Tuesdi Tidwell,Early,58.97,95.25,58.97,115.67,269.89,Single-ply,SBD,F
Girls,60.1,4,Hallie Brinson,Early,56.88,104.33,47.63,115.67,267.62,Single-ply,SBD,F
Girls,60.1,5,Peytton Gribble,Vernon,59.6,99.79,54.43,113.4,267.62,Single-ply,SBD,F
Girls,60.1,6,Logan Self,Archer City,56.43,113.4,49.9,102.06,265.35,Single-ply,SBD,F
Girls,60.1,7,Baylie DeViney,Stephenville,59.78,108.86,47.63,108.86,265.35,Single-ply,SBD,F
Girls,60.1,8,Skylar Monk,Rio Vista,56.93,111.13,43.09,95.25,249.48,Single-ply,SBD,F
Girls,60.1,9,Angel Hernandez,Castleberry,58.29,92.99,43.09,111.13,247.21,Single-ply,SBD,F
Girls,60.1,10,Holly Callaway,Early,59.51,90.72,45.36,90.72,226.8,Single-ply,SBD,F
Girls,60.1,11,Andrea Hall,Archer City,58.24,72.57,38.56,83.91,195.04,Single-ply,SBD,F
Girls,60.1,DQ,Gimelle Garcia,Castleberry,59.96,83.91,,,,Single-ply,SBD,F
Girls,60.1,DQ,Stephany Newberry,Millsap,58.51,61.23,,,,Single-ply,SBD,F
Girls,67.36,1,Jacey Sparks,Early,62.96,115.67,56.7,127.01,299.37,Single-ply,SBD,F
Girls,67.36,2,Jill Rutherford,Springtown,66.13,129.27,58.97,111.13,299.37,Single-ply,SBD,F
Girls,67.36,3,Emily Wilson,Mineral Wells,61.46,90.72,40.82,108.86,240.4,Single-ply,SBD,F
Girls,67.36,4,Alejandra Medrano,Castleberry,64.14,90.72,38.56,99.79,229.06,Single-ply,SBD,F
Girls,67.36,5,Jaime Merrill,Stephenville,61.6,72.57,38.56,86.18,197.31,Single-ply,SBD,F
Girls,67.36,6,Kimberly Alvarez,Stephenville,64.86,61.23,31.75,72.57,165.56,Single-ply,SBD,F
Girls,67.36,7,Amber Cuellar,Stephenville,66,56.7,31.75,56.7,145.15,Single-ply,SBD,F
Girls,75.07,1,Sydney Wilhelm,Archer City,74.39,142.88,47.63,142.88,333.39,Single-ply,SBD,F
Girls,75.07,2,Sierra Jackson,Millsap,72.3,99.79,56.7,142.88,299.37,Single-ply,SBD,F
Girls,75.07,3,Katie Ditto,Archer City,68.58,102.06,47.63,113.4,263.08,Single-ply,SBD,F
Girls,75.07,4,Riece Talbert,Electra,69.49,104.33,52.16,97.52,254.01,Single-ply,SBD,F
Girls,75.07,5,Anna Ivy,Santo,68.67,106.59,45.36,99.79,251.74,Single-ply,SBD,F
Girls,75.07,6,Sindi Ortiz,Bridgeport,69.76,95.25,45.36,108.86,249.48,Single-ply,SBD,F
Girls,75.07,7,Heaven Leach,Early,70.67,92.99,49.9,106.59,249.48,Single-ply,SBD,F
Girls,75.07,8,Megan Hardee,Mineral Wells,71.21,86.18,40.82,104.33,231.33,Single-ply,SBD,F
Girls,75.07,9,Mikeala Lee,Stephenville,74.84,83.91,52.16,95.25,231.33,Single-ply,SBD,F
Girls,75.07,10,April Trujillo,Castleberry,72.94,86.18,34.02,97.52,217.72,Single-ply,SBD,F
Girls,75.07,DQ,Caylen Myracle,Archer City,73.21,68.04,,,,Single-ply,SBD,F
Girls,82.33,1,Martha Chavez,Springtown,81.37,176.9,77.11,154.22,408.23,Single-ply,SBD,F
Girls,82.33,2,Stefani Reyna,Stephenville,81.74,97.52,56.7,117.93,272.16,Single-ply,SBD,F
Girls,82.33,3,Brianna Sims,Castleberry,77.79,88.45,47.63,122.47,258.55,Single-ply,SBD,F
Girls,82.33,4,Kiley Chase,Santo,77.11,65.77,34.02,88.45,188.24,Single-ply,SBD,F
Girls,90.04,1,Manija Youngberg,Vernon,89.9,149.69,63.5,158.76,371.95,Single-ply,SBD,F
Girls,90.04,2,Ana Ortiz,Castleberry,85.05,104.33,43.09,113.4,260.82,Single-ply,SBD,F
Girls,90.04,3,Tammeri Wooten,Early,83.19,92.99,43.09,104.33,240.4,Single-ply,SBD,F
Girls,90.04,DQ,Kk Whitley,Early,86.36,124.74,,,,Single-ply,SBD,F
Girls,90.04,DQ,Cristin Martin,Electra,88.09,113.4,,,,Single-ply,SBD,F
Girls,100.02,1,Sydney Counts,Springtown,97.7,167.83,65.77,122.47,356.07,Single-ply,SBD,F
Girls,100.02,2,Alexus Duckett,Stephenville,93.08,136.08,63.5,140.61,340.19,Single-ply,SBD,F
Girls,100.02,3,Kaylie Winstead,Stephenville,90.95,136.08,54.43,133.81,324.32,Single-ply,SBD,F
Girls,100.02,4,Carley Scott,Millsap,94.8,102.06,52.16,131.54,285.76,Single-ply,SBD,F
Girls,100.02,DQ,Amber Rush,Stephenville,91.53,161.03,,,,Single-ply,SBD,F
Girls,100.02+,1,Nadine Arredondo,Stephenville,109.23,131.54,56.7,129.27,317.51,Single-ply,SBD,F
