Division,WeightClassKg,Place,Name,Team,BodyweightKg,Best3SquatKg,Best3BenchKg,Best3DeadliftKg,TotalKg,Equipment,Event,Sex
Girls,44.23,1,Alyssa Gonzales,Dilley,43.18,70.31,36.29,90.72,197.31,Single-ply,SBD,F
Girls,44.23,2,Bianca Martinez,Pleasanton,43.45,74.84,34.02,88.45,197.31,Single-ply,SBD,F
Girls,44.23,3,Katrina Martinez,Dilley,43.73,56.7,34.02,72.57,163.29,Single-ply,SBD,F
Girls,44.23,4,Lourdes Herrera,La Pryor,41.64,56.7,36.29,68.04,161.03,Single-ply,SBD,F
Girls,47.85,1,Sabrina Estrada,Dilley,47.81,117.93,40.82,104.33,263.08,Single-ply,SBD,F
Girls,47.85,2,Ericka Knowles,San Antonio East Central,46.18,88.45,45.36,106.59,240.4,Single-ply,SBD,F
Girls,47.85,3,Sarah Martin,Center Point,45.63,74.84,38.56,92.99,206.38,Single-ply,SBD,F
Girls,47.85,4,Maricella Espinoza,Center Point,46.18,79.38,29.48,83.91,192.78,Single-ply,SBD,F
Girls,47.85,5,Gabby Gonzalez,Jourdanton,46.18,74.84,34.02,70.31,179.17,Single-ply,SBD,F
Girls,47.85,DQ,Caitlyn Holguin,La Pryor,46.54,72.57,,,,Single-ply,SBD,F
Girls,51.94,1,Catrina Garcia,Pearsall,49.17,113.4,52.16,102.06,267.62,Single-ply,SBD,F
Girls,51.94,2,Brooke Brown,Floresville,50.62,102.06,38.56,102.06,242.67,Single-ply,SBD,F
Girls,51.94,3,Hailey Tapia,San Antonio East Central,50.44,77.11,38.56,102.06,217.72,Single-ply,SBD,F
Girls,51.94,4,Segovia Alexsandria,San Antonio East Central,50.71,74.84,43.09,90.72,208.65,Single-ply,SBD,F
Girls,51.94,5,Erica Hewty,Devine,51.62,81.65,40.82,86.18,208.65,Single-ply,SBD,F
Girls,51.94,6,Julie Gamble,San Antonio Memorial,51.62,83.91,31.75,90.72,206.38,Single-ply,SBD,F
Girls,51.94,7,Bianca Castillo,Castroville Medina Valley,50.26,68.04,34.02,97.52,199.58,Single-ply,SBD,F
Girls,51.94,8,Tyra Olivares,Pearsall,50.89,83.91,34.02,81.65,199.58,Single-ply,SBD,F
Girls,51.94,9,Samantha Richardson,Center Point,49.62,61.23,43.09,88.45,192.78,Single-ply,SBD,F
Girls,51.94,10,Kristianna Kelley,Pleasanton,50.71,70.31,34.02,77.11,181.44,Single-ply,SBD,F
Girls,51.94,DQ,Sabrina Lopez,San Antonio East Central,50.62,79.38,,,,Single-ply,SBD,F
Girls,51.94,DQ,Casandra Lopez,Jourdanton,49.08,61.23,,,,Single-ply,SBD,F
Girls,56.02,1,Sophia Romero,Pleasanton,53.34,117.93,54.43,102.06,274.42,Single-ply,SBD,F
Girls,56.02,2,Belen Morales,San Antonio Kennedy,52.62,106.59,52.16,111.13,269.89,Single-ply,SBD,F
Girls,56.02,3,Shea Carnes,Center Point,53.8,108.86,56.7,102.06,267.62,Single-ply,SBD,F
Girls,56.02,4,Jessica Perez,La Pryor,52.62,77.11,43.09,92.99,213.19,Single-ply,SBD,F
Girls,56.02,5,Desiree Blanchard,Center Point,52.53,77.11,45.36,83.91,206.38,Single-ply,SBD,F
Girls,56.02,6,Gage Brown,Brackettville Brackett,55.34,90.72,40.82,74.84,206.38,Single-ply,SBD,F
Girls,56.02,7,Alexis Wiest,Somerset,54.16,74.84,38.56,86.18,199.58,Single-ply,SBD,F
Girls,56.02,8,Sarah Jimenez,Lytle,55.61,61.23,36.29,102.06,199.58,Single-ply,SBD,F
Girls,56.02,9,Magahi Medina,Lytle,55.79,74.84,31.75,81.65,188.24,Single-ply,SBD,F
Girls,56.02,10,Courtney Strey,San Antonio East Central,52.25,65.77,34.02,81.65,181.44,Single-ply,SBD,F
Girls,56.02,11,Larissa Pierce,Pleasanton,53.98,65.77,34.02,77.11,176.9,Single-ply,SBD,F
Girls,56.02,12,Tayla Elizondo,Pearsall,54.52,52.16,34.02,65.77,151.95,Single-ply,SBD,F
Girls,56.02,DQ,Clarissa Garcia,Pearsall,54.34,122.47,54.43,,,Single-ply,SBD,F
Girls,56.02,DQ,Perla Rodriguez,Dilley,55.97,,,,,Single-ply,SBD,F
Girls,60.1,1,Serina Flores,Dilley,59.6,120.2,61.23,108.86,290.3,Single-ply,SBD,F
Girls,60.1,2,Samantha Garcia,Pleasanton,59.15,120.2,36.29,129.27,285.76,Single-ply,SBD,F
Girls,60.1,3,Kiersten Paul,La Pryor,59.69,113.4,63.5,108.86,285.76,Single-ply,SBD,F
Girls,60.1,4,Rosenda Hernandez,Lytle,59.69,108.86,47.63,113.4,269.89,Single-ply,SBD,F
Girls,60.1,5,Brianna Martinez,Castroville Medina Valley,59.24,113.4,56.7,90.72,260.82,Single-ply,SBD,F
Girls,60.1,6,Deberah Torres,Dilley,59.42,99.79,52.16,106.59,258.55,Single-ply,SBD,F
Girls,60.1,7,Kendra Lewis,San Antonio East Central,58.06,102.06,40.82,104.33,247.21,Single-ply,SBD,F
Girls,60.1,8,Vanessa Hernandez,Devine,58.33,97.52,45.36,104.33,247.21,Single-ply,SBD,F
Girls,60.1,9,Kirsten MacDonald,Castroville Medina Valley,59.78,97.52,43.09,97.52,238.14,Single-ply,SBD,F
Girls,60.1,10,Dominique Esquivel,Devine,56.34,90.72,47.63,95.25,233.6,Single-ply,SBD,F
Girls,60.1,11,Yassmin Munoz,Center Point,56.88,88.45,40.82,102.06,231.33,Single-ply,SBD,F
Girls,60.1,12,Erica Walker,Pleasanton,58.42,90.72,36.29,92.99,219.99,Single-ply,SBD,F
Girls,60.1,13,Allyson Hinojosa,Kenedy,57.7,79.38,45.36,90.72,215.46,Single-ply,SBD,F
Girls,60.1,14,Jess Gamble,San Antonio Memorial,56.25,86.18,40.82,83.91,210.92,Single-ply,SBD,F
Girls,60.1,15,Kalia Bush-Loo,Lytle,59.42,72.57,38.56,86.18,197.31,Single-ply,SBD,F
Girls,60.1,16,Samantha Calderon,San Antonio Kennedy,59.42,72.57,31.75,83.91,188.24,Single-ply,SBD,F
Girls,60.1,DQ,Claudia Salazar,La Pryor,58.42,65.77,,,,Single-ply,SBD,F
Girls,60.1,DQ,Kerrigan Brown,San Antonio East Central,58.69,,,,,Single-ply,SBD,F
Girls,67.36,1,Jubilee Flores,Dilley,61.69,147.42,68.04,142.88,358.34,Single-ply,SBD,F
Girls,67.36,2,Esperanza Delgado,Jourdanton,64.14,149.69,56.7,131.54,337.93,Single-ply,SBD,F
Girls,67.36,3,Emily Guerrero,Lytle,60.24,136.08,56.7,122.47,315.25,Single-ply,SBD,F
Girls,67.36,4,Madison Schultz,San Antonio East Central,62.6,115.67,49.9,129.27,294.84,Single-ply,SBD,F
Girls,67.36,5,Jasmine Bocanegra,Jourdanton,64.14,104.33,43.09,124.74,272.16,Single-ply,SBD,F
Girls,67.36,6,Rakel Aguero,Jourdanton,67.13,102.06,49.9,102.06,254.01,Single-ply,SBD,F
Girls,67.36,7,Maria Martinez,Center Point,61.42,97.52,52.16,99.79,249.48,Single-ply,SBD,F
Girls,67.36,8,Amanda Rivera,Poteet,66.81,102.06,36.29,97.52,235.87,Single-ply,SBD,F
Girls,67.36,9,Adriana Martinez,Kenedy,66.95,83.91,36.29,106.59,226.8,Single-ply,SBD,F
Girls,67.36,10,Abi Escalante,Jourdanton,67.13,83.91,43.09,99.79,226.8,Single-ply,SBD,F
Girls,67.36,11,Paige Sheppard,Castroville Medina Valley,63.41,92.99,38.56,88.45,219.99,Single-ply,SBD,F
Girls,67.36,12,Maria Lopez,Pearsall,61.6,88.45,38.56,90.72,217.72,Single-ply,SBD,F
Girls,67.36,13,Baylie Gaitan,Jourdanton,66.95,83.91,40.82,88.45,213.19,Single-ply,SBD,F
Girls,67.36,14,Sammie Portman,San Antonio East Central,61.42,86.18,38.56,81.65,206.38,Single-ply,SBD,F
Girls,67.36,15,Arianna Dallaire,La Pryor,67.22,74.84,34.02,86.18,195.04,Single-ply,SBD,F
Girls,67.36,16,Brenda Garcia,San Antonio Memorial,61.96,65.77,20.41,86.18,172.37,Single-ply,SBD,F
Girls,67.36,DQ,Cierra Cervantez,Poteet,63.87,45.36,,,,Single-ply,SBD,F
Girls,67.36,DQ,Alexandria Torres-Mercado,Castroville Medina Valley,65.14,72.57,,,,Single-ply,SBD,F
Girls,75.07,1,Ashley Romero,Jourdanton,71.49,149.69,74.84,176.9,401.43,Single-ply,SBD,F
Girls,75.07,2,Paige Kruciak,Lytle,73.75,156.49,88.45,142.88,387.82,Single-ply,SBD,F
Girls,75.07,3,Loraine Rodriguez,Floresville,69.4,124.74,52.16,161.03,337.93,Single-ply,SBD,F
Girls,75.07,4,Maria Kind,Floresville,70.13,129.27,52.16,149.69,331.12,Single-ply,SBD,F
Girls,75.07,5,Alex Miller,Kenedy,74.93,131.54,65.77,129.27,326.59,Single-ply,SBD,F
Girls,75.07,6,Molly Fuller,Devine,68.95,115.67,61.23,117.93,294.84,Single-ply,SBD,F
Girls,75.07,7,Kat Ramirez,Jourdanton,70.13,120.2,65.77,102.06,288.03,Single-ply,SBD,F
Girls,75.07,8,Mackenzie Lyon,Center Point,74.66,117.93,52.16,106.59,276.69,Single-ply,SBD,F
Girls,75.07,9,Sydney Ross,Floresville,70.22,106.59,49.9,117.93,274.42,Single-ply,SBD,F
Girls,75.07,10,Gabriela Albiar,Kenedy,73.21,99.79,43.09,122.47,265.35,Single-ply,SBD,F
Girls,75.07,11,Cierra Lopez,Jourdanton,70.4,102.06,49.9,111.13,263.08,Single-ply,SBD,F
Girls,75.07,12,Rebecca Fowler,Devine,71.49,102.06,45.36,106.59,254.01,Single-ply,SBD,F
Girls,75.07,13,Ariel Martinez,Castroville Medina Valley,72.3,104.33,49.9,97.52,251.74,Single-ply,SBD,F
Girls,75.07,14,Marisa Rios,Lytle,68.31,95.25,49.9,104.33,249.48,Single-ply,SBD,F
Girls,75.07,15,Andrea Gamez,Somerset,67.95,79.38,36.29,102.06,217.72,Single-ply,SBD,F
Girls,75.07,16,Karina Perez,Brackettville Brackett,69.85,65.77,36.29,83.91,185.97,Single-ply,SBD,F
Girls,75.07,17,Melissa Medellin,San Antonio Cole,73.39,68.04,31.75,83.91,183.7,Single-ply,SBD,F
Girls,75.07,18,Krissy Rodriguez,Pearsall,74.93,63.5,45.36,72.57,181.44,Single-ply,SBD,F
Girls,75.07,DQ,Maria Sanchez,San Antonio Kennedy,67.95,102.06,,,,Single-ply,SBD,F
Girls,75.07,DQ,Destiny Andrade,Castroville Medina Valley,71.12,115.67,,,,Single-ply,SBD,F
Girls,82.33,1,Shelby Carrillo,Devine,79.02,158.76,63.5,136.08,358.34,Single-ply,SBD,F
Girls,82.33,2,Holli Morgan,Devine,78.11,145.15,79.38,131.54,356.07,Single-ply,SBD,F
Girls,82.33,3,Piper Bush,Center Point,79.2,140.61,65.77,124.74,331.12,Single-ply,SBD,F
Girls,82.33,4,Nina Ramon,Devine,79.83,140.61,65.77,117.93,324.32,Single-ply,SBD,F
Girls,82.33,5,Maria Martinez,La Pryor,75.84,115.67,58.97,108.86,283.5,Single-ply,SBD,F
Girls,82.33,6,Sabrina Rackley,Devine,76.48,106.59,47.63,104.33,258.55,Single-ply,SBD,F
Girls,82.33,7,Connie Viesca,Pearsall,75.57,106.59,38.56,102.06,247.21,Single-ply,SBD,F
Girls,82.33,8,Serena Monreal,Devine,79.2,74.84,36.29,95.25,206.38,Single-ply,SBD,F
Girls,82.33,9,Jalynn Felan,Castroville Medina Valley,77.75,77.11,38.56,70.31,185.97,Single-ply,SBD,F
Girls,82.33,DQ,Kayla Givens,Lytle,75.84,90.72,45.36,,,Single-ply,SBD,F
Girls,90.04,1,Leila Bradley,Center Point,85.18,131.54,65.77,115.67,312.98,Single-ply,SBD,F
Girls,90.04,2,Jacquelynn Delgado,Pleasanton,84.82,131.54,52.16,120.2,303.91,Single-ply,SBD,F
Girls,90.04,3,Avery Heimer,Floresville,84.37,124.74,58.97,108.86,292.57,Single-ply,SBD,F
Girls,90.04,4,N'shambe Burrus,San Antonio East Central,83.28,115.67,52.16,117.93,285.76,Single-ply,SBD,F
Girls,90.04,5,Kaetlin VanDong,Lytle,84.37,108.86,58.97,115.67,283.5,Single-ply,SBD,F
Girls,90.04,6,Nikayla Boiser,Castroville Medina Valley,86.45,86.18,56.7,99.79,242.67,Single-ply,SBD,F
Girls,90.04,7,Yazmine Garcia,Pearsall,88.81,99.79,47.63,90.72,238.14,Single-ply,SBD,F
Girls,90.04,8,Krislynn Taylor,Pleasanton,83.64,99.79,31.75,102.06,233.6,Single-ply,SBD,F
Girls,90.04,9,Esmerelda Hernandez,Jourdanton,85.37,83.91,45.36,102.06,231.33,Single-ply,SBD,F
Girls,90.04,10,Gretta Epperson,Pearsall,85.09,92.99,36.29,99.79,229.06,Single-ply,SBD,F
Girls,90.04,11,Irma Huizar,Poteet,89.9,70.31,45.36,79.38,195.04,Single-ply,SBD,F
Girls,90.04,DQ,Makenia Frausto,Lytle,84.46,127.01,56.7,,,Single-ply,SBD,F
Girls,100.02,1,Jessica Soto,Lytle,98.79,151.95,65.77,117.93,335.66,Single-ply,SBD,F
Girls,100.02,2,Angel Arguijo,Pleasanton,96.25,136.08,52.16,124.74,312.98,Single-ply,SBD,F
Girls,100.02,3,Ariana Rodriguez,Brackettville Brackett,94.62,129.27,45.36,102.06,276.69,Single-ply,SBD,F
Girls,100.02,4,Lily Trevino,Somerset,95.25,113.4,49.9,113.4,276.69,Single-ply,SBD,F
Girls,100.02,5,Corrina Carillo,Castroville Medina Valley,95.98,61.23,34.02,90.72,185.97,Single-ply,SBD,F
Girls,100.02+,1,Courtney Delgado,San Antonio East Central,115.48,197.31,88.45,174.63,460.4,Single-ply,SBD,F
Girls,100.02+,2,Ebony Cortez,Floresville,118.57,181.44,97.52,174.63,453.59,Single-ply,SBD,F
Girls,100.02+,3,Karlee Lyon,Center Point,107.59,165.56,81.65,145.15,392.36,Single-ply,SBD,F
Girls,100.02+,4,Kendra Perez,Pleasanton,115.85,174.63,70.31,136.08,381.02,Single-ply,SBD,F
Girls,100.02+,5,Lilia Delgado,La Pryor,154.95,138.35,79.38,136.08,353.8,Single-ply,SBD,F
Girls,100.02+,6,Jazmyn Balboa,Somerset,104.69,113.4,40.82,124.74,278.96,Single-ply,SBD,F
Girls,100.02+,7,Marissa Hernandez,Kenedy,113.67,99.79,45.36,111.13,256.28,Single-ply,SBD,F
Girls,100.02+,8,Kaitlyn Williams,Castroville Medina Valley,111.95,72.57,40.82,77.11,190.51,Single-ply,SBD,F
