BodyweightKg,Name,WeightClassKg,Squat1Kg,Squat2Kg,Squat3Kg,Best3SquatKg,Bench1Kg,Bench2Kg,Bench3Kg,Best3BenchKg,Deadlift1Kg,Deadlift2Kg,Deadlift3Kg,Best3DeadliftKg,TotalKg,Place,Event,Equipment,Sex,Division
89.8,Heimir Kjartansson,90,185,200,-210,200,-175,-185,185,185,240,-260,-260,240,625,1,SBD,Single-ply,M,Open
107.6,Jakob Snær Egilsson,110,220,250,-270,250,130,-135,,130,250,260,-270,260,640,2,SBD,Single-ply,M,Open
109.7,Bjarki Þór Sigurðsson,110,250,270,280,280,170,-175,,170,280,305,-315,305,755,1,SBD,Single-ply,M,Open
114.3,Vignir Unnsteinsson,125,-180,-180,-180,,120,130,-137.5,130,220,240,-245,240,,DQ,SBD,Single-ply,M,Open
112.8,Eggert Samúelsson,125,200,220,240,240,140,160,170,170,220,250,270,270,680,1,SBD,Single-ply,M,Open
122.4,Bjarki Elí Ólafsson,125,-275,-275,-275,,160,-170,175,175,300,320,-325,320,,DQ,SBD,Single-ply,M,Open
139.9,Úlfur Orri Pétursson,140,220,250,-270,250,125,150,-160,150,280,310,-330,310,710,1,SBD,Single-ply,M,Open
156,Benedikt Magnússon,140+,250,275,300,300,160,180,-200,180,300,340,-380,340,820,2,SBD,Wraps,M,Open
147.5,Ásbjörn Ólafsson,140+,300,325,-350,325,200,220,-230,220,280,320,330,330,875,1,SBD,Single-ply,M,Open
