Division,WeightClassKg,Place,Name,Team,BodyweightKg,Best3SquatKg,Best3BenchKg,Best3DeadliftKg,TotalKg,Equipment,Event,Sex
Girls,44.23,1,Yesenia Pena,Del Rio,43,113.4,58.97,99.79,272.16,Single-ply,SBD,F
Girls,44.23,2,Arianna Aguilar,Stockdale,40.1,81.65,36.29,86.18,204.12,Single-ply,SBD,F
Girls,44.23,3,Stephanie Zapater,San Antonio Southside,42.09,79.38,31.75,74.84,185.97,Single-ply,SBD,F
Girls,47.85,1,Nadya Valero,San Antonio Southside,47.63,122.47,56.7,122.47,301.64,Single-ply,SBD,F
Girls,47.85,2,Analee Uriegas,San Antonio Holy Cross,47.72,102.06,47.63,95.25,244.94,Single-ply,SBD,F
Girls,47.85,3,Alexis Martinez,Somerset,47.36,61.23,34.02,79.38,174.63,Single-ply,SBD,F
Girls,47.85,4,Selena Williams,Del Rio,45.63,63.5,29.48,72.57,165.56,Single-ply,SBD,F
Girls,47.85,5,Sabrina Mechlar,Castroville Medina Valley,47.4,56.7,24.95,65.77,147.42,Single-ply,SBD,F
Girls,51.94,1,Lizsette Rosado-Ortiz,San Antonio Brooks Academy,49.44,104.33,61.23,108.86,274.42,Single-ply,SBD,F
Girls,51.94,2,Elena Valdez,Karnes City,50.98,92.99,52.16,102.06,247.21,Single-ply,SBD,F
Girls,51.94,3,Demi Lopez,Karnes City,49.44,102.06,40.82,99.79,242.67,Single-ply,SBD,F
Girls,51.94,4,Abigail Favella,Stockdale,49.62,79.38,34.02,72.57,185.97,Single-ply,SBD,F
Girls,51.94,DQ,Jackie Flores,San Antonio Southside,51.71,,,,,Single-ply,SBD,F
Girls,51.94,DQ,Devyn De La Torre,San Antonio East Central,50.35,,,,,Single-ply,SBD,F
Girls,56.02,1,Patricia Lara,Karnes City,55.25,122.47,52.16,122.47,297.1,Single-ply,SBD,F
Girls,56.02,2,Bibiana Ceballos,San Antonio Southside,56.02,124.74,49.9,122.47,297.1,Single-ply,SBD,F
Girls,56.02,3,Vanesa Ceballos,San Antonio Southside,52.62,106.59,47.63,113.4,267.62,Single-ply,SBD,F
Girls,56.02,4,Erica Hewtty,Devine,54.79,99.79,52.16,95.25,247.21,Single-ply,SBD,F
Girls,56.02,5,Miranda Segura,Karnes City,55.34,97.52,40.82,106.59,244.94,Single-ply,SBD,F
Girls,56.02,6,Serenity Alaniz,Karnes City,53.89,97.52,38.56,106.59,242.67,Single-ply,SBD,F
Girls,56.02,7,Celine Samarripa,Devine,54.52,92.99,49.9,99.79,242.67,Single-ply,SBD,F
Girls,56.02,8,Tori Luce,Brackettville Brackett,55.25,83.91,43.09,97.52,224.53,Single-ply,SBD,F
Girls,56.02,9,Darian Leija,San Antonio East Central,55.7,68.04,43.09,88.45,199.58,Single-ply,SBD,F
Girls,60.1,1,April Botello,San Antonio Southside,60.06,149.69,79.38,154.22,383.29,Single-ply,SBD,F
Girls,60.1,2,Breanna Santos,San Antonio Holy Cross,57.61,129.27,56.7,120.2,306.17,Single-ply,SBD,F
Girls,60.1,3,Bryanna Brett,San Antonio East Central,56.43,99.79,52.16,122.47,274.42,Single-ply,SBD,F
Girls,60.1,4,Esperansa Jaso,Brackettville Brackett,59.51,88.45,52.16,106.59,247.21,Single-ply,SBD,F
Girls,60.1,5,Casey Mathis,Karnes City,58.33,88.45,45.36,111.13,244.94,Single-ply,SBD,F
Girls,60.1,6,Ivanna Contreras,San Antonio East Central,60.06,102.06,52.16,88.45,242.67,Single-ply,SBD,F
Girls,60.1,7,Jenna Ochoa,Karnes City,56.52,90.72,43.09,104.33,238.14,Single-ply,SBD,F
Girls,60.1,8,Jessica Ayala,Stockdale,58.51,68.04,40.82,81.65,190.51,Single-ply,SBD,F
Girls,60.1,9,Dellanie Flemming,Castroville Medina Valley,56.25,79.38,36.29,61.23,176.9,Single-ply,SBD,F
Girls,67.36,1,Nallely Gutierrez,San Antonio Brooks Academy,61.96,113.4,77.11,129.27,319.78,Single-ply,SBD,F
Girls,67.36,2,Victoria Gonzalez,San Antonio Holy Cross,64.86,113.4,47.63,129.27,290.3,Single-ply,SBD,F
Girls,67.36,3,Madison Luce,Brackettville Brackett,62.41,106.59,54.43,124.74,285.76,Single-ply,SBD,F
Girls,67.36,4,Kim Moron,San Antonio Southside,65.95,115.67,58.97,104.33,278.96,Single-ply,SBD,F
Girls,67.36,5,Kinley Liska,Karnes City,65.23,108.86,45.36,117.93,272.16,Single-ply,SBD,F
Girls,67.36,6,Emory Menchaca,Somerset,64.77,92.99,65.77,111.13,269.89,Single-ply,SBD,F
Girls,67.36,7,Ashley Robles,Devine,60.78,97.52,52.16,117.93,267.62,Single-ply,SBD,F
Girls,67.36,8,Mariah Gomez,Karnes City,62.37,97.52,43.09,115.67,256.28,Single-ply,SBD,F
Girls,67.36,9,Kiana Monreal,Devine,64.23,104.33,47.63,104.33,256.28,Single-ply,SBD,F
Girls,67.36,10,Paige Sheppard,Castroville Medina Valley,65.32,99.79,45.36,99.79,244.94,Single-ply,SBD,F
Girls,67.36,11,Madison Sanchez,Somerset,60.78,79.38,43.09,90.72,213.19,Single-ply,SBD,F
Girls,67.36,12,Danika Lopez,Poteet,63.14,86.18,40.82,79.38,206.38,Single-ply,SBD,F
Girls,67.36,13,Janevaeh Rodriquez,Castroville Medina Valley,61.51,68.04,38.56,90.72,197.31,Single-ply,SBD,F
Girls,67.36,14,Cora Christensen,Castroville Medina Valley,60.87,77.11,27.22,79.38,183.7,Single-ply,SBD,F
Girls,75.07,1,Mariah Romero,Devine,70.94,136.08,79.38,140.61,356.07,Single-ply,SBD,F
Girls,75.07,2,Ariella Zuniga,San Antonio East Central,75.02,142.88,63.5,131.54,337.93,Single-ply,SBD,F
Girls,75.07,3,Destiny Andrade,Castroville Medina Valley,73.03,142.88,68.04,124.74,335.66,Single-ply,SBD,F
Girls,75.07,4,Amanda Rivera,Poteet,69.49,136.08,54.43,127.01,317.51,Single-ply,SBD,F
Girls,75.07,5,Molly Fuller,Devine,71.76,122.47,61.23,122.47,306.17,Single-ply,SBD,F
Girls,75.07,6,Adrianna Landrey,San Antonio Brooks Academy,67.49,108.86,56.7,115.67,281.23,Single-ply,SBD,F
Girls,75.07,7,Rebecca Fowler,Devine,75.02,122.47,52.16,104.33,278.96,Single-ply,SBD,F
Girls,75.07,8,Karina Perez,San Antonio Brooks Academy,71.03,108.86,52.16,111.13,272.16,Single-ply,SBD,F
Girls,75.07,9,Loren Chavez,San Antonio Brooks Academy,71.58,99.79,68.04,97.52,265.35,Single-ply,SBD,F
Girls,75.07,10,Victoria Villarreal,Somerset,69.85,104.33,45.36,102.06,251.74,Single-ply,SBD,F
Girls,75.07,11,Juanita Vasquez,Brackettville Brackett,74.21,92.99,38.56,106.59,238.14,Single-ply,SBD,F
Girls,75.07,12,Bianca Jijon,Castroville Medina Valley,72.03,81.65,34.02,120.2,235.87,Single-ply,SBD,F
Girls,75.07,13,Madysen De Vorah,Somerset,74.62,58.97,56.7,77.11,192.78,Single-ply,SBD,F
Girls,75.07,14,Madaelyn Zaragoza,Del Rio,71.03,54.43,40.82,81.65,176.9,Single-ply,SBD,F
Girls,75.07,15,Leia Gomez,Castroville Medina Valley,72.85,72.57,38.56,63.5,174.63,Single-ply,SBD,F
Girls,75.07,DQ,Alexandra Mercardo,Castroville Medina Valley,69.04,,,,,Single-ply,SBD,F
Girls,82.33,1,Megan Martinez,San Antonio Brooks Academy,76.57,181.44,92.99,149.69,424.11,Single-ply,SBD,F
Girls,82.33,2,Fatima Herrera,San Antonio Southside,81.56,151.95,79.38,133.81,365.14,Single-ply,SBD,F
Girls,82.33,3,Victoria Trevino,San Antonio Southside,81.65,142.88,74.84,131.54,349.27,Single-ply,SBD,F
Girls,82.33,4,Sabrina Rackley,Devine,81.56,124.74,77.11,117.93,319.78,Single-ply,SBD,F
Girls,82.33,5,Serena Monreal,Devine,82.19,120.2,38.56,122.47,281.23,Single-ply,SBD,F
Girls,82.33,6,Kimberly Butcher,San Antonio Holy Cross,76.38,108.86,45.36,122.47,276.69,Single-ply,SBD,F
Girls,82.33,7,Natalia Ortiz,San Antonio Brooks Academy,78.93,102.06,54.43,117.93,274.42,Single-ply,SBD,F
Girls,82.33,8,Destiny Aleman,Somerset,79.11,108.86,61.23,104.33,274.42,Single-ply,SBD,F
Girls,82.33,9,Jalynn Felan,Castroville Medina Valley,79.38,92.99,45.36,104.33,242.67,Single-ply,SBD,F
Girls,82.33,DQ,Celeste Bustamante,San Antonio East Central,80.2,,,,,Single-ply,SBD,F
Girls,90.04,1,Jacqueline Montejano,Del Rio,87.63,151.95,79.38,167.83,399.16,Single-ply,SBD,F
Girls,90.04,2,Makailah Sarmiento,Hondo,87.32,120.2,63.5,117.93,301.64,Single-ply,SBD,F
Girls,100.02,1,Dominique Covarrubias,San Antonio Holy Cross,99.16,181.44,72.57,147.42,401.43,Single-ply,SBD,F
Girls,100.02,2,Kathrina Rangel,San Antonio Holy Cross,92.08,158.76,65.77,163.29,387.82,Single-ply,SBD,F
Girls,100.02,3,Samantha Heimer,San Antonio Brooks Academy,96.84,145.15,102.06,133.81,381.02,Single-ply,SBD,F
Girls,100.02,4,Irma Huizar,Poteet,91.44,79.38,54.43,92.99,226.8,Single-ply,SBD,F
Girls,100.02+,1,Diane Muniz,San Antonio Holy Cross,102.51,124.74,54.43,120.2,299.37,Single-ply,SBD,F
Girls,100.02+,2,Aria Metcalf,San Antonio East Central,111.58,83.91,54.43,136.08,274.42,Single-ply,SBD,F
Girls,100.02+,3,Kya Guerra,Del Rio,129,83.91,36.29,102.06,222.26,Single-ply,SBD,F
Girls,100.02+,4,Natalia Fernandez,Castroville Medina Valley,106.59,68.04,45.36,95.25,208.65,Single-ply,SBD,F
