Division,WeightClassKg,Place,Name,Team,BodyweightKg,Best3SquatKg,Best3BenchKg,Best3DeadliftKg,TotalKg,Equipment,Event,Sex
Boys,51.71,1,Alex Mena,Weslaco,51.71,142.88,77.11,156.49,376.48,Single-ply,SBD,M
Boys,51.71,2,Leo Alaniz,Brownsville Lopez,51.71,136.08,79.38,161.03,376.48,Single-ply,SBD,M
Boys,51.71,3,Rey Martinez,Santa Rosa,51.62,113.4,72.57,142.88,328.85,Single-ply,SBD,M
Boys,51.71,4,Tyler Salazar,Donna,51.71,113.4,79.38,129.27,322.05,Single-ply,SBD,M
Boys,51.71,5,Cody Acosta,PSJA,48.72,111.13,65.77,120.2,297.1,Single-ply,SBD,M
Boys,51.71,6,Josh Del Angel,McAllen Rowe,51.71,72.57,61.23,113.4,247.21,Single-ply,SBD,M
Boys,51.71,7,Rafael Cuellar,Brownsville Porter,51.71,81.65,54.43,102.06,238.14,Single-ply,SBD,M
Boys,55.79,1,Alex Berrones,Brownsville Lopez,52.16,147.42,102.06,201.85,451.32,Single-ply,SBD,M
Boys,55.79,2,Joseph Serino,Brownsville Hanna,54.88,136.08,92.99,142.88,371.95,Single-ply,SBD,M
Boys,55.79,3,Bradley Salinas,Brownsville Porter,53.71,140.61,77.11,151.95,369.68,Single-ply,SBD,M
Boys,55.79,4,Marco Pina,Donna North,55.52,140.61,81.65,138.35,360.61,Single-ply,SBD,M
Boys,55.79,5,Anthony Soriano,Brownsville Porter,52.71,115.67,63.5,138.35,317.51,Single-ply,SBD,M
Boys,55.79,6,Ivan Tafolla,Weslaco,52.71,124.74,61.23,129.27,315.25,Single-ply,SBD,M
Boys,55.79,7,Josue Marin,PSJA North,54.16,86.18,61.23,102.06,249.48,Single-ply,SBD,M
Boys,55.79,8,Ruben Saenz,McAllen Rowe,52.53,70.31,54.43,81.65,206.38,Single-ply,SBD,M
Boys,55.79,DQ,Christian Perez,Weslaco,55.16,,,,,Single-ply,SBD,M
Boys,55.79,DQ,Jose Quintero,Brownsville Lopez,55.7,133.81,,,,Single-ply,SBD,M
Boys,59.87,1,Abraham Zermeno,Donna North,59.33,163.29,99.79,174.63,437.72,Single-ply,SBD,M
Boys,59.87,2,Esmerejildo Cano,Edinburg,58.24,151.95,104.33,136.08,392.36,Single-ply,SBD,M
Boys,59.87,3,Angel Reyes,Brownsville Porter,59.42,129.27,74.84,176.9,381.02,Single-ply,SBD,M
Boys,59.87,4,Marcos Chavez,Lyford,56.06,142.88,74.84,158.76,376.48,Single-ply,SBD,M
Boys,59.87,5,Daniel Mireles,PSJA Memorial,59.69,136.08,77.11,117.93,331.12,Single-ply,SBD,M
Boys,59.87,6,Adrian Guerrero,Brownsville Porter,59.78,115.67,70.31,145.15,331.12,Single-ply,SBD,M
Boys,59.87,DQ,Brian Tejada,Edinburg,57.15,,,,,Single-ply,SBD,M
Boys,59.87,DQ,Jesus Cuevas,Edinburg,59.51,86.18,74.84,,,Single-ply,SBD,M
Boys,59.87,DQ,Joachim Almaguer,PSJA,59.15,142.88,,,,Single-ply,SBD,M
Boys,59.87,DQ,Miguel Tovar,Donna North,59.42,156.49,,,,Single-ply,SBD,M
Boys,67.13,1,Danny Diaz,Brownsville Lopez,66.22,244.94,147.42,238.14,630.49,Single-ply,SBD,M
Boys,67.13,2,Eric Tong,Brownsville Hanna,66.5,233.6,113.4,249.48,596.47,Single-ply,SBD,M
Boys,67.13,3,Juan Rivera,Los Fresnos,61.51,199.58,127.01,226.8,553.38,Single-ply,SBD,M
Boys,67.13,4,Freddy Gonzales,Weslaco East,64.95,183.7,122.47,192.78,498.95,Single-ply,SBD,M
Boys,67.13,5,Juan Tamez,Weslaco East,65.05,185.97,95.25,192.78,474,Single-ply,SBD,M
Boys,67.13,6,Mike Reyes,Brownsville Porter,66.22,165.56,115.67,192.78,474,Single-ply,SBD,M
Boys,67.13,7,Mike Gonzales,Weslaco East,62.32,156.49,102.06,181.44,439.98,Single-ply,SBD,M
Boys,67.13,8,Frank Estrada,PSJA Memorial,66.5,165.56,99.79,172.37,437.72,Single-ply,SBD,M
Boys,67.13,9,Angel Sandoval,Donna North,66.04,145.15,90.72,161.03,396.89,Single-ply,SBD,M
Boys,67.13,10,Nick Pena,Donna North,64.77,138.35,88.45,165.56,392.36,Single-ply,SBD,M
Boys,67.13,11,Artemio Balderas,PSJA Memorial,62.78,147.42,81.65,149.69,378.75,Single-ply,SBD,M
Boys,67.13,12,Juan Arredondo,McAllen Memorial,65.59,131.54,95.25,151.95,378.75,Single-ply,SBD,M
Boys,67.13,13,Domingo Grando,Brownsville Porter,64.86,117.93,92.99,165.56,376.48,Single-ply,SBD,M
Boys,67.13,14,Edgar Lozano,PSJA Memorial,67.13,124.74,90.72,142.88,358.34,Single-ply,SBD,M
Boys,67.13,15,ED Bermuda,Lyford,64.95,113.4,68.04,127.01,308.44,Single-ply,SBD,M
Boys,67.13,16,Elias Trevino,McAllen Memorial,65.68,113.4,74.84,113.4,301.64,Single-ply,SBD,M
Boys,67.13,17,Marco Martínez,Donna North,64.41,97.52,65.77,129.27,292.57,Single-ply,SBD,M
Boys,67.13,18,Daniel Estevanes,Weslaco,61.23,97.52,61.23,131.54,290.3,Single-ply,SBD,M
Boys,67.13,DQ,Jose Alvarado #2,Brownsville Lopez,60.15,,,,,Single-ply,SBD,M
Boys,74.84,1,Rogelio Pulido,Brownsville Lopez,72.03,249.48,120.2,258.55,628.23,Single-ply,SBD,M
Boys,74.84,2,Arturo Mancias,Brownsville Hanna,72.94,222.26,127.01,226.8,576.06,Single-ply,SBD,M
Boys,74.84,3,Jesse Rodriguez,PSJA Memorial,74.3,229.06,124.74,222.26,576.06,Single-ply,SBD,M
Boys,74.84,4,Ramses Ramos,Brownsville Lopez,67.49,210.92,111.13,215.46,537.51,Single-ply,SBD,M
Boys,74.84,5,Mike Adameit,Lyford,74.84,215.46,104.33,195.04,514.83,Single-ply,SBD,M
Boys,74.84,6,Frank Moreno,Lyford,73.94,188.24,106.59,204.12,498.95,Single-ply,SBD,M
Boys,74.84,7,Guillermo Estrada,Brownsville Porter,69.22,174.63,113.4,185.97,474,Single-ply,SBD,M
Boys,74.84,8,Allen Arredondo,Edinburg Economedes,73.39,161.03,104.33,195.04,460.4,Single-ply,SBD,M
Boys,74.84,9,George Almanza,Edinburg Economedes,74.66,183.7,88.45,183.7,455.86,Single-ply,SBD,M
Boys,74.84,10,Michael Medellin,Edinburg Economedes,67.86,167.83,92.99,183.7,444.52,Single-ply,SBD,M
Boys,74.84,11,John Acuna,Brownsville Porter,72.03,170.1,90.72,176.9,437.72,Single-ply,SBD,M
Boys,74.84,12,Roman Villarreal,McAllen Rowe,73.12,163.29,111.13,163.29,437.72,Single-ply,SBD,M
Boys,74.84,13,Jacob Rodriguez,PSJA North,74.57,161.03,104.33,172.37,437.72,Single-ply,SBD,M
Boys,74.84,14,Jacob Sanchez,Lyford,70.31,170.1,88.45,158.76,417.3,Single-ply,SBD,M
Boys,74.84,15,Valdemar Reyna,Donna,72.03,145.15,102.06,154.22,401.43,Single-ply,SBD,M
Boys,74.84,16,Marcelo Reyes,Weslaco,67.31,149.69,83.91,161.03,394.63,Single-ply,SBD,M
Boys,74.84,17,Antonio Gomez,Donna North,67.59,133.81,88.45,158.76,381.02,Single-ply,SBD,M
Boys,74.84,18,Aiden Silva,Lyford,72.39,129.27,102.06,113.4,344.73,Single-ply,SBD,M
Boys,74.84,19,Diego Silva,McAllen Rowe,68.4,124.74,79.38,136.08,340.19,Single-ply,SBD,M
Boys,74.84,20,Tyler Flores,PSJA,74.84,106.59,52.16,113.4,272.16,Single-ply,SBD,M
Boys,74.84,21,Israel Vazquez,Santa Rosa,70.4,74.84,47.63,106.59,229.06,Single-ply,SBD,M
Boys,74.84,22,Joshua Trevino,Santa Rosa,73.48,61.23,70.31,95.25,226.8,Single-ply,SBD,M
Boys,82.1,1,Roy Pedraza,Weslaco East,81.47,224.53,149.69,256.28,630.49,Single-ply,SBD,M
Boys,82.1,2,Fabian Rodriguez,Los Fresnos,80.65,226.8,140.61,240.4,607.81,Single-ply,SBD,M
Boys,82.1,3,Robert Garza,Donna,79.02,226.8,131.54,215.46,573.79,Single-ply,SBD,M
Boys,82.1,4,Luis Aguirre,Weslaco East,80.1,181.44,129.27,231.33,542.04,Single-ply,SBD,M
Boys,82.1,5,Israel Estrada,PSJA North,76.02,185.97,124.74,183.7,494.42,Single-ply,SBD,M
Boys,82.1,6,Ivan Davis,McAllen Memorial,82.01,179.17,111.13,195.04,485.34,Single-ply,SBD,M
Boys,82.1,7,Gio Martinez,Brownsville Porter,79.65,165.56,122.47,190.51,478.54,Single-ply,SBD,M
Boys,82.1,8,Adaberto Segura,Edinburg,80.1,172.37,111.13,190.51,474,Single-ply,SBD,M
Boys,82.1,9,Andrew Leija,PSJA North,80.1,170.1,108.86,192.78,471.74,Single-ply,SBD,M
Boys,82.1,10,Ethan Gonzales,Lyford,80.92,142.88,111.13,158.76,412.77,Single-ply,SBD,M
Boys,82.1,11,Justin Rodriguez,Santa Rosa,78.65,145.15,102.06,163.29,410.5,Single-ply,SBD,M
Boys,82.1,12,Juan Sanchez,Brownsville Porter,79.56,165.56,79.38,156.49,401.43,Single-ply,SBD,M
Boys,82.1,DQ,Matt Castillo,Donna,78.74,,,,,Single-ply,SBD,M
Boys,82.1,DQ,JC Pedraza,Weslaco,78.2,,,,,Single-ply,SBD,M
Boys,82.1,DQ,Michael Morales,McAllen Rowe,79.83,104.33,,,,Single-ply,SBD,M
Boys,89.81,1,Danny Ramos,Brownsville Lopez,88,274.42,142.88,238.14,655.44,Single-ply,SBD,M
Boys,89.81,2,Daniel Yanez,Donna,87.72,235.87,147.42,217.72,601.01,Single-ply,SBD,M
Boys,89.81,3,Alexis Olalde,Brownsville Lopez,87.72,229.06,124.74,235.87,589.67,Single-ply,SBD,M
Boys,89.81,4,Ramon Delgado,Brownsville Hanna,82.28,233.6,129.27,208.65,571.53,Single-ply,SBD,M
Boys,89.81,5,Robert Rivas,Brownsville Porter,85.73,208.65,127.01,219.99,555.65,Single-ply,SBD,M
Boys,89.81,6,Michael Gonzalez,Weslaco,83.37,183.7,120.2,183.7,487.61,Single-ply,SBD,M
Boys,89.81,7,Edgar Arevalo,Edinburg,83.64,156.49,117.93,197.31,471.74,Single-ply,SBD,M
Boys,89.81,8,Nathan Hernandez,McAllen Rowe,89.18,163.29,115.67,190.51,469.47,Single-ply,SBD,M
Boys,89.81,9,Jovany Mendez,Lyford,86.36,167.83,113.4,158.76,439.98,Single-ply,SBD,M
Boys,89.81,10,Darren Earhart,Edinburg Economedes,86.45,154.22,113.4,158.76,426.38,Single-ply,SBD,M
Boys,89.81,11,Jesus Quintana,PSJA Memorial,89.81,170.1,97.52,158.76,426.38,Single-ply,SBD,M
Boys,89.81,12,Mark Sanchez,Brownsville Porter,88.99,163.29,68.04,165.56,396.89,Single-ply,SBD,M
Boys,89.81,13,AJ Padron,PSJA,87.36,124.74,92.99,136.08,353.8,Single-ply,SBD,M
Boys,89.81,DQ,Gilberto Vazaldua,PSJA,82.92,,,,,Single-ply,SBD,M
Boys,89.81,DQ,Henry Rocha,Lyford,86,,,,,Single-ply,SBD,M
Boys,89.81,DQ,Nathan Silva,Brownsville Hanna,88.36,224.53,,,,Single-ply,SBD,M
Boys,89.81,DQ,Eddie Garza,Donna,83.46,,,,,Single-ply,SBD,M
Boys,99.79,1,Israel Alfaro,Weslaco East,99.52,249.48,174.63,244.94,669.05,Single-ply,SBD,M
Boys,99.79,2,Leo Gonzalez,Brownsville Hanna,92.44,219.99,131.54,249.48,601.01,Single-ply,SBD,M
Boys,99.79,3,Ricky Arreola,Brownsville Hanna,98.43,233.6,149.69,192.78,576.06,Single-ply,SBD,M
Boys,99.79,4,David Decanini #2,Weslaco East,92.35,215.46,133.81,208.65,557.92,Single-ply,SBD,M
Boys,99.79,5,Noah Cisernos,McAllen Memorial,98.43,206.38,142.88,204.12,553.38,Single-ply,SBD,M
Boys,99.79,6,Nicolas Bazan,McAllen Memorial,97.61,181.44,142.88,183.7,508.02,Single-ply,SBD,M
Boys,99.79,7,Juan Cuellar,Edinburg,90.63,190.51,131.54,183.7,505.76,Single-ply,SBD,M
Boys,99.79,8,Lee Lozano,Brownsville Porter,91.99,195.04,104.33,197.31,496.68,Single-ply,SBD,M
Boys,99.79,9,Boxer Gomez,Edinburg Economedes,90.36,165.56,111.13,217.72,494.42,Single-ply,SBD,M
Boys,99.79,10,Eddie Galvan,Brownsville Hanna,96.8,192.78,117.93,183.7,494.42,Single-ply,SBD,M
Boys,99.79,11,Carlos Martinez,PSJA,93.26,167.83,127.01,183.7,478.54,Single-ply,SBD,M
Boys,99.79,12,Marcelino Robledo,Edinburg,97.89,183.7,122.47,161.03,467.2,Single-ply,SBD,M
Boys,99.79,13,Orlando Huerta,PSJA,91.63,176.9,113.4,172.37,462.66,Single-ply,SBD,M
Boys,99.79,14,Joey De Leon,Weslaco,97.7,170.1,124.74,165.56,460.4,Single-ply,SBD,M
Boys,99.79,15,Javier Reyna,Weslaco,98.79,183.7,111.13,158.76,453.59,Single-ply,SBD,M
Boys,99.79,16,Caleb Zerrato,PSJA Memorial,96.89,165.56,88.45,188.24,442.25,Single-ply,SBD,M
Boys,99.79,17,Severo Cruz,Edinburg Economedes,94.8,142.88,106.59,181.44,430.91,Single-ply,SBD,M
Boys,99.79,18,Christian Badillo,Santa Rosa,94.89,145.15,88.45,188.24,421.84,Single-ply,SBD,M
Boys,99.79,19,Sergio Valdes,McAllen Rowe,99.52,142.88,97.52,170.1,410.5,Single-ply,SBD,M
Boys,99.79,20,Roger Juarez,PSJA,95.07,151.95,102.06,133.81,387.82,Single-ply,SBD,M
Boys,99.79,21,Victor Torres,Santa Rosa,93.89,92.99,74.84,88.45,256.28,Single-ply,SBD,M
Boys,99.79,DQ,Edson Calderon,Donna,91.17,204.12,138.35,,,Single-ply,SBD,M
Boys,99.79,DQ,Miguel Perales,Donna North,99.79,183.7,102.06,,,Single-ply,SBD,M
Boys,99.79,DQ,Ricky Cardoza,Weslaco East,99.7,217.72,174.63,,,Single-ply,SBD,M
Boys,99.79,DQ,Carlos Narvaez,PSJA,97.25,174.63,106.59,,,Single-ply,SBD,M
Boys,109.77,1,Juan Martinez,Donna North,107.23,272.16,156.49,272.16,700.8,Single-ply,SBD,M
Boys,109.77,2,Freddy Martinez,Los Fresnos,109.41,260.82,181.44,226.8,669.05,Single-ply,SBD,M
Boys,109.77,3,Jonathan Grimaldo,Donna,106.23,251.74,161.03,244.94,657.71,Single-ply,SBD,M
Boys,109.77,4,Andres Enriquez,PSJA,107.14,272.16,161.03,208.65,641.83,Single-ply,SBD,M
Boys,109.77,5,Angel Almanza,Weslaco East,108.77,233.6,149.69,229.06,612.35,Single-ply,SBD,M
Boys,109.77,6,Diego Lopez,PSJA North,109.68,240.4,136.08,215.46,591.94,Single-ply,SBD,M
Boys,109.77,7,Pat Esquivel,Edinburg Economedes,103.24,215.46,108.86,226.8,551.11,Single-ply,SBD,M
Boys,109.77,8,Andy Zuniga,PSJA North,109.59,215.46,136.08,199.58,551.11,Single-ply,SBD,M
Boys,109.77,9,Rafa Pena,Brownsville Hanna,100.61,206.38,113.4,215.46,535.24,Single-ply,SBD,M
Boys,109.77,10,Bryan Cardenas,Donna,108.5,195.04,131.54,204.12,530.7,Single-ply,SBD,M
Boys,109.77,11,Alan Hernandez #2,McAllen Rowe,109.59,179.17,122.47,197.31,498.95,Single-ply,SBD,M
Boys,109.77,12,Juan Diaz,Edinburg,102.78,192.78,122.47,179.17,494.42,Single-ply,SBD,M
Boys,109.77,13,Israel Cerda,Donna North,105.87,188.24,104.33,190.51,483.08,Single-ply,SBD,M
Boys,109.77,14,Alfredo Valdez,Edinburg,103.96,174.63,115.67,188.24,478.54,Single-ply,SBD,M
Boys,109.77,15,Josh Hernandez,Donna,103.06,183.7,106.59,174.63,464.93,Single-ply,SBD,M
Boys,109.77,16,Victor Garza,Santa Rosa,109.77,163.29,104.33,188.24,455.86,Single-ply,SBD,M
Boys,109.77,17,Omar Tapia,McAllen Memorial,106.87,151.95,129.27,165.56,446.79,Single-ply,SBD,M
Boys,109.77,18,Lorenzo Ortiz,Santa Rosa,100.43,154.22,97.52,156.49,408.23,Single-ply,SBD,M
Boys,109.77,19,Hiram Chavez,McAllen Rowe,102.42,127.01,90.72,138.35,356.07,Single-ply,SBD,M
Boys,109.77,20,Adrian Moreno,Santa Rosa,100.7,88.45,74.84,88.45,251.74,Single-ply,SBD,M
Boys,109.77,DQ,Lee Roy Carrizalez,PSJA Memorial,108.95,181.44,,151.95,,Single-ply,SBD,M
Boys,124.74,1,Johnathan Banda,Weslaco East,122.11,272.16,158.76,272.16,703.07,Single-ply,SBD,M
Boys,124.74,2,Adrian Arredondo,Brownsville Hanna,119.2,251.74,154.22,213.19,619.15,Single-ply,SBD,M
Boys,124.74,3,Teodoro Garcia,McAllen Memorial,116.21,249.48,170.1,195.04,614.62,Single-ply,SBD,M
Boys,124.74,4,Andre Gonzalez,Brownsville Hanna,122.29,238.14,124.74,238.14,601.01,Single-ply,SBD,M
Boys,124.74,5,JJ Vallejo,Donna,119.2,226.8,127.01,233.6,587.4,Single-ply,SBD,M
Boys,124.74,6,Armando De Leon,PSJA,121.65,229.06,127.01,226.8,582.87,Single-ply,SBD,M
Boys,124.74,7,Robert De Leon,Lyford,112.04,233.6,117.93,204.12,555.65,Single-ply,SBD,M
Boys,124.74,8,Fabian Castillo,Edinburg Economedes,118.3,210.92,129.27,208.65,548.85,Single-ply,SBD,M
Boys,124.74,9,JP Torres,Donna,115.03,226.8,117.93,183.7,528.44,Single-ply,SBD,M
Boys,124.74,10,Gus Silva,Donna,116.94,204.12,129.27,183.7,517.1,Single-ply,SBD,M
Boys,124.74,11,Marco Garza,Edinburg Economedes,114.49,199.58,108.86,204.12,512.56,Single-ply,SBD,M
Boys,124.74,12,Sam Olivarez,Santa Rosa,116.48,204.12,102.06,192.78,498.95,Single-ply,SBD,M
Boys,124.74,DQ,Jorge Cano,PSJA Memorial,123.38,217.72,124.74,,,Single-ply,SBD,M
Boys,124.74,DQ,Jose Carrillo,Edinburg,123.74,,,,,Single-ply,SBD,M
Boys,124.74+,1,Josh Trevino,Brownsville Lopez,138.98,285.76,165.56,260.82,712.14,Single-ply,SBD,M
Boys,124.74+,2,Michael Vega,McAllen Rowe,126.37,242.67,149.69,197.31,589.67,Single-ply,SBD,M
Boys,124.74+,3,Andres Garcia,Weslaco East,135.53,226.8,158.76,195.04,580.6,Single-ply,SBD,M
Boys,124.74+,4,Robert Perez,Weslaco,147.96,210.92,161.03,174.63,546.58,Single-ply,SBD,M
Boys,124.74+,5,Marco Fuentes,McAllen Memorial,128.82,172.37,154.22,147.42,474,Single-ply,SBD,M
Boys,124.74+,6,Abisai De Los Reyes,McAllen Memorial,133.72,133.81,136.08,154.22,424.11,Single-ply,SBD,M
Boys,124.74+,DQ,Tommy Hernandez,PSJA Memorial,127.64,190.51,117.93,,,Single-ply,SBD,M
Boys,124.74+,DQ,Isaac Olvera,Donna North,136.71,,,,,Single-ply,SBD,M
