Division,WeightClassKg,Place,Name,Team,BodyweightKg,Best3SquatKg,Best3BenchKg,Best3DeadliftKg,TotalKg,Equipment,Event,Sex
Boys,51.71,1,Max Ford,Dallas Jesuit,49.9,49.9,40.82,77.11,167.83,Single-ply,SBD,M
Boys,55.79,1,Dan O'Brien,Dallas Jesuit,55.25,113.4,61.23,104.33,278.96,Single-ply,SBD,M
Boys,55.79,2,Zaki Farooqui,Oakridge School,55.2,108.86,54.43,113.4,276.69,Single-ply,SBD,M
Boys,55.79,3,Colin Kittleson,Dallas Jesuit,54.93,104.33,54.43,113.4,272.16,Single-ply,SBD,M
Boys,55.79,4,Zion Tidwell,Hurst Bell,53.12,90.72,52.16,104.33,247.21,Single-ply,SBD,M
Boys,55.79,5,Joseph Baeza,Oakridge School,53.75,83.91,49.9,113.4,247.21,Single-ply,SBD,M
Boys,55.79,6,Patricio Chapa,Dallas Jesuit,53.57,83.91,47.63,102.06,233.6,Single-ply,SBD,M
Boys,55.79,7,Landon Grazier,Dallas Jesuit,53.84,68.04,40.82,74.84,183.7,Single-ply,SBD,M
Boys,59.87,1,Will Nickols,Dallas Jesuit,58.74,147.42,92.99,147.42,387.82,Single-ply,SBD,M
Boys,59.87,2,Cole Lenzen,Dallas Jesuit,58.65,115.67,65.77,154.22,335.66,Single-ply,SBD,M
Boys,59.87,3,Alex Luong,Oakridge School,58.79,97.52,56.7,115.67,269.89,Single-ply,SBD,M
Boys,67.13,1,Chance Cruz,Argyle,64.41,176.9,90.72,195.04,462.66,Single-ply,SBD,M
Boys,67.13,2,Emmet Halm,Dallas Jesuit,66.13,147.42,106.59,183.7,437.72,Single-ply,SBD,M
Boys,67.13,3,Ricardo Martinez,Hillsboro,67.13,149.69,81.65,170.1,401.43,Single-ply,SBD,M
Boys,67.13,4,Renaud Mata,Hurst Bell,65.09,127.01,92.99,142.88,362.87,Single-ply,SBD,M
Boys,67.13,5,Marcus Gonzales,Hillsboro,65.36,122.47,74.84,163.29,360.61,Single-ply,SBD,M
Boys,67.13,6,Josh Wilson,Oakridge School,66.09,113.4,58.97,124.74,297.1,Single-ply,SBD,M
Boys,67.13,7,Thomas White,Oakridge School,66.09,104.33,54.43,117.93,276.69,Single-ply,SBD,M
Boys,67.13,8,Henry Robinson,Argyle,66.09,122.47,,154.22,276.69,Single-ply,SD,M
Boys,67.13,9,Luke Wilson,Oakridge School,65.82,90.72,,136.08,226.8,Single-ply,SD,M
Boys,74.84,1,Brock Martin,Argyle,73.89,233.6,131.54,233.6,598.74,Single-ply,SBD,M
Boys,74.84,2,Marcos Meza,Hillsboro,70.49,204.12,92.99,183.7,480.81,Single-ply,SBD,M
Boys,74.84,3,Tj Bellah,Oakridge School,70.67,185.97,86.18,195.04,467.2,Single-ply,SBD,M
Boys,74.84,4,Desmond Thomas,Hurst Bell,74.84,158.76,92.99,172.37,424.11,Single-ply,SBD,M
Boys,74.84,5,Jalen Hollins,Cedar Hill,73.71,163.29,92.99,165.56,421.84,Single-ply,SBD,M
Boys,74.84,6,Cameron Johnson,Hurst Bell,73.98,136.08,97.52,170.1,403.7,Single-ply,SBD,M
Boys,74.84,7,Mark Castle,Argyle,73.53,147.42,74.84,176.9,399.16,Single-ply,SBD,M
Boys,74.84,8,Eliya Khajeie,Oakridge School,74.07,158.76,74.84,161.03,394.63,Single-ply,SBD,M
Boys,74.84,9,Ashton Buxkemper,Hillsboro,68.9,136.08,92.99,163.29,392.36,Single-ply,SBD,M
Boys,74.84,10,Jj Tellez,Dallas Jesuit,72.98,154.22,74.84,161.03,390.09,Single-ply,SBD,M
Boys,74.84,11,James Night,Plano John Paul II,73.39,142.88,90.72,142.88,376.48,Single-ply,SBD,M
Boys,74.84,12,Gabriel DeConto,Dallas Jesuit,74.07,147.42,65.77,156.49,369.68,Single-ply,SBD,M
Boys,74.84,13,Dylan Widup,Oakridge School,73.3,102.06,58.97,142.88,303.91,Single-ply,SBD,M
Boys,74.84,14,Jonathan Trimble,Oakridge School,69.67,88.45,61.23,136.08,285.76,Single-ply,SBD,M
Boys,74.84,15,Austin Nguyen,Oakridge School,74.57,102.06,45.36,113.4,260.82,Single-ply,SBD,M
Boys,74.84,DQ,Sergio Murillo,Plano John Paul II,70.94,,,,,Single-ply,SBD,M
Boys,82.1,1,Naton Edwards,Argyle,80.88,183.7,122.47,233.6,539.77,Single-ply,SBD,M
Boys,82.1,2,Cameron Hill,Cedar Hill,82.01,226.8,115.67,183.7,526.17,Single-ply,SBD,M
Boys,82.1,3,John McCoy,Northwest Nelson,77.66,183.7,99.79,215.46,498.95,Single-ply,SBD,M
Boys,82.1,4,Anthony Lu,Oakridge School,81.1,183.7,111.13,204.12,498.95,Single-ply,SBD,M
Boys,82.1,5,David Ritter,Dallas Jesuit,80.15,174.63,90.72,215.46,480.81,Single-ply,SBD,M
Boys,82.1,6,Nikko Solis,Hurst Bell,78.06,192.78,99.79,181.44,474,Single-ply,SBD,M
Boys,82.1,7,Joseph Bruskmiller,Dallas Jesuit,79.74,151.95,83.91,190.51,426.38,Single-ply,SBD,M
Boys,82.1,8,Lawrence Thiele,Plano John Paul II,81.56,151.95,97.52,165.56,415.04,Single-ply,SBD,M
Boys,82.1,9,Jalen Clark,Cedar Hill,77.2,145.15,86.18,161.03,392.36,Single-ply,SBD,M
Boys,82.1,10,Jerry Huang,Oakridge School,80.88,142.88,81.65,151.95,376.48,Single-ply,SBD,M
Boys,82.1,11,Jorge Soria,Hillsboro,80.06,151.95,88.45,127.01,367.41,Single-ply,SBD,M
Boys,82.1,12,Carter Benton,Plano John Paul II,78.06,136.08,70.31,151.95,358.34,Single-ply,SBD,M
Boys,82.1,13,Luke Sullivan,Dallas Jesuit,79.92,133.81,72.57,149.69,356.07,Single-ply,SBD,M
Boys,89.81,1,Rolando Ramirez,Hillsboro,89.04,235.87,145.15,219.99,601.01,Single-ply,SBD,M
Boys,89.81,2,Dailyn Fuller,Cedar Hill,89.72,206.38,117.93,215.46,539.77,Single-ply,SBD,M
Boys,89.81,3,Michael Flores,Hillsboro,87.82,226.8,136.08,172.37,535.24,Single-ply,SBD,M
Boys,89.81,4,Cheyenne Ayers,Hurst Bell,87.23,192.78,117.93,183.7,494.42,Single-ply,SBD,M
Boys,89.81,5,Ricardo Valentin,Hurst Bell,87.23,190.51,111.13,174.63,476.27,Single-ply,SBD,M
Boys,89.81,6,Jackson Daniel,Dallas Jesuit,84.1,181.44,88.45,204.12,474,Single-ply,SBD,M
Boys,89.81,7,Koby Geter,Cedar Hill,87.86,174.63,99.79,197.31,471.74,Single-ply,SBD,M
Boys,89.81,8,Hector Sanchez,Hillsboro,86.36,188.24,113.4,145.15,446.79,Single-ply,SBD,M
Boys,89.81,9,Cole Record,Plano John Paul II,89.54,147.42,88.45,174.63,410.5,Single-ply,SBD,M
Boys,89.81,10,James Burnett,Oakridge School,85.09,142.88,88.45,163.29,394.63,Single-ply,SBD,M
Boys,89.81,11,Lianr Carroll,Plano John Paul II,88.59,122.47,79.38,133.81,335.66,Single-ply,SBD,M
Boys,89.81,12,Tj Arnondin,Oakridge School,87.32,97.52,54.43,113.4,265.35,Single-ply,SBD,M
Boys,89.81,13,Tyran Byrd,Cedar Hill,84.87,,86.18,174.63,260.82,Single-ply,BD,M
Boys,99.79,1,Zavondric Hill,Cedar Hill,92.9,183.7,102.06,201.85,487.61,Single-ply,SBD,M
Boys,99.79,2,Peter Lilomaiava,Hurst Bell,99.11,183.7,111.13,185.97,480.81,Single-ply,SBD,M
Boys,99.79,3,Brandon Tucker,Plano John Paul II,90.54,151.95,106.59,176.9,435.45,Single-ply,SBD,M
Boys,99.79,4,Austin Criswell,Argyle,99.47,163.29,81.65,190.51,435.45,Single-ply,SBD,M
Boys,99.79,5,Garrett Stewart,Oakridge School,98.43,136.08,70.31,170.1,376.48,Single-ply,SBD,M
Boys,99.79,6,Jack Premo,Plano John Paul II,93.35,115.67,74.84,149.69,340.19,Single-ply,SBD,M
Boys,99.79,7,Josh Levitz,Oakridge School,92.76,127.01,54.43,142.88,324.32,Single-ply,SBD,M
Boys,99.79,8,Gavin Romo,Oakridge School,91.9,102.06,49.9,133.81,285.76,Single-ply,SBD,M
Boys,109.77,1,Gabe Morales,Dallas Jesuit,108.09,199.58,124.74,204.12,528.44,Single-ply,SBD,M
Boys,109.77,2,Mack Premo,Plano John Paul II,105.96,149.69,102.06,181.44,433.18,Single-ply,SBD,M
Boys,109.77,3,Caden Kitler,Plano John Paul II,107.91,142.88,95.25,165.56,403.7,Single-ply,SBD,M
Boys,109.77,4,Adam Brandt,Oakridge School,105.46,147.42,65.77,154.22,367.41,Single-ply,SBD,M
Boys,124.74,1,Rashawn Johnson,Hurst Bell,121.93,260.82,149.69,251.74,662.24,Single-ply,SBD,M
Boys,124.74,2,Brandon Tran,Hurst Bell,123.74,260.82,136.08,240.4,637.3,Single-ply,SBD,M
Boys,124.74,3,Branson Hickman,Dallas Jesuit,117.84,226.8,156.49,206.38,589.67,Single-ply,SBD,M
Boys,124.74,4,Kurtis Buckley,Cedar Hill,114.44,219.99,136.08,201.85,557.92,Single-ply,SBD,M
Boys,124.74,5,Jahaziel Compean,Hillsboro,121.97,195.04,113.4,208.65,517.1,Single-ply,SBD,M
Boys,124.74,6,Xavier Ford,Plano John Paul II,120.02,190.51,133.81,190.51,514.83,Single-ply,SBD,M
Boys,124.74,7,Ayomide Johnson,Cedar Hill,116.3,183.7,129.27,181.44,494.42,Single-ply,SBD,M
Boys,124.74,8,Adrian Rose,Hillsboro,110.27,179.17,,149.69,328.85,Single-ply,SD,M
Boys,124.74+,1,Donalvon Shaw,Plano John Paul II,138.48,235.87,127.01,238.14,601.01,Single-ply,SBD,M
Boys,124.74+,2,Bill Overton,Denton Guyer,137.76,254.01,133.81,204.12,591.94,Single-ply,SBD,M
Boys,124.74+,3,David Morales,Dallas Jesuit,130.82,217.72,136.08,226.8,580.6,Single-ply,SBD,M
Boys,124.74+,4,Josh Hicks,Argyle,125.33,235.87,131.54,199.58,566.99,Single-ply,SBD,M
Boys,124.74+,5,Kevin Harris,Plano John Paul II,133.36,192.78,149.69,172.37,514.83,Single-ply,SBD,M
Boys,124.74+,6,Seth Bynum-Graham,Hillsboro,179.4,181.44,138.35,174.63,494.42,Single-ply,SBD,M
Boys,124.74+,7,Trent Tidwell,Hillsboro,140.07,170.1,117.93,181.44,469.47,Single-ply,SBD,M
Boys,,NS,Johndon Blake,Plano John Paul II,,,,,,Single-ply,SBD,M
Boys,,NS,Marcel Gardner,Cedar Hill,,,,,,Single-ply,SBD,M
Boys,,NS,Geroge Ratliff,Dallas Jesuit,,,,,,Single-ply,SBD,M
Boys,,NS,Nathan Brown,Plano John Paul II,,,,,,Single-ply,SBD,M
