Division,WeightClassKg,Place,Name,Team,BodyweightKg,Best3SquatKg,Best3BenchKg,Best3DeadliftKg,TotalKg,Equipment,Event,Sex
Boys,51.71,1,Tyler Morrow,Copperas Cove,49.08,124.74,61.23,147.42,333.39,Single-ply,SBD,M
Boys,51.71,2,D'Anthony Jackson,Belton,41.82,92.99,56.7,108.86,258.55,Single-ply,SBD,M
Boys,55.79,1,Max Castelli,Belton,54.79,163.29,81.65,176.9,421.84,Single-ply,SBD,M
Boys,55.79,DQ,Richard Willess,Belton,54.52,,,,,Single-ply,SBD,M
Boys,59.87,1,Jeremy Powell,Waco,59.24,142.88,88.45,151.95,383.29,Single-ply,SBD,M
Boys,59.87,2,Ladavon Springs-Hargrove,Waco,59.6,136.08,83.91,156.49,376.48,Single-ply,SBD,M
Boys,59.87,4,Angel Torres,Temple,59.47,133.81,92.99,147.42,374.21,Single-ply,SBD,M
Boys,59.87,5,Armando Barry,Waco,59.15,133.81,70.31,154.22,358.34,Single-ply,SBD,M
Boys,67.13,1,Gerrard London,Waco Midway,67.13,181.44,90.72,188.24,460.4,Single-ply,SBD,M
Boys,67.13,2,Fabian Solomon,Cameron Yoe,66.04,179.17,97.52,181.44,458.13,Single-ply,SBD,M
Boys,67.13,3,Thomas McVade,Temple,66.72,154.22,108.86,195.04,458.13,Single-ply,SBD,M
Boys,67.13,4,Patrick Frazho,Belton,64.77,170.1,104.33,181.44,455.86,Single-ply,SBD,M
Boys,67.13,6,Kevon Burnett,Waco,66.77,147.42,88.45,154.22,390.09,Single-ply,SBD,M
Boys,74.84,1,Angelo Sibile,Belton,74.03,213.19,136.08,199.58,548.85,Single-ply,SBD,M
Boys,74.84,2,Samuel Garcia,Belton,72.85,190.51,124.74,222.26,537.51,Single-ply,SBD,M
Boys,74.84,4,Samari Howard,Temple,72.67,154.22,92.99,181.44,428.64,Single-ply,SBD,M
Boys,74.84,5,Travis Stoffrahn,Copperas Cove,71.58,154.22,72.57,190.51,417.3,Single-ply,SBD,M
Boys,74.84,6,Tarin Morrow,Copperas Cove,69.31,156.49,83.91,174.63,415.04,Single-ply,SBD,M
Boys,74.84,7,Jalen Robinson,Temple,70.94,167.83,95.25,151.95,415.04,Single-ply,SBD,M
Boys,74.84,8,Travaris Sullivan,Temple,71.58,140.61,90.72,158.76,390.09,Single-ply,SBD,M
Boys,74.84,9,Joseph Barbo,Cameron Yoe,74.12,136.08,90.72,142.88,369.68,Single-ply,SBD,M
Boys,82.1,1,Craig Dawson,Waco Midway,81.74,254.01,142.88,213.19,610.08,Single-ply,SBD,M
Boys,82.1,2,Devyn Raper,Belton,79.11,215.46,138.35,229.06,582.87,Single-ply,SBD,M
Boys,82.1,3,Tyler Burt,Cameron Yoe,79.11,197.31,127.01,195.04,519.36,Single-ply,SBD,M
Boys,82.1,4,Joey Harrison,Copperas Cove,82.01,163.29,90.72,204.12,458.13,Single-ply,SBD,M
Boys,82.1,7,Trenton Nix,Cameron Yoe,81.74,154.22,108.86,142.88,405.97,Single-ply,SBD,M
Boys,89.81,1,James Fullbright,Waco Midway,87.09,244.94,145.15,254.01,644.1,Single-ply,SBD,M
Boys,89.81,2,Keaton Kaulfus,Belton,87,204.12,138.35,206.38,548.85,Single-ply,SBD,M
Boys,89.81,3,Hunter Berry,Copperas Cove,88.45,158.76,104.33,217.72,480.81,Single-ply,SBD,M
Boys,89.81,5,Kani Bowers,Temple,86.82,156.49,122.47,181.44,460.4,Single-ply,SBD,M
Boys,89.81,DQ,Patrick Tucker,Waco,89.36,195.04,,,,Single-ply,SBD,M
Boys,99.79,1,Devin Martinez,Belton,99.79,249.48,149.69,233.6,632.76,Single-ply,SBD,M
Boys,99.79,2,Dai'Shawn Fisher,Waco,96.43,238.14,124.74,238.14,601.01,Single-ply,SBD,M
Boys,99.79,3,Jawaun Howard,Belton,97.79,226.8,161.03,213.19,601.01,Single-ply,SBD,M
Boys,99.79,5,Eduardo Gil,Cameron Yoe,95.8,219.99,145.15,176.9,542.04,Single-ply,SBD,M
Boys,99.79,6,Cade Mars,Cameron Yoe,99.79,206.38,115.67,204.12,526.17,Single-ply,SBD,M
Boys,99.79,8,Jeremy Seymore,Cameron Yoe,92.35,183.7,106.59,197.31,487.61,Single-ply,SBD,M
Boys,99.79,9,Timothy Deleon,Waco,92.08,154.22,95.25,167.83,417.3,Single-ply,SBD,M
Boys,109.77,1,Zac Hoyle,Copperas Cove,103.24,204.12,138.35,233.6,576.06,Single-ply,SBD,M
Boys,109.77,2,Sammy Rodriguez,Temple,106.32,215.46,136.08,224.53,576.06,Single-ply,SBD,M
Boys,109.77,3,Carson Byrd,Waco Midway,108.95,188.24,129.27,213.19,530.7,Single-ply,SBD,M
Boys,109.77,4,Caleb Davis,Waco Midway,104.14,190.51,127.01,208.65,526.17,Single-ply,SBD,M
Boys,109.77,5,Winston Vasquez,Copperas Cove,106.96,213.19,108.86,195.04,517.1,Single-ply,SBD,M
Boys,109.77,8,Xavier Matchett,Cameron Yoe,105.23,204.12,90.72,190.51,485.34,Single-ply,SBD,M
Boys,109.77,DQ,Willie Carter,Waco,109.09,158.76,102.06,,,Single-ply,SBD,M
Boys,124.74,1,Sidney Sherwood,Belton,124.74,306.17,195.04,201.85,703.07,Single-ply,SBD,M
Boys,124.74,2,John Gorrell,Waco Midway,116.75,238.14,158.76,226.8,623.69,Single-ply,SBD,M
Boys,124.74,3,Dominic Lewis,Cameron Yoe,110.31,204.12,142.88,226.8,573.79,Single-ply,SBD,M
Boys,124.74,4,Braden Endlsey,Waco Midway,111.4,208.65,145.15,217.72,571.53,Single-ply,SBD,M
Boys,124.74,6,Noah Castillo,Temple,117.12,204.12,147.42,195.04,546.58,Single-ply,SBD,M
Boys,124.74,7,Will Scott,Cameron Yoe,124.47,204.12,122.47,197.31,523.9,Single-ply,SBD,M
Boys,124.74,9,Eric Morris,Copperas Cove,124.74,204.12,104.33,206.38,514.83,Single-ply,SBD,M
Boys,124.74,12,Zach Montgomery,Waco Midway,113.04,142.88,113.4,181.44,437.72,Single-ply,SBD,M
Boys,124.74+,1,Aaron Shanahan,Copperas Cove,147.87,294.84,147.42,283.5,725.75,Single-ply,SBD,M
Boys,124.74+,2,Phillip Haskins,Temple,143.88,281.23,167.83,247.21,696.26,Single-ply,SBD,M
Boys,124.74+,3,Jake Long,Waco Midway,157.67,242.67,181.44,219.99,644.1,Single-ply,SBD,M
Boys,124.74+,4,Emmanuel Benson,Waco Midway,156.22,229.06,149.69,215.46,594.21,Single-ply,SBD,M
Boys,124.74+,5,Dale Wright,Copperas Cove,128.37,254.01,122.47,204.12,580.6,Single-ply,SBD,M
Boys,124.74+,6,Joseph Kiraly,Waco,138.71,226.8,127.01,204.12,557.92,Single-ply,SBD,M
Boys,124.74+,7,Dakari White,Temple,136.8,208.65,142.88,197.31,548.85,Single-ply,SBD,M
Boys,124.74+,8,Jaylian Milton,Waco,130.45,226.8,124.74,190.51,542.04,Single-ply,SBD,M
Boys,124.74+,9,Agnello MacKenzie,Copperas Cove,137.26,204.12,129.27,199.58,532.97,Single-ply,SBD,M
Boys,124.74+,10,John Montemayor,Waco Midway,131.63,204.12,133.81,183.7,521.63,Single-ply,SBD,M
Boys,124.74+,11,Daniel Lopez,Temple,132.99,197.31,124.74,199.58,521.63,Single-ply,SBD,M
