Division,WeightClassKg,Place,Name,Team,BodyweightKg,Best3SquatKg,Best3BenchKg,Best3DeadliftKg,TotalKg,Equipment,Event,Sex
Boys,51.71,1,Nathan Acosta,Pearland Dawson,51.71,127.01,61.23,136.08,324.32,Single-ply,SBD,M
Boys,51.71,2,Jacob Cavness,Santa Fe,51.71,120.2,79.38,106.59,306.17,Single-ply,SBD,M
Boys,51.71,3,Kole Joiner,La Marque,46.72,79.38,45.36,97.52,222.26,Single-ply,SBD,M
Boys,55.79,1,Royshon Godley,Texas City,53.43,138.35,65.77,138.35,342.46,Single-ply,SBD,M
Boys,55.79,2,Mike Casteneda,Texas City,55.34,113.4,83.91,136.08,333.39,Single-ply,SBD,M
Boys,59.87,1,Alec Ruiz,Pearland Dawson,59.87,181.44,74.84,165.56,421.84,Single-ply,SBD,M
Boys,59.87,2,Bailey Lepore,Texas City,58.06,142.88,90.72,142.88,376.48,Single-ply,SBD,M
Boys,59.87,3,Tomas Ibarra,Texas City,57.15,133.81,70.31,136.08,340.19,Single-ply,SBD,M
Boys,59.87,4,Caleb Crum,Pearland,59.42,127.01,61.23,124.74,312.98,Single-ply,SBD,M
Boys,67.13,1,Joshua Crum,Pearland,66.13,181.44,106.59,181.44,469.47,Single-ply,SBD,M
Boys,67.13,2,Keven Nguyen,Friendswood Clear Brook,67.13,170.1,111.13,167.83,449.06,Single-ply,SBD,M
Boys,67.13,3,Santiago Hernandez,Texas City,64.5,174.63,108.86,163.29,446.79,Single-ply,SBD,M
Boys,67.13,4,Russell Pickney,La Marque,66.68,145.15,95.25,190.51,430.91,Single-ply,SBD,M
Boys,67.13,5,Luis Mugartegui,Texas City,66.68,149.69,86.18,142.88,378.75,Single-ply,SBD,M
Boys,74.84,1,Nick Sauer,Texas City,70.03,188.24,102.06,197.31,487.61,Single-ply,SBD,M
Boys,74.84,2,Vincent Ha,Friendswood Clear Brook,68.49,183.7,102.06,174.63,460.4,Single-ply,SBD,M
Boys,74.84,3,Derrick Cobbs,Dickinson,74.39,174.63,83.91,201.85,460.4,Single-ply,SBD,M
Boys,74.84,4,Carlos Torres,Texas City,74.39,161.03,113.4,174.63,449.06,Single-ply,SBD,M
Boys,74.84,5,Marcel Casas,Dickinson,74.39,158.76,79.38,183.7,421.84,Single-ply,SBD,M
Boys,74.84,6,Damien Butler,Texas City,72.03,151.95,95.25,167.83,415.04,Single-ply,SBD,M
Boys,74.84,7,Joshua Farley,Pearland,71.21,165.56,95.25,151.95,412.77,Single-ply,SBD,M
Boys,74.84,8,Robert Galindo,Dickinson,74.39,158.76,83.91,165.56,408.23,Single-ply,SBD,M
Boys,74.84,9,Jesus Cidiran,Texas City,74.39,158.76,,174.63,333.39,Single-ply,SD,M
Boys,82.1,1,Beau Ramos,Texas City,81.19,249.48,120.2,204.12,573.79,Single-ply,SBD,M
Boys,82.1,2,Mason Avery,Texas City,78.74,226.8,113.4,208.65,548.85,Single-ply,SBD,M
Boys,82.1,3,Anthony Copado,Dickinson,76.2,142.88,83.91,156.49,383.29,Single-ply,SBD,M
Boys,82.1,4,Anthony Franco,Dickinson,81.65,131.54,86.18,142.88,360.61,Single-ply,SBD,M
Boys,82.1,5,Jacob Gonzalez,Dickinson,81.65,124.74,70.31,142.88,337.93,Single-ply,SBD,M
Boys,82.1,6,Bryce Botkin,Pearland,77.11,129.27,70.31,136.08,335.66,Single-ply,SBD,M
Boys,82.1,DQ,Daley Samuel,Pearland,79.65,,,,,Single-ply,SBD,M
Boys,89.81,1,Benjamin McElyea,Pearland Dawson,89.36,190.51,142.88,206.38,539.77,Single-ply,SBD,M
Boys,89.81,2,Cameron Boegler,Pearland,88.36,190.51,131.54,210.92,532.97,Single-ply,SBD,M
Boys,89.81,3,Joseph McCarty-Davis,Texas City,86,201.85,117.93,210.92,530.7,Single-ply,SBD,M
Boys,89.81,4,Andy Huynh,Friendswood Clear Brook,89.81,206.38,113.4,206.38,526.17,Single-ply,SBD,M
Boys,89.81,5,Gage Slaughter,Santa Fe,89.81,204.12,115.67,190.51,510.29,Single-ply,SBD,M
Boys,89.81,6,Cobe Lane,Texas City,89.36,197.31,113.4,176.9,487.61,Single-ply,SBD,M
Boys,89.81,7,Jonathon Rios,Texas City,89.36,183.7,113.4,183.7,480.81,Single-ply,SBD,M
Boys,89.81,8,Kaleb Jacobs,Texas City,85.73,183.7,115.67,158.76,458.13,Single-ply,SBD,M
Boys,89.81,9,Ishawn Baines,Dickinson,89.36,174.63,79.38,192.78,446.79,Single-ply,SBD,M
Boys,89.81,10,Andrew Pruyn,Pearland Dawson,86.64,165.56,104.33,174.63,444.52,Single-ply,SBD,M
Boys,89.81,11,Antonio Botello,Santa Fe,89.81,161.03,106.59,158.76,426.38,Single-ply,SBD,M
Boys,89.81,12,Larry Magee,La Marque,89.36,156.49,79.38,181.44,417.3,Single-ply,SBD,M
Boys,89.81,13,Camaron Turner,Dickinson,89.36,158.76,86.18,161.03,405.97,Single-ply,SBD,M
Boys,89.81,14,Joey Gibbs,Santa Fe,89.81,163.29,79.38,161.03,403.7,Single-ply,SBD,M
Boys,99.79,1,Jorge Villanueva,Pearland,98.25,260.82,149.69,247.21,657.71,Single-ply,SBD,M
Boys,99.79,2,Bradon Niaves,Pearland,95.44,185.97,133.81,183.7,503.49,Single-ply,SBD,M
Boys,99.79,3,Kaleb Wisko,Santa Fe,91.63,183.7,108.86,204.12,496.68,Single-ply,SBD,M
Boys,99.79,4,Albert Alfaro,Texas City,95.71,185.97,122.47,185.97,494.42,Single-ply,SBD,M
Boys,99.79,5,Colton Scott,Santa Fe,99.79,190.51,102.06,197.31,489.88,Single-ply,SBD,M
Boys,99.79,6,Ethan Allen,Pearland Dawson,97.07,183.7,102.06,201.85,487.61,Single-ply,SBD,M
Boys,99.79,7,Josemaria Leyva,Dickinson,99.34,176.9,99.79,170.1,446.79,Single-ply,SBD,M
Boys,99.79,8,Cade Albrecht,Santa Fe,99.79,165.56,68.04,165.56,399.16,Single-ply,SBD,M
Boys,99.79,9,Jakobe Auzston,Dickinson,92.53,158.76,81.65,156.49,396.89,Single-ply,SBD,M
Boys,99.79,10,Lane James,Santa Fe,99.34,142.88,102.06,151.95,396.89,Single-ply,SBD,M
Boys,99.79,11,Ashton Wardrup,Santa Fe,90.26,124.74,83.91,174.63,383.29,Single-ply,SBD,M
Boys,109.77,1,Kevin Nguyen,Friendswood Clear Brook,109.77,288.03,158.76,274.42,721.21,Single-ply,SBD,M
Boys,109.77,2,Tyler Ray,Santa Fe,107.23,283.5,163.29,242.67,689.46,Single-ply,SBD,M
Boys,109.77,3,Isaiah Chance,Pearland Dawson,101.6,222.26,127.01,226.8,576.06,Single-ply,SBD,M
Boys,109.77,4,Michael McVay,Santa Fe,102.51,226.8,136.08,204.12,566.99,Single-ply,SBD,M
Boys,109.77,5,John Rinehart,Texas City,109.59,231.33,136.08,199.58,566.99,Single-ply,SBD,M
Boys,109.77,6,Matthew TA,Pearland Dawson,108.41,192.78,120.2,188.24,501.22,Single-ply,SBD,M
Boys,109.77,7,Christian Mcarthur,Santa Fe,109.77,183.7,90.72,165.56,439.98,Single-ply,SBD,M
Boys,109.77,8,Trellis Richardson,Pearland,104.87,151.95,106.59,158.76,417.3,Single-ply,SBD,M
Boys,109.77,9,Avian Cruces,La Marque,100.24,120.2,77.11,145.15,342.46,Single-ply,SBD,M
Boys,124.74,1,Payne He'Bert,Pearland Dawson,124.74,222.26,138.35,231.33,591.94,Single-ply,SBD,M
Boys,124.74,2,Dwight Daniel,Friendswood Clear Brook,124.74,204.12,129.27,215.46,548.85,Single-ply,SBD,M
Boys,124.74,3,Isiaih Iton,Pearland,117.93,192.78,124.74,204.12,521.63,Single-ply,SBD,M
Boys,124.74,4,Nikolas Fuentes,Texas City,113.76,197.31,117.93,183.7,498.95,Single-ply,SBD,M
Boys,124.74,5,Spencer Cody,Pearland Dawson,123.83,201.85,106.59,185.97,494.42,Single-ply,SBD,M
Boys,124.74,6,Trenton Mikes,Santa Fe,124.74,192.78,102.06,192.78,487.61,Single-ply,SBD,M
Boys,124.74,7,Calib Perez,Pearland Dawson,113.4,179.17,106.59,181.44,467.2,Single-ply,SBD,M
Boys,124.74,8,Jorge Pineda,Dickinson,111.58,136.08,68.04,145.15,349.27,Single-ply,SBD,M
Boys,124.74,9,Zyon Brooks,La Marque,110.22,108.86,70.31,113.4,292.57,Single-ply,SBD,M
Boys,124.74,DQ,Luis Delgado,Texas City,116.94,,,,,Single-ply,SBD,M
Boys,124.74+,1,Max Casas,Pearland Dawson,144.7,308.44,147.42,272.16,728.02,Single-ply,SBD,M
Boys,124.74+,2,Jaret Porterfield,Pearland,132.09,233.6,147.42,224.53,605.55,Single-ply,SBD,M
Boys,124.74+,3,David McGinty,Dickinson,125.65,181.44,90.72,199.58,471.74,Single-ply,SBD,M
Boys,124.74+,4,Shelby Waggoner,Dickinson,127.01,151.95,99.79,154.22,405.97,Single-ply,SBD,M
Boys,,NS,Triston Nabors,Santa Fe,,,,,,Single-ply,SBD,M
