Place,Sex,Name,Event,Division,WeightClassKg,Equipment,Team,State,BodyweightKg,Squat1Kg,Squat2Kg,Squat3Kg,Best3SquatKg,Bench1Kg,Bench2Kg,Bench3Kg,Best3BenchKg,Deadlift1Kg,Deadlift2Kg,Deadlift3Kg,Best3DeadliftKg,TotalKg,BirthYear
DQ,M,William Thacker,B,M-O,105,Single-ply,,GA,101.6,,,,,-217.5,-217.5,-217.5,,,,,,,1972
1,M,Joe Franklin,B,MR-M1,120,Raw,,GA,118.8,,,,,157.5,167.5,170,170.0,,,,,170,1971
1,M,Darrell Allen,B,MR-M2,93,Raw,,GA,91.2,,,,,140,147.5,-150,147.5,,,,,147.5,1961
1,M,Darrell Allen,B,MR-O,93,Raw,,GA,91.2,,,,,140,147.5,-150,147.5,,,,,147.5,1961
1,M,Jason Reyna,B,MR-O,105,Raw,,GA,102.8,,,,,135,140,-145,140.0,,,,,140,1983
1,M,Joe Franklin,B,MR-O,120,Raw,,GA,118.8,,,,,157.5,167.5,170,170.0,,,,,170,1971
1,F,Erika Bodden,B,FR-O,52,Raw,,GA,51.8,,,,,47.5,55,57.5,57.5,,,,,57.5,1980
1,F,Makenzie Peacock,B,FR-O,84+,Raw,,GA,96.3,,,,,57.5,62.5,67.5,67.5,,,,,67.5,1999
2,F,Abby Weaver,B,FR-O,84+,Raw,,GA,104.9,,,,,60,-65,-65,60.0,,,,,60,2000
1,F,Abby Weaver,B,FR-T1,84+,Raw,,GA,104.9,,,,,60,-65,-65,60.0,,,,,60,2000
1,F,Makenzie Peacock,B,FR-T2,84+,Raw,,GA,96.3,,,,,57.5,62.5,67.5,67.5,,,,,67.5,1999
1,M,Gregory Luu,SBD,MR-Jr,66,Raw,,GA,64.7,122.5,130,142.5,142.5,65,75,90,90.0,155,172.5,182.5,182.5,415,1992
1,M,Nicholas Arce,SBD,MR-Jr,83,Raw,,GA,82,-185,185,-212.5,185.0,120,-130,-130,120.0,215,230,242.5,242.5,547.5,1994
1,M,Clayton Fulbright,SBD,MR-Jr,93,Raw,,GA,91.9,250,265,-272.5,265.0,160,167.5,-175,167.5,250,267.5,-270,267.5,700,1995
1,M,Nikita Koba,SBD,MR-Jr,120,Raw,,GA,113,235,-250,-250,235.0,155,-165,-165,155.0,270,-280,-280,270.0,660,1993
1,M,Ron Weaver,SBD,MR-M1,105,Raw,,GA,102.7,125,132.5,142.5,142.5,122.5,-127.5,-127.5,122.5,147.5,165,175,175.0,440,1971
1,M,Tim Perez,SBD,MR-M2,93,Raw,,GA,92.6,170,182.5,187.5,187.5,97.5,102.5,105,105.0,192.5,200,,200.0,492.5,1959
DQ,M,Darrell Allen,SBD,MR-M2,93,Raw,,GA,91.2,-182.5,182.5,-195,182.5,140,147.5,-150,147.5,-142.5,,,,,1961
1,M,Gregory Luu,SBD,MR-O,66,Raw,,GA,64.7,122.5,130,142.5,142.5,65,75,90,90.0,155,172.5,182.5,182.5,415,1992
2,M,Daniel Yun,SBD,MR-O,66,Raw,,GA,60.1,110,122.5,127.5,127.5,-82.5,-82.5,82.5,82.5,-147.5,147.5,-150,147.5,357.5,1988
1,M,Eric Snow,SBD,MR-O,74,Raw,,GA,73.5,197.5,220,-222.5,220.0,-142.5,142.5,-147.5,142.5,-242.5,242.5,255,255.0,617.5,1986
2,M,Ariel Merivil,SBD,MR-O,74,Raw,,GA,73.2,172.5,182.5,190,190.0,-117.5,130,-142.5,130.0,202.5,227.5,235,235.0,555,1983
3,M,Joshua Tredway,SBD,MR-O,74,Raw,,GA,73.3,165,170,,170.0,115,120,-125,120.0,215,235,-240,235.0,525,1984
4,M,Minh Nguyen,SBD,MR-O,74,Raw,,GA,71.3,157.5,170,-185,170.0,125,137.5,-147.5,137.5,157.5,172.5,-195,172.5,480,1992
5,M,Daniel Kneller,SBD,MR-O,74,Raw,,GA,71.4,-130,142.5,150,150.0,97.5,102.5,-110,102.5,190,207.5,212.5,212.5,465,1990
1,M,Nicholas Arce,SBD,MR-O,83,Raw,,GA,82,-185,185,-212.5,185.0,120,-130,-130,120.0,215,230,242.5,242.5,547.5,1994
2,M,Ben Mock,SBD,MR-O,83,Raw,,MA,81.7,-172.5,180,187.5,187.5,95,-100,100,100.0,205,215,222.5,222.5,510,1996
3,M,Zachary Smith,SBD,MR-O,83,Raw,2 016.00,GA,82,150,160,170,170.0,100,105,110,110.0,175,185,195,195.0,475,1978
4,M,Jeremy Collier,SBD,MR-O,83,Raw,,GA,79.4,120,-142.5,-147.5,120.0,-82.5,-92.5,95,95.0,142.5,170,175,175.0,390,1988
1,M,Matthew Treherne,SBD,MR-O,93,Raw,,GA,90.4,265,275,-280,275.0,-157.5,-157.5,157.5,157.5,280,292.5,-300,292.5,725,1989
2,M,Clayton Fulbright,SBD,MR-O,93,Raw,,GA,91.9,250,265,-272.5,265.0,160,167.5,-175,167.5,250,267.5,-270,267.5,700,1995
3,M,Drew Anderson,SBD,MR-O,93,Raw,,FL,91.8,230,237.5,242.5,242.5,165,175,-180,175.0,247.5,255,265,265.0,682.5,1987
4,M,Zachary Miller,SBD,MR-O,93,Raw,,GA,91.8,-247.5,-255,260,260.0,140,-147.5,-147.5,140.0,262.5,275,282.5,282.5,682.5,1985
5,M,Tim Perez,SBD,MR-O,93,Raw,,GA,92.6,170,182.5,187.5,187.5,97.5,102.5,105,105.0,192.5,200,,200.0,492.5,1959
6,M,Minh Dang,SBD,MR-O,93,Raw,,GA,90.9,142.5,152.5,160,160.0,97.5,105,110,110.0,185,192.5,205,205.0,475,1993
DQ,M,Darrell Allen,SBD,MR-O,93,Raw,,GA,91.2,-182.5,182.5,-195,182.5,140,147.5,-150,147.5,-142.5,,,,,1961
1,M,Ron Weaver,SBD,MR-O,105,Raw,,GA,102.7,125,132.5,142.5,142.5,122.5,-127.5,-127.5,122.5,147.5,165,175,175.0,440,1971
1,M,Ross Tyner,SBD,MR-O,120,Raw,,GA,118.2,227.5,247.5,257.5,257.5,157.5,167.5,-177.5,167.5,217.5,237.5,247.5,247.5,672.5,1988
2,M,Nikita Koba,SBD,MR-O,120,Raw,,GA,113,235,-250,-250,235.0,155,-165,-165,155.0,270,-280,-280,270.0,660,1993
1,M,Ben Kalziqi,SBD,MR-O,120+,Raw,,GA,122.8,210,222.5,232.5,232.5,170,182.5,192.5,192.5,-205,215,-235,215.0,640,1990
1,M,Ben Mock,SBD,MR-T3,83,Raw,,MA,81.7,-172.5,180,187.5,187.5,95,-100,100,100.0,205,215,222.5,222.5,510,1996
1,F,Madison Senior,SBD,FR-Jr,52,Raw,,GA,50.7,80,87.5,-92.5,87.5,42.5,47.5,-52.5,47.5,85,97.5,105,105.0,240,1993
1,F,Sarah Al-Khayyal,SBD,FR-Jr,72,Raw,,GA,70.6,102.5,107.5,112.5,112.5,-75,77.5,-82.5,77.5,155,162.5,165,165.0,355,1994
2,F,Megan Hollowell,SBD,FR-Jr,72,Raw,,GA,70.6,62.5,65,67.5,67.5,32.5,-35,-35,32.5,97.5,102.5,110,110.0,210,1993
DQ,F,Saehee Park,SBD,FR-Jr,72,Raw,,GA,71.1,105,-110,110,110.0,-52.5,-57.5,57.5,57.5,-112.5,-122.5,-122.5,,,1995
1,F,Toni Johnson,SBD,FR-Jr,84,Raw,,GA,76.6,97.5,105,112.5,112.5,52.5,-57.5,57.5,57.5,170,182.5,195,195.0,365,1994
1,F,Lisa Francavilla,SBD,FR-M1,72,Raw,,GA,72,105,112.5,120,120.0,52.5,57.5,62.5,62.5,135,145,155,155.0,337.5,1967
1,F,Nicole Fuentes,SBD,FR-M1,84,Raw,,GA,83.6,110,-117.5,117.5,117.5,60,65,70,70.0,110,122.5,142.5,142.5,330,1973
1,F,Joan Sherwood,SBD,FR-M2,84,Raw,,GA,83.2,77.5,85,92.5,92.5,55,60,-62.5,60.0,100,110,120,120.0,272.5,1965
1,F,Barbara Parsons,SBD,FR-M3,84,Raw,,GA,75.2,60,65,72.5,72.5,-35,37.5,-42.5,37.5,67.5,77.5,80,80.0,190,1953
1,F,Erika Bodden,SBD,FR-O,52,Raw,,GA,51.8,92.5,102.5,-110,102.5,47.5,55,57.5,57.5,110,127.5,-130,127.5,287.5,1980
2,F,Madison Senior,SBD,FR-O,52,Raw,,GA,50.7,80,87.5,-92.5,87.5,42.5,47.5,-52.5,47.5,85,97.5,105,105.0,240,1993
DQ,F,Katherine McCormick,SBD,FR-O,57,Raw,,GA,55.8,-70,-70,-70,,45,47.5,-52.5,47.5,105,115,120,120.0,,1999
1,F,Cassi Niemann,SBD,FR-O,63,Raw,,GA,61.2,115,-120,120,120.0,62.5,65,70,70.0,130,137.5,145,145.0,335,1979
DQ,F,Bonnie Clark,SBD,FR-O,63,Raw,,GA,61.5,117.5,120,-127.5,120.0,-70,70,-72.5,70.0,-117.5,-117.5,-122.5,,,1979
1,F,Sarah Al-Khayyal,SBD,FR-O,72,Raw,,GA,70.6,102.5,107.5,112.5,112.5,-75,77.5,-82.5,77.5,155,162.5,165,165.0,355,1994
2,F,Lisa Francavilla,SBD,FR-O,72,Raw,,GA,72,105,112.5,120,120.0,52.5,57.5,62.5,62.5,135,145,155,155.0,337.5,1967
3,F,Tatyana Webb,SBD,FR-O,72,Raw,,GA,69.7,115,125,-130,125.0,57.5,-60,-62.5,57.5,135,142.5,147.5,147.5,330,1989
4,F,Courtney Cox,SBD,FR-O,72,Raw,,GA,71.5,77.5,85,90,90.0,52.5,-57.5,57.5,57.5,80,87.5,95,95.0,242.5,1979
5,F,Megan Hollowell,SBD,FR-O,72,Raw,,GA,70.6,62.5,65,67.5,67.5,32.5,-35,-35,32.5,97.5,102.5,110,110.0,210,1993
DQ,F,Saehee Park,SBD,FR-O,72,Raw,,GA,71.1,105,-110,110,110.0,-52.5,-57.5,57.5,57.5,-112.5,-122.5,-122.5,,,1995
1,F,Jacquelyn Alford,SBD,FR-O,84,Raw,,GA,82.1,150,155,-160,155.0,-77.5,77.5,-80,77.5,167.5,172.5,-182.5,172.5,405,1990
2,F,Toni Johnson,SBD,FR-O,84,Raw,,GA,76.6,97.5,105,112.5,112.5,52.5,-57.5,57.5,57.5,170,182.5,195,195.0,365,1994
3,F,Nicole Fuentes,SBD,FR-O,84,Raw,,GA,83.6,110,-117.5,117.5,117.5,60,65,70,70.0,110,122.5,142.5,142.5,330,1973
4,F,Joan Sherwood,SBD,FR-O,84,Raw,,GA,83.2,77.5,85,92.5,92.5,55,60,-62.5,60.0,100,110,120,120.0,272.5,1965
5,F,Elissa Pally,SBD,FR-O,84,Raw,,GA,83.8,77.5,85,92.5,92.5,40,45,50,50.0,95,105,112.5,112.5,255,1982
6,F,Deann Stevens,SBD,FR-O,84,Raw,,GA,78.8,42.5,50,55,55.0,37.5,42.5,47.5,47.5,72.5,80,90,90.0,192.5,1979
7,F,Barbara Parsons,SBD,FR-O,84,Raw,,GA,75.2,60,65,72.5,72.5,-35,37.5,-42.5,37.5,67.5,77.5,80,80.0,190,1953
1,F,Makenzie Peacock,SBD,FR-O,84+,Raw,,GA,96.3,97.5,105,107.5,107.5,57.5,62.5,67.5,67.5,122.5,-140,-150,122.5,297.5,1999
2,F,Abby Weaver,SBD,FR-O,84+,Raw,,GA,104.9,90,95,100,100.0,60,-65,-65,60.0,107.5,115,-125,115.0,275,2000
1,F,Abby Weaver,SBD,FR-T1,84+,Raw,,GA,104.9,90,95,100,100.0,60,-65,-65,60.0,107.5,115,-125,115.0,275,2000
DQ,F,Katherine McCormick,SBD,FR-T2,57,Raw,,GA,55.8,-70,-70,-70,,45,47.5,-52.5,47.5,105,115,120,120.0,,1999
1,F,Makenzie Peacock,SBD,FR-T2,84+,Raw,,GA,96.3,97.5,105,107.5,107.5,57.5,62.5,67.5,67.5,122.5,-140,-150,122.5,297.5,1999
1,F,Erika Bodden,BD,FR-O,52,Raw,,GA,51.8,,,,,47.5,55,57.5,57.5,110,127.5,-130,127.5,185,1980
