Division,WeightClassKg,Place,Name,Team,BodyweightKg,Best3SquatKg,Best3BenchKg,Best3DeadliftKg,TotalKg,Equipment,Event,Sex
Boys,51.71,1,Isaiah Reyes,Plainview,50.17,131.54,74.84,140.61,347,Single-ply,SBD,M
Boys,51.71,2,Payton Rhodes,Hart,50.62,127.01,70.31,131.54,328.85,Single-ply,SBD,M
Boys,55.79,1,Jose Perez,Bovina,54.25,136.08,61.23,136.08,333.39,Single-ply,SBD,M
Boys,55.79,2,Isaiah Rodriguez,Ralls,55.43,102.06,72.57,147.42,322.05,Single-ply,SBD,M
Boys,55.79,3,Alejandro Diaz,Hart,54.98,122.47,52.16,142.88,317.51,Single-ply,SBD,M
Boys,55.79,4,Bo Hernandez,Dimmitt,55.79,92.99,56.7,124.74,274.42,Single-ply,SBD,M
Boys,59.87,1,Alexis Delgado,Plainview,58.06,127.01,49.9,142.88,319.78,Single-ply,SBD,M
Boys,59.87,2,Ezaiah Martinez,Dimmitt,57.24,106.59,74.84,136.08,317.51,Single-ply,SBD,M
Boys,59.87,3,Hayden Montgomery,Tulia,58.88,127.01,63.5,122.47,312.98,Single-ply,SBD,M
Boys,67.13,1,Robert Zauala,Ralls,66.41,226.8,136.08,215.46,578.33,Single-ply,SBD,M
Boys,67.13,2,Riley Tiemann,Vega,67.13,170.1,97.52,188.24,455.86,Single-ply,SBD,M
Boys,67.13,3,Walker Voyles,Vega,66.04,165.56,95.25,192.78,453.59,Single-ply,SBD,M
Boys,67.13,4,Brady Tiemann,Vega,65.5,165.56,92.99,185.97,444.52,Single-ply,SBD,M
Boys,67.13,5,Stewart Skiles,Vega,65.5,165.56,83.91,181.44,430.91,Single-ply,SBD,M
Boys,67.13,6,Ryan Garcia,Ralls,62.69,176.9,79.38,165.56,421.84,Single-ply,SBD,M
Boys,67.13,7,Robert Perez,Dimmitt,64.77,136.08,72.57,161.03,369.68,Single-ply,SBD,M
Boys,67.13,8,Josmar Mejia,Dimmitt,60.6,129.27,81.65,142.88,353.8,Single-ply,SBD,M
Boys,67.13,9,Moses Mejia,Dimmitt,62.78,124.74,81.65,129.27,335.66,Single-ply,SBD,M
Boys,67.13,10,Benjamin Njenga,Ralls,66.86,113.4,65.77,147.42,326.59,Single-ply,SBD,M
Boys,67.13,DQ,Ivan Fernandez,Tulia,63.78,122.47,63.5,,,Single-ply,SBD,M
Boys,67.13,DQ,Fernando Martinez,Bovina,65.14,117.93,,,,Single-ply,SBD,M
Boys,74.84,1,Gus Garcia,Plainview,73.12,188.24,129.27,201.85,519.36,Single-ply,SBD,M
Boys,74.84,2,Alex Carmona,Floydada,72.67,192.78,99.79,181.44,474,Single-ply,SBD,M
Boys,74.84,3,Eric Soto,Plainview,73.57,190.51,102.06,181.44,474,Single-ply,SBD,M
Boys,74.84,4,Jonathon Gonzalez,Plainview,74.03,195.04,111.13,156.49,462.66,Single-ply,SBD,M
Boys,74.84,5,Kathan Valenzuela,Tulia,74.12,170.1,83.91,192.78,446.79,Single-ply,SBD,M
Boys,74.84,6,Steven Salazar,Ralls,69.13,161.03,99.79,181.44,442.25,Single-ply,SBD,M
Boys,74.84,7,Cristian Gonzalez,Vega,70.22,170.1,86.18,165.56,421.84,Single-ply,SBD,M
Boys,74.84,8,Kayden Laminack,Ralls,74.39,154.22,88.45,172.37,415.04,Single-ply,SBD,M
Boys,74.84,9,Jose Mendoza,Dimmitt,68.13,149.69,79.38,147.42,376.48,Single-ply,SBD,M
Boys,74.84,10,Luke Unterkircher,Tulia,72.21,142.88,70.31,154.22,367.41,Single-ply,SBD,M
Boys,74.84,DQ,Faustino Lopez,Plainview,69.4,163.29,,,,Single-ply,SBD,M
Boys,82.1,1,Julian Rios,Wolfforth Frenship,80.01,222.26,127.01,226.8,576.06,Single-ply,SBD,M
Boys,82.1,2,Manuel Ramos,Bovina,82.1,181.44,138.35,210.92,530.7,Single-ply,SBD,M
Boys,82.1,3,Sergio Salinas,Ralls,79.56,199.58,108.86,197.31,505.76,Single-ply,SBD,M
Boys,82.1,4,Silas Urrutia,Lockney,79.2,176.9,120.2,167.83,464.93,Single-ply,SBD,M
Boys,82.1,5,Alex Conley,Sudan,81.37,181.44,120.2,163.29,464.93,Single-ply,SBD,M
Boys,82.1,6,Marco Godino,Plainview,80.2,181.44,92.99,185.97,460.4,Single-ply,SBD,M
Boys,82.1,7,Beto Diaz,Sudan,75.57,158.76,95.25,176.9,430.91,Single-ply,SBD,M
Boys,82.1,8,Coby Rendon,Ralls,80.74,136.08,79.38,181.44,396.89,Single-ply,SBD,M
Boys,82.1,9,Bobby Marez,Wolfforth Frenship,79.02,142.88,92.99,156.49,392.36,Single-ply,SBD,M
Boys,89.81,1,Julian Flores,Wolfforth Frenship,86.09,183.7,122.47,192.78,498.95,Single-ply,SBD,M
Boys,89.81,2,Diego Azua,Lockney,89.18,174.63,124.74,199.58,498.95,Single-ply,SBD,M
Boys,89.81,3,Justin Rodriguez,Plainview,82.64,197.31,104.33,190.51,492.15,Single-ply,SBD,M
Boys,89.81,4,Joe Barrera,Tulia,85.46,176.9,106.59,188.24,471.74,Single-ply,SBD,M
Boys,89.81,5,Jordyn Vasquez,Plainview,84.82,188.24,102.06,170.1,460.4,Single-ply,SBD,M
Boys,89.81,6,Corbin McDowell,Tulia,86.36,172.37,86.18,181.44,439.98,Single-ply,SBD,M
Boys,89.81,DQ,Cameron Enriquez,Dimmitt,82.64,,,,,Single-ply,SBD,M
Boys,99.79,1,Cardell Wickware,Floydada,96.8,206.38,158.76,206.38,571.53,Single-ply,SBD,M
Boys,99.79,2,Tyler Vasquez,Plainview,91.17,174.63,102.06,167.83,444.52,Single-ply,SBD,M
Boys,99.79,3,Armando Trujillo,Vega,93.62,181.44,90.72,170.1,442.25,Single-ply,SBD,M
Boys,99.79,4,Cade Hood,Vega,95.35,170.1,90.72,165.56,426.38,Single-ply,SBD,M
Boys,99.79,DQ,Gabe Cisneros,Sudan,98.07,190.51,,,,Single-ply,SBD,M
Boys,109.77,1,Miguel Lara,Lockney,108.95,226.8,127.01,215.46,569.26,Single-ply,SBD,M
Boys,109.77,2,Cody Barker,Wolfforth Frenship,107.5,208.65,106.59,235.87,551.11,Single-ply,SBD,M
Boys,109.77,3,Andrew Sanchez,Lockney,108.14,181.44,129.27,204.12,514.83,Single-ply,SBD,M
Boys,109.77,4,Bobby Villegas,Tulia,107.5,204.12,83.91,183.7,471.74,Single-ply,SBD,M
Boys,109.77,5,Gaven Nazario,Clarendon,100.88,176.9,99.79,185.97,462.66,Single-ply,SBD,M
Boys,109.77,6,Jacob Bartlett,Ralls,104.33,170.1,90.72,190.51,451.32,Single-ply,SBD,M
Boys,109.77,7,Gerardo Gonzalez,Dimmitt,99.97,161.03,90.72,192.78,444.52,Single-ply,SBD,M
Boys,109.77,8,Xavier Ramos,Dimmitt,103.33,92.99,70.31,127.01,290.3,Single-ply,SBD,M
Boys,124.74,1,Cody Mays,Vega,117.48,249.48,145.15,240.4,635.03,Single-ply,SBD,M
Boys,124.74,2,Tim Dominguez,Plainview,111.4,249.48,138.35,229.06,616.89,Single-ply,SBD,M
Boys,124.74,3,Javier Olvera,Floydada,119.02,222.26,129.27,215.46,566.99,Single-ply,SBD,M
Boys,124.74,4,Damon Monroe,Floydada,111.31,204.12,117.93,195.04,517.1,Single-ply,SBD,M
Boys,124.74,5,Jaime Lopez,Wolfforth Frenship,120.56,179.17,129.27,208.65,517.1,Single-ply,SBD,M
Boys,124.74,6,Jesus Guerra,Sudan,116.66,188.24,104.33,183.7,476.27,Single-ply,SBD,M
Boys,124.74,7,Vincent Vaquera,Clarendon,122.11,165.56,92.99,183.7,442.25,Single-ply,SBD,M
Boys,124.74+,1,Kevin Sanders,Wolfforth Frenship,161.3,219.99,117.93,215.46,553.38,Single-ply,SBD,M
Boys,124.74+,2,Jerik Reed,Tulia,126.46,201.85,108.86,195.04,505.76,Single-ply,SBD,M
