Division,WeightClassKg,Place,Name,Team,BodyweightKg,Best3SquatKg,Best3BenchKg,Best3DeadliftKg,TotalKg,Equipment,Event,Sex
Boys,51.71,1,Jose Sanchez,Gilmer,49.35,145.15,90.72,149.69,385.55,Single-ply,SBD,M
Boys,51.71,2,Felix Espinoza,Crandall,51.71,120.2,70.31,136.08,326.59,Single-ply,SBD,M
Boys,51.71,3,Jayden Brown,Paris North Lamar,50.71,117.93,61.23,145.15,324.32,Single-ply,SBD,M
Boys,51.71,4,Deuntre Adamson,Paris,48.35,111.13,63.5,133.81,308.44,Single-ply,SBD,M
Boys,51.71,5,Tyce Johnson,Bullard,46.72,111.13,70.31,124.74,306.17,Single-ply,SBD,M
Boys,51.71,6,Makai Reyes,Mabank,51.53,120.2,65.77,120.2,306.17,Single-ply,SBD,M
Boys,51.71,7,John Davis,Center,51.07,108.86,63.5,111.13,283.5,Single-ply,SBD,M
Boys,51.71,8,Landon Warren,Bullard,48.81,97.52,56.7,115.67,269.89,Single-ply,SBD,M
Boys,51.71,9,Bryce Roundtree,Madisonville,48.99,102.06,56.7,99.79,258.55,Single-ply,SBD,M
Boys,51.71,10,Gavin Niedich,Fairfield,48.81,99.79,56.7,90.72,247.21,Single-ply,SBD,M
Boys,51.71,11,Aaron Matche,Fairfield,48.99,95.25,58.97,90.72,244.94,Single-ply,SBD,M
Boys,51.71,DQ,Jose Lopez,Kaufman,47.17,122.47,63.5,,,Single-ply,SBD,M
Boys,55.79,1,Trey Arras,Texarkana Liberty-Eylau,55.52,199.58,122.47,185.97,508.02,Single-ply,SBD,M
Boys,55.79,2,Eric Reaper,Tyler Chapel Hill,55.43,181.44,111.13,163.29,455.86,Single-ply,SBD,M
Boys,55.79,3,Keiotti Bray,Paris,54.34,179.17,97.52,154.22,430.91,Single-ply,SBD,M
Boys,55.79,4,Angel Barroso,Tyler Chapel Hill,54.98,149.69,102.06,147.42,399.16,Single-ply,SBD,M
Boys,55.79,5,Austin Caldwell,Wills Point,55.52,142.88,77.11,151.95,371.95,Single-ply,SBD,M
Boys,55.79,6,Evelio Mendoza,Gilmer,55.7,140.61,68.04,149.69,358.34,Single-ply,SBD,M
Boys,55.79,7,Aaron Blake,Tyler Chapel Hill,54.52,136.08,58.97,136.08,331.12,Single-ply,SBD,M
Boys,55.79,8,Carl Shehane,Quinlan Ford,54.25,131.54,70.31,113.4,315.25,Single-ply,SBD,M
Boys,59.87,1,Isaiah Payne,Crandall,59.15,188.24,111.13,215.46,514.83,Single-ply,SBD,M
Boys,59.87,2,Josh Bolton,Paris North Lamar,59.06,176.9,111.13,185.97,474,Single-ply,SBD,M
Boys,59.87,3,Garrett Davis,Quinlan Ford,59.24,181.44,102.06,170.1,453.59,Single-ply,SBD,M
Boys,59.87,4,Will McCowin,Bullard,59.87,176.9,77.11,181.44,435.45,Single-ply,SBD,M
Boys,59.87,5,Wesley Gage,Paris,58.69,174.63,81.65,174.63,430.91,Single-ply,SBD,M
Boys,59.87,6,Gage Dollins,Paris North Lamar,58.79,163.29,97.52,167.83,428.64,Single-ply,SBD,M
Boys,59.87,7,Roshabrius Garrett,Carthage,58.24,151.95,99.79,167.83,419.57,Single-ply,SBD,M
Boys,59.87,8,Zaahid Abdullah,Waxahachie Life,58.79,156.49,90.72,165.56,412.77,Single-ply,SBD,M
Boys,59.87,9,Bryce Evans,Paris North Lamar,59.24,158.76,83.91,147.42,390.09,Single-ply,SBD,M
Boys,59.87,10,Dalton Johnson,Atlanta,59.15,142.88,79.38,154.22,376.48,Single-ply,SBD,M
Boys,59.87,DQ,Alex Rodriguez,Fairfield,59.87,,,,,Single-ply,SBD,M
Boys,59.87,DQ,Louis Ortiz,Wills Point,59.42,136.08,74.84,,,Single-ply,SBD,M
Boys,67.13,1,Travius Bronner,Paris,66.77,233.6,115.67,183.7,532.97,Single-ply,SBD,M
Boys,67.13,2,Walt Mahmoud,Athens,66.32,199.58,117.93,192.78,510.29,Single-ply,SBD,M
Boys,67.13,3,Damion Brown,Bullard,66.32,208.65,122.47,172.37,503.49,Single-ply,SBD,M
Boys,67.13,4,Bryce Stephens,Brownsboro,65.59,192.78,122.47,176.9,492.15,Single-ply,SBD,M
Boys,67.13,5,Sean Collins,Gilmer,66.13,199.58,102.06,167.83,469.47,Single-ply,SBD,M
Boys,67.13,6,Clay Conway,Mabank,65.5,192.78,97.52,172.37,462.66,Single-ply,SBD,M
Boys,67.13,7,Greg Yarbrough,Paris,66.22,174.63,81.65,206.38,462.66,Single-ply,SBD,M
Boys,67.13,8,Christian Garcia,Emory Rains,66.32,181.44,95.25,181.44,458.13,Single-ply,SBD,M
Boys,67.13,9,Jose Rodriguez,Fairfield,66.95,181.44,86.18,181.44,449.06,Single-ply,SBD,M
Boys,67.13,10,Timarco Cordon,Fairfield,63.68,181.44,99.79,156.49,437.72,Single-ply,SBD,M
Boys,67.13,DQ,Zane Anderson,Fairfield,67.13,,,,,Single-ply,SBD,M
Boys,67.13,DQ,Caleb McNair,Rusk,65.14,181.44,,,,Single-ply,SBD,M
Boys,74.84,1,Toby Thatcher,Bullard,74.48,249.48,158.76,226.8,635.03,Single-ply,SBD,M
Boys,74.84,2,Blaine Jarratt,Caddo Mills,73.84,238.14,124.74,231.33,594.21,Single-ply,SBD,M
Boys,74.84,3,Eric Pheng,Paris North Lamar,72.57,226.8,127.01,208.65,562.45,Single-ply,SBD,M
Boys,74.84,4,Aaron Taylor,Caddo Mills,73.94,204.12,115.67,197.31,517.1,Single-ply,SBD,M
Boys,74.84,5,David By,Pittsburg,74.84,204.12,113.4,199.58,517.1,Single-ply,SBD,M
Boys,74.84,6,Clayton Mosley,Atlanta,73.12,192.78,122.47,199.58,514.83,Single-ply,SBD,M
Boys,74.84,7,Colton Buttgen,Midlothian Heritage,73.03,190.51,120.2,201.85,512.56,Single-ply,SBD,M
Boys,74.84,8,Anthony Lopez,Athens,74.3,185.97,147.42,170.1,503.49,Single-ply,SBD,M
Boys,74.84,9,Isaiah Niles,Ferris,71.67,197.31,92.99,206.38,496.68,Single-ply,SBD,M
Boys,74.84,10,Jeremiah Guenther,Paris North Lamar,72.12,192.78,113.4,190.51,496.68,Single-ply,SBD,M
Boys,74.84,11,Byron Johnson #1,Rusk,74.84,190.51,102.06,199.58,492.15,Single-ply,SBD,M
Boys,74.84,12,Ulises Ramirez,Fairfield,70.58,201.85,102.06,181.44,485.34,Single-ply,SBD,M
Boys,82.1,1,Zanoah Arnold,Texarkana Liberty-Eylau,80.65,249.48,147.42,276.69,673.58,Single-ply,SBD,M
Boys,82.1,2,JaShaughn Hatcher,Fairfield,80.65,226.8,127.01,258.55,612.35,Single-ply,SBD,M
Boys,82.1,3,Austin Davis,Bullard,79.38,235.87,149.69,222.26,607.81,Single-ply,SBD,M
Boys,82.1,4,Jaxon Hevron,Paris North Lamar,80.2,244.94,140.61,215.46,601.01,Single-ply,SBD,M
Boys,82.1,5,Jansen Mattingly,Bullard,81.19,213.19,120.2,229.06,562.45,Single-ply,SBD,M
Boys,82.1,6,Nick Butler,Caddo Mills,80.01,195.04,117.93,213.19,526.17,Single-ply,SBD,M
Boys,82.1,7,Mason Chrisman,Paris North Lamar,78.38,183.7,120.2,208.65,512.56,Single-ply,SBD,M
Boys,82.1,8,Josh Hull,Wills Point,81.37,181.44,129.27,195.04,505.76,Single-ply,SBD,M
Boys,82.1,9,Reece Ricketts,Bullard,79.83,181.44,122.47,188.24,492.15,Single-ply,SBD,M
Boys,82.1,DQ,Julian Martinez,Diboll,76.93,204.12,,,,Single-ply,SBD,M
Boys,82.1,DQ,Sam Thomas,Rusk,81.1,204.12,,,,Single-ply,SBD,M
Boys,89.81,1,Decorian Horton,Tyler Chapel Hill,88.72,272.16,161.03,256.28,689.46,Single-ply,SBD,M
Boys,89.81,2,Witt Dockens,Center,87.91,272.16,158.76,231.33,662.24,Single-ply,SBD,M
Boys,89.81,3,Nick Cooper,Atlanta,86.82,244.94,138.35,251.74,635.03,Single-ply,SBD,M
Boys,89.81,4,Marquis Massenburge,Tyler Chapel Hill,88.81,251.74,142.88,240.4,635.03,Single-ply,SBD,M
Boys,89.81,5,Khristion Little,Tyler Chapel Hill,89.72,265.35,124.74,229.06,619.15,Single-ply,SBD,M
Boys,89.81,6,Xavier Hughey,Crandall,84.46,260.82,145.15,210.92,616.89,Single-ply,SBD,M
Boys,89.81,7,Maalik Hall,Athens,88,219.99,120.2,231.33,571.53,Single-ply,SBD,M
Boys,89.81,8,Lucio Monroy,Diboll,87.45,201.85,136.08,226.8,564.72,Single-ply,SBD,M
Boys,89.81,9,Zee Barfoot,Atlanta,88.27,208.65,140.61,208.65,557.92,Single-ply,SBD,M
Boys,89.81,10,Antonio Miranda,Athens,88.45,217.72,131.54,183.7,532.97,Single-ply,SBD,M
Boys,89.81,11,Brady Jordan,Diboll,83.01,199.58,117.93,201.85,519.36,Single-ply,SBD,M
Boys,89.81,12,David Ramirez,Waxahachie Life,88.99,183.7,131.54,195.04,510.29,Single-ply,SBD,M
Boys,99.79,1,Darrell Houff,Texarkana Liberty-Eylau,97.98,247.21,185.97,244.94,678.12,Single-ply,SBD,M
Boys,99.79,2,Noah Bush,Athens,97.89,256.28,170.1,233.6,659.98,Single-ply,SBD,M
Boys,99.79,3,Chris Taylor,Caddo Mills,96.34,254.01,136.08,238.14,628.23,Single-ply,SBD,M
Boys,99.79,4,Logan Blake,Waxahachie Life,97.43,240.4,158.76,213.19,612.35,Single-ply,SBD,M
Boys,99.79,5,Edward Reese,Palestine,96.07,219.99,122.47,235.87,578.33,Single-ply,SBD,M
Boys,99.79,6,Thomas Brooks,Bullard,94.8,222.26,142.88,210.92,576.06,Single-ply,SBD,M
Boys,99.79,7,Shemar Willis,Athens,97.79,215.46,142.88,215.46,573.79,Single-ply,SBD,M
Boys,99.79,8,Justin Pate,Caddo Mills,92.26,219.99,124.74,217.72,562.45,Single-ply,SBD,M
Boys,99.79,9,Michael Hodge,Texarkana Liberty-Eylau,98.43,210.92,136.08,215.46,562.45,Single-ply,SBD,M
Boys,99.79,10,Donaven Dotson,Tyler Chapel Hill,96.25,226.8,129.27,204.12,560.19,Single-ply,SBD,M
Boys,99.79,DQ,Hunter Moore,Paris North Lamar,94.26,249.48,131.54,,,Single-ply,SBD,M
Boys,99.79,DQ,Mykel Gates,Carthage,98.34,231.33,,,,Single-ply,SBD,M
Boys,109.77,1,Jacob Gomez,Fairfield,108.68,317.51,197.31,226.8,741.62,Single-ply,SBD,M
Boys,109.77,2,Brandon Halliday,Paris North Lamar,106.41,242.67,174.63,226.8,644.1,Single-ply,SBD,M
Boys,109.77,3,Jose Rodriguez,Gilmer,102.69,260.82,120.2,258.55,639.57,Single-ply,SBD,M
Boys,109.77,4,Sloan Rodburg,Wills Point,106.59,249.48,151.95,238.14,639.57,Single-ply,SBD,M
Boys,109.77,5,Hunter Tucker,Tyler Chapel Hill,106.59,272.16,129.27,235.87,637.3,Single-ply,SBD,M
Boys,109.77,6,Colton Bergt,Texarkana Liberty-Eylau,107.77,244.94,131.54,244.94,621.42,Single-ply,SBD,M
Boys,109.77,7,Cheyenne Lockhart,Texarkana Liberty-Eylau,107.05,231.33,136.08,249.48,616.89,Single-ply,SBD,M
Boys,109.77,8,Jermaine Lewis,Rusk,106.78,240.4,127.01,244.94,612.35,Single-ply,SBD,M
Boys,109.77,9,Cody Banks,Caddo Mills,104.87,249.48,124.74,226.8,601.01,Single-ply,SBD,M
Boys,109.77,10,LaDarius Price,Fairfield,104.14,226.8,136.08,204.12,566.99,Single-ply,SBD,M
Boys,109.77,11,Jacob Faulk,Bullard,106.41,217.72,127.01,217.72,562.45,Single-ply,SBD,M
Boys,109.77,12,Kolton Stephens,Mabank,106.41,226.8,127.01,204.12,557.92,Single-ply,SBD,M
Boys,124.74,1,Daniel Zarzoza,Diboll,124.65,294.84,156.49,267.62,718.94,Single-ply,SBD,M
Boys,124.74,2,Aaron Pfleeger,Fairfield,117.03,281.23,158.76,263.08,703.07,Single-ply,SBD,M
Boys,124.74,3,Jeff Dover,Diboll,122.65,294.84,145.15,263.08,703.07,Single-ply,SBD,M
Boys,124.74,4,Jaylin Jackson,Fairfield,111.77,272.16,183.7,170.1,625.96,Single-ply,SBD,M
Boys,124.74,5,Caleb York,Van,115.58,249.48,156.49,217.72,623.69,Single-ply,SBD,M
Boys,124.74,6,Joey Haley,Paris North Lamar,114.21,226.8,136.08,254.01,616.89,Single-ply,SBD,M
Boys,124.74,7,Colton Chamberlain,Paris North Lamar,112.04,235.87,145.15,226.8,607.81,Single-ply,SBD,M
Boys,124.74,8,Jose Arreguin,Tyler Chapel Hill,121.11,249.48,149.69,192.78,591.94,Single-ply,SBD,M
Boys,124.74,9,De'Waven Rowden,Texarkana Liberty-Eylau,112.94,226.8,133.81,219.99,580.6,Single-ply,SBD,M
Boys,124.74,10,David Nava,Caddo Mills,118.3,226.8,140.61,208.65,576.06,Single-ply,SBD,M
Boys,124.74,DQ,Garrett Hayes,Athens,117.39,204.12,,,,Single-ply,SBD,M
Boys,124.74,DQ,Tanner Cornell,Longview Spring Hill,112.49,235.87,142.88,,,Single-ply,SBD,M
Boys,124.74+,1,Matt Kelly,Caddo Mills,139.07,340.19,158.76,226.8,725.75,Single-ply,SBD,M
Boys,124.74+,2,Jesus Garcia-Castillo,Palestine,159.66,272.16,167.83,240.4,680.39,Single-ply,SBD,M
Boys,124.74+,3,Dakota Smith,Canton,134.63,265.35,151.95,226.8,644.1,Single-ply,SBD,M
Boys,124.74+,4,Richard Gallegos,Longview Spring Hill,133.27,274.42,131.54,226.8,632.76,Single-ply,SBD,M
Boys,124.74+,5,Kevin Turner,Mabank,148.78,249.48,142.88,229.06,621.42,Single-ply,SBD,M
Boys,124.74+,6,Devon King,Gilmer,130.91,240.4,127.01,242.67,610.08,Single-ply,SBD,M
Boys,124.74+,7,Shamal Parish,Texarkana Liberty-Eylau,156.85,247.21,140.61,204.12,591.94,Single-ply,SBD,M
Boys,124.74+,8,Jacob Pulley,Caddo Mills,130.91,226.8,120.2,217.72,564.72,Single-ply,SBD,M
Boys,124.74+,9,Juan Gomez,Ferris,145.69,272.16,108.86,183.7,564.72,Single-ply,SBD,M
Boys,124.74+,10,Joey McIver,Madisonville,129.73,215.46,140.61,204.12,560.19,Single-ply,SBD,M
Boys,124.74+,11,Colton Chandler,Longview Spring Hill,128.82,217.72,138.35,181.44,537.51,Single-ply,SBD,M
Boys,124.74+,12,Dustin Williams,Atlanta,130.63,204.12,131.54,181.44,517.1,Single-ply,SBD,M
