Division,WeightClassKg,Place,Name,Team,BodyweightKg,Best3SquatKg,Best3BenchKg,Best3DeadliftKg,TotalKg,Equipment,Event,Sex
Girls,44.23,1,Jailene Williams,Blooming Grove,40.64,102.06,45.36,102.06,249.48,Single-ply,SBD,F
Girls,44.23,2,Haley Walls,Fairfield,43.09,104.33,47.63,90.72,242.67,Single-ply,SBD,F
Girls,44.23,3,Rebeca Granillo,Athens,42.18,47.63,27.22,65.77,140.61,Single-ply,SBD,F
Girls,47.85,1,Desiree Tillman,Tyler Chapel Hill,47.17,77.11,38.56,99.79,215.46,Single-ply,SBD,F
Girls,51.94,1,Kaylor Williams,Tyler Chapel Hill,51.26,124.74,47.63,124.74,297.1,Single-ply,SBD,F
Girls,51.94,2,Bethany Pruitt,Fairfield,51.62,106.59,49.9,106.59,263.08,Single-ply,SBD,F
Girls,51.94,3,Becca Brown,Malakoff,51.8,86.18,45.36,113.4,244.94,Single-ply,SBD,F
Girls,51.94,4,Sharay Rodriguez,Athens,50.62,97.52,40.82,99.79,238.14,Single-ply,SBD,F
Girls,51.94,5,Grace Carnes,Tyler Chapel Hill,50.17,97.52,31.75,102.06,231.33,Single-ply,SBD,F
Girls,51.94,6,Gabby Matthews,Malakoff,51.44,86.18,40.82,83.91,210.92,Single-ply,SBD,F
Girls,56.02,1,Leticia Chavez,Fairfield,54.88,108.86,49.9,108.86,267.62,Single-ply,SBD,F
Girls,56.02,2,Sarah Richmond,Fairfield,55.34,102.06,54.43,104.33,260.82,Single-ply,SBD,F
Girls,56.02,3,Ruby Olavarria,Athens,53.07,70.31,38.56,99.79,208.65,Single-ply,SBD,F
Girls,56.02,4,Jacqueline Mendez,Athens,55.34,79.38,36.29,92.99,208.65,Single-ply,SBD,F
Girls,60.1,1,Maddi Issacs,Fairfield,59.78,127.01,61.23,138.35,326.59,Single-ply,SBD,F
Girls,60.1,2,Raquel Balderas,Blooming Grove,59.87,124.74,61.23,136.08,322.05,Single-ply,SBD,F
Girls,60.1,3,Summer Black,Groesbeck,58.6,95.25,45.36,117.93,258.55,Single-ply,SBD,F
Girls,60.1,4,Edith Cockerell,Fairfield,56.25,106.59,45.36,104.33,256.28,Single-ply,SBD,F
Girls,60.1,5,Chloe Wilson,Fairfield,57.61,88.45,61.23,90.72,240.4,Single-ply,SBD,F
Girls,60.1,6,Carsen Railsback,Tyler Chapel Hill,59.42,83.91,38.56,108.86,231.33,Single-ply,SBD,F
Girls,60.1,7,Harley Gomez,Fairfield,59.42,81.65,36.29,81.65,199.58,Single-ply,SBD,F
Girls,60.1,8,Calla Childers,Fairfield,59.42,77.11,38.56,68.04,183.7,Single-ply,SBD,F
Girls,67.36,1,Shaylee Boles,Malakoff,63.41,136.08,61.23,122.47,319.78,Single-ply,SBD,F
Girls,67.36,2,Evelyn Robles,Rice,66.41,113.4,58.97,113.4,285.76,Single-ply,SBD,F
Girls,67.36,3,Carmen Lopez,Athens,65.41,131.54,54.43,92.99,278.96,Single-ply,SBD,F
Girls,67.36,4,Shellie Milton,Tyler Chapel Hill,66.68,108.86,40.82,106.59,256.28,Single-ply,SBD,F
Girls,67.36,5,Elena Fults,Tyler Chapel Hill,66.68,97.52,38.56,113.4,249.48,Single-ply,SBD,F
Girls,67.36,6,Rahmiyah Willis,Blooming Grove,62.32,113.4,40.82,88.45,242.67,Single-ply,SBD,F
Girls,67.36,7,Amie Nguyen,Tyler Chapel Hill,66.32,90.72,38.56,106.59,235.87,Single-ply,SBD,F
Girls,67.36,8,Kaitlyn Truett,Groesbeck,66.68,81.65,43.09,79.38,204.12,Single-ply,SBD,F
Girls,75.07,1,Claylin Carter,Groesbeck,70.67,124.74,63.5,142.88,331.12,Single-ply,SBD,F
Girls,75.07,2,Radiance Willis,Blooming Grove,74.93,122.47,68.04,131.54,322.05,Single-ply,SBD,F
Girls,75.07,3,Maddy Waddle,Groesbeck,70.31,127.01,65.77,117.93,310.71,Single-ply,SBD,F
Girls,75.07,4,Lorena Mirafuentes,Blooming Grove,73.12,122.47,61.23,124.74,308.44,Single-ply,SBD,F
Girls,75.07,5,Bailey Jones,Fairfield,74.39,113.4,58.97,120.2,292.57,Single-ply,SBD,F
Girls,75.07,6,Katie Lewis,Malakoff,69.22,106.59,45.36,99.79,251.74,Single-ply,SBD,F
Girls,75.07,7,Christina Ferguson,Fairfield,70.31,86.18,54.43,92.99,233.6,Single-ply,SBD,F
Girls,75.07,8,Matia Loengaard,Groesbeck,72.57,83.91,45.36,95.25,224.53,Single-ply,SBD,F
Girls,75.07,9,Maria Garcia,Athens,74.93,74.84,49.9,86.18,210.92,Single-ply,SBD,F
Girls,82.33,1,Jamie Wilkinson,Fairfield,81.65,176.9,90.72,131.54,399.16,Single-ply,SBD,F
Girls,82.33,2,Kelsey Whitten,Blooming Grove,76.11,136.08,86.18,145.15,367.41,Single-ply,SBD,F
Girls,82.33,3,Charity Star,Fairfield,79.38,102.06,65.77,108.86,276.69,Single-ply,SBD,F
Girls,82.33,4,Kitiara Griffin,Scurry-Rosser,81.65,92.99,49.9,104.33,247.21,Single-ply,SBD,F
Girls,82.33,5,Ivieya Daniels,Fairfield,79.83,90.72,52.16,99.79,242.67,Single-ply,SBD,F
Girls,90.04,1,Vanessa McNiel,Blooming Grove,85.91,161.03,92.99,147.42,401.43,Single-ply,SBD,F
Girls,90.04,2,Tymia Thompson,Athens,88.72,151.95,61.23,142.88,356.07,Single-ply,SBD,F
Girls,90.04,3,Katarina Cassell,Rice,89.36,117.93,77.11,122.47,317.51,Single-ply,SBD,F
Girls,100.02,1,Baylee Brown,Athens,91.17,115.67,56.7,131.54,303.91,Single-ply,SBD,F
Girls,100.02,2,Hayden Walker,Athens,94.62,111.13,56.7,117.93,285.76,Single-ply,SBD,F
Girls,100.02,3,Kaneshia-Lynn Lawler,Tyler Chapel Hill,91.99,102.06,52.16,102.06,256.28,Single-ply,SBD,F
Girls,117.71,1,Emily Rodriguez,Malakoff,116.3,136.08,56.7,127.01,319.78,Single-ply,SBD,F
Girls,117.71+,1,Mckenzie Commander,Groesbeck,121.65,,70.31,72.57,142.88,Single-ply,BD,F
